:0200000270008C
:10800000807F0020F1BB070019BC07001BBC0700E4
:108010001DBC07001FBC070021BC070000000000BA
:1080200000000000000000000000000023BC07006A
:1080300025BC07000000000027BC070029BC070082
:108040002BBC07002BBC07002BBC07002BBC070078
:108050002BBC07002BBC07002BBC07002BBC070068
:108060002BBC07002BBC07002BBC07002BBC070058
:108070002BBC07007D9307002BBC07002BBC07001F
:108080002BBC0700419407002BBC07002BBC07004A
:10809000719507002BBC07009DA207002BBC0700B1
:1080A0002BBC07002BBC07002BBC07002BBC070018
:1080B0002BBC07002BBC07000000000000000000E4
:1080C0002BBC07002BBC07002BBC07002BBC0700F8
:1080D0002BBC07002BBC07002BBC070000000000D6
:1080E0000000000000000000000000000000000090
:1080F0000000000000000000000000000000000080
:10810000000000000000000000000000000000006F
:10811000000000000000000000000000000000005F
:10812000000000000000000000000000000000004F
:10813000000000000000000000000000000000003F
:10814000000000000000000000000000000000002F
:10815000000000000000000000000000000000001F
:10816000000000000000000000000000000000000F
:1081700000000000000000000000000000000000FF
:1081800000000000000000000000000000000000EF
:1081900000000000000000000000000000000000DF
:1081A00000000000000000000000000000000000CF
:1081B00000000000000000000000000000000000BF
:1081C00000000000000000000000000000000000AF
:1081D000000000000000000000000000000000009F
:1081E000000000000000000000000000000000008F
:1081F000000000000000000000000000000000007F
:10820000000000000000000000000000000000006E
:10821000000000000000000000000000000000005E
:10822000000000000000000000000000000000004E
:10823000000000000000000000000000000000003E
:10824000000000000000000000000000000000002E
:10825000000000000000000000000000000000001E
:10826000000000000000000000000000000000000E
:1082700000000000000000000000000000000000FE
:1082800000000000000000000000000000000000EE
:1082900000000000000000000000000000000000DE
:1082A00000000000000000000000000000000000CE
:1082B00000000000000000000000000000000000BE
:1082C00000000000000000000000000000000000AE
:1082D000000000000000000000000000000000009E
:1082E000000000000000000000000000000000008E
:1082F000000000000000000000000000000000007E
:10830000000000000000000000000000000000006D
:10831000000000000000000000000000000000005D
:10832000000000000000000000000000000000004D
:10833000000000000000000000000000000000003D
:10834000000000000000000000000000000000002D
:10835000000000000000000000000000000000001D
:10836000000000000000000000000000000000000D
:1083700000000000000000000000000000000000FD
:1083800000000000000000000000000000000000ED
:1083900000000000000000000000000000000000DD
:1083A00000000000000000000000000000000000CD
:1083B00000000000000000000000000000000000BD
:1083C00000000000000000000000000000000000AD
:1083D000000000000000000000000000000000009D
:1083E000000000000000000000000000000000008D
:1083F000000000000000000000000000000000007D
:1084000010B5054C237833B9044B13B10448AFF3CE
:1084100000800123237010BD8C2C00200000000080
:1084200094D20700084B10B51BB108480849AFF3B8
:1084300000800848036803B910BD074B002BFBD030
:10844000BDE81040184700BF0000000094D20700AC
:10845000902C0020702C002000000000154B002BF9
:1084600008BF134B9D46A3F5803A00218B460F466B
:108470001348144A121A00F065F80F4B002B00D075
:1084800098470E4B002B00D0984700200021040095
:108490000D000D48002802D00C48AFF3008000F01A
:1084A0002BF82000290002F09FFA00F011F800BF1D
:1084B00000000800807F0020000000000000000095
:1084C0008C2C0020E038002000000000000000009C
:1084D00008B5074B044613B10021AFF30080054BEC
:1084E0001868836A03B19847204600F033F800BF4C
:1084F0000000000024CF070070B50E4B0E4CE41AAC
:10850000A41000251E46A54204D056F825309847F1
:108510000135F8E704F0F8FC084C094BE41AA41004
:1085200000251E46A54204D056F82530984701354F
:10853000F8E770BD682C0020682C00206C2C00200F
:10854000682C002002440346934202D003F8011B2A
:10855000FAE77047FEE700BF2DE9F04F0388112BC3
:108560008DB0044618D002D8102B05D03BE0122B5A
:1085700031D0502B1DD036E0914B82881A8000F10B
:10858000100303CB8F4A904B1060516000221A7089
:108590008E4BDB893BBB24E0894B4FF6FF721A8080
:1085A000894B00221A7002F091FCE0B1874B9B6965
:1085B0000EE0864DC288EB899A4214D1038A022BC1
:1085C00011D1837CD9070CD402F080FC58B1AB697F
:1085D0004BB1984707E000F1080303CB794A1060DC
:1085E000516002F07DF92388142B00F09D8218D889
:1085F000102B28D008D8022B40F0AC84744B0021FB
:10860000188800F042FEB5E3112B29D0132B40F05F
:10861000A1846F4B002218888521134600F047FE85
:10862000A8E3522B00F0878206D8502B00F08A82F4
:10863000512B2CD000F08EBC552B00F09783562B7D
:108640001BD000F087BC624BA2881A80614A136875
:1086500023F002031360604B01221A7000F07ABC11
:1086600000F0A2FD08B102F083F9594B4FF6FF72FA
:108670001A80594B187000F06DBCA379002B40F0A4
:108680006984534B1321188800F017FE72E3A57913
:10869000002D00F05F8408A800211022FFF752FF90
:1086A000022D40F057844D4D2289AB899A4240F00B
:1086B0005184A37B043B022B40F24C849DF826306E
:1086C000434E298A308843F001038DF82630238AEF
:1086D000ADF82830638AADF82A3004F11403022281
:1086E0000B93002306938DF82020ADF8182005ABDE
:1086F00006AA079300F0D3FD374668B99DF81430F9
:10870000DA0709D440F2FD133088ADF8243008A907
:1087100000F0C3FD00F01EBC00263888ADF82460D0
:1087200008A900F0BAFD002840F0148408A83146DA
:108730000C22FFF707FF207D431E052B00F2F2817C
:10874000DFE813F00600870196019A00F001C801E6
:10875000638A062B01D00120E4E12149E07D4B88AA
:108760000B80237E627D09921B0443EA0023A07DD7
:108770000343607E43EA0063012082420A938DF83E
:10878000200001D0022A6AD116480270154A1478D6
:10879000012C02D0022C2DD063E0002B63D0B3F566
:1087A000807F62D80025104B10481D70202229467A
:1087B000FFF7C8FE0E4B0A9A1D639A635AE000BF8A
:1087C0002C330020583300202E330020303300207B
:1087D000622C0020E83600202A330020FC360020DE
:1087E000A82C0020602C0020A8360020483700204C
:1087F00010370020002B36D0C3F30B0232B1A54A4C
:10880000A548526D00681A4482422CD1B3F5805FAE
:108810002BD8A24A127852B39E4A9F4C506D2468BE
:108820001D18A54223D853640B79D46C946401338A
:1088300003F003039A4C0B710023CB80236810656F
:1088400001332360974B10631B68974A184401213A
:1088500001F096FB68B12368013B236001E0072427
:1088600008E0052406E0032404E0042402E00824D0
:1088700000E001240120EAE003238DF820308B4B37
:108880001B78012B02D0022B4ED02EE3814BD96BEB
:108890009A6B91421F4640F0D880804D2B780BB1E7
:1088A0000124D3E002F076F8012840F01E83804BCB
:1088B00093F874201C4692B393F87A30002B00F0A2
:1088C00014837C4B93E803001E46002800F00883C5
:1088D000002900F0058394F8DB3023B194F8DC30F4
:1088E000002B40F0FD8294F88420714B002A00F0A8
:1088F000F782D3F88820342A40F0F28213F88CEF04
:108900000022724580F2EC8243F20C0C53F8048F83
:10891000BCF800C0E04500F031820132F1E71B787D
:10892000002B00F0E282DBE25A4B196D5A6D586C55
:108930008A1A90421F4640F088800020586459658A
:108940009B6CFB6401F054FC002840F0C982524B40
:10895000396D1A6891429846A2D1514B1B6813B1E8
:1089600001F006F8F9E7524E96F8B930032B1AD108
:10897000504D514B2B604B4BD8F8001018684FF0FE
:108980002009C5F8049002F035FC06F1BB0100286F
:108990004A46286814BF0A24012404F091FA0028EA
:1089A00018BF052400E00A247B6923B1012B40F0A5
:1089B0009782424900E04249012C2FD196F8A1301C
:1089C000032B15D8DFE803F002050B0E01238B60A3
:1089D00015E0A5238B60D6F8A4307B6318E0AA23AA
:1089E0008B6010E0AC238B60D6F8A4307B630AE088
:1089F00023B1023B012B0AD80A2404E00A24D6F84A
:108A00008030BB6004E0D6F88030FB6000E00A24D0
:108A1000BB6C4B60D8F800300B6003E000228A602A
:108A20004A600A60002120222648FFF78BFDFF21C3
:108A3000B2222548FFF786FD002324483B6301F05E
:108A4000D7FB002818BF0A2400E008240420214690
:108A50007EE2638A032B01D0022063E0A27D637D66
:108A600043EA02231A4A02205380138001216FE255
:108A700004238DF820300D4B1B78012B06D0022BE0
:108A800040F03882034B186D996C30E2014BD86B83
:108A9000196C2CE210370020A4360020A8360020E4
:108AA000543300206C38002045A60700602C0020BD
:108AB00074330020E0360020703800203437002066
:108AC00028370020483700206C37002055A60700C3
:108AD000A82C0020638A022B01D0062022E0637DAF
:108AE00009930622012B8DF8202002D0022B40F0A2
:108AF0002B82AD4A1370AC4B1B78012B0AD0022B92
:108B000040F02482A94B4FF48050D3F84880D3F82A
:108B10005090F2E1A54B4FF48070D3F84080D3F829
:108B20003C90EAE1032113E20021A0880A460B46AB
:108B300000F0BBFB1EE10021A0880A460B4600F0B6
:108B4000AAFB17E19A4BE2889B889A4240F0028286
:108B50000C2208A80021FFF7F5FC934A954E1278E5
:108B600002238DF8203004F1120B238ACDF824B0B3
:108B7000012A0A9302D0022A1AD0E3E08B4FFC6B41
:108B8000BA6B1919914201D93D6CDDE038191A46CA
:108B900059465C3004F0A4F90A99FC6B09980C441E
:108BA00007F14002FC6300F0B7FB05463864CBE0F8
:108BB00081497E4A0978146D956C9046002900F031
:108BC000C380B3F5807F00F2BF801A190292029928
:108BD000D8F854208A1AD8F844108A42474600F23E
:108BE000B380194608F148025846039300F094FBFD
:108BF000029BB8640546C8F85030F088039BDFF844
:108C0000B4A1C218FF2A0AF1500932790ED800EB3C
:108C1000022048441A46594604F062F9BAF8063070
:108C20000A9A029C1344AAF806304FE0C0F58074FB
:108C3000A4B200EB022059462246484404F050F901
:108C40000A9BBAF80620D8F830001B1B0A93099B30
:108C500022441C440994594B594C19682368013328
:108C600092B223609AF80430AAF80620033208442E
:108C7000921009EB0321534B01F020FA40B9D8F8C8
:108C80003030BAF80620029C1344C8F830300AE0AD
:108C90002368D8F84C50C8F84850013B2360D8F8F6
:108CA0005440C8F8504030790A9A424F013000F0E1
:108CB000030000233071F38042B109EB00200999D1
:108CC00004F00EF9FB880A9A1344FB80F288DFF85F
:108CD000E4A0002A38D0D8F85430D8F83000D8F8BA
:108CE0004410324FD31A03448B422DD3334BDFF859
:108CF000D080D3F800E0D8F800309AF8041001339F
:108D00000332C8F80030704409EB012192102D4B5A
:108D100001F0D4F928B93B6BBAF8062013443B6341
:108D200008E0D8F80030FD6C7C6DBD64013BC8F8EC
:108D300000303C653379013303F0030333710023C2
:108D4000F38001E000252C4676881A4F002E00F0B3
:108D500001813B88013B9BB23B80002B40F0FA80B5
:108D60002046294602F002F93E80F3E0A088172150
:108D700000F08FFA002800F0ED8074E494F8A12050
:108D8000032A00F2AD80DFE802F0022C212194F8E2
:108D90007C30002B00F0A4800B4BD3F88020BB6804
:108DA0009A42C0F09D801CE0602C0020103700200B
:108DB000FC360020A82C0020A83600206C380020AB
:108DC0005433002045A607007433002094F87C300B
:108DD000002B00F08580614BD3F88020FB689A421D
:108DE0007ED994F8E830DFF87481002B78D15C4BA1
:108DF00033602023DFF88C91736002F0FBF90028C8
:108E00006ED1584E98F8E92006F10807384608F167
:108E1000EA0104F065F898F8E930B764402BF36490
:108E200063D199E84004002E5FD016F003095CD1AD
:108E300003F0D8FE3146009052464B483B4603F0C3
:108E4000D5FE002851D0494A98F8A130C2F80090C8
:108E50001646032B44D8DFE803F002190A2194F8E0
:108E6000B030002B3CD03D4BD3F8B43014E094F834
:108E7000A830002B34D0394BD3F8AC2032603C4BB7
:108E8000C3F5FC239A421CD90424DFE594F8A230F0
:108E900033B3324BD3F8A430336012E094F8A820F7
:108EA0002E4BEAB193F8A220D2B1D3F8A410D3F894
:108EB000AC205318336009B90324C7E5002AFBD05E
:108EC000DDE727482B49202204F00AF83068002803
:108ED000F2D002F0C5F80028D6D101F089F908B126
:108EE0000A24B3E501242C70B0E50524AEE502F0B8
:108EF0003DF82FE0032005212AE03A884FF6FF7362
:108F00009A4227D01C4B1B68DB0723D51B4E6023DE
:108F1000337006237370F11C0123B37000F0AAF9BB
:108F2000033084B23119484600F0A4F9204484B2D9
:108F30003119404600F09EF9114BA989221892B2CE
:108F4000188800F014F905E0072100E0052106204B
:108F500001F0ECFF0DB0BDE8F08F00BF74330020CE
:108F600070380020A82C002028CF0700A43600204D
:108F7000008007002F340020E8360020EC36002067
:108F8000622C0020E0360020A6DF70477DDF7047AE
:108F900073DF704772DF7047084B5A6E013A5A66AA
:108FA00022B907490A7822F002020A701B6E034AAE
:108FB0000133042B08BF0023136670474C31002097
:108FC000C531002028DF704729DF704730B50446DF
:108FD00085B00D46684600211022FFF7B3FA237AC8
:108FE000012B0CD0022B12D10123A2898DF8003065
:108FF000E389ADF80A20D31AADF8083007E0002362
:109000008DF8003023690293A38AADF80C306368B1
:109010000193236868469B682946984705B030BD90
:1090200038B51B4A516E146E134681B3182505FBE3
:1090300004252A7A012A05D0022A23D1A889FFF71C
:10904000C1FF14E0182000FB0433E98A1869AA8ADA
:109050000833521A5B68B2F5806F4FEA8101084409
:10906000B4BF92B24FF480621944FFF7ADFF1128EC
:1090700007D1084A137823F0020343F00403137066
:1090800038BD20B128460921BDE838409EE738BDEB
:109090004C310020C531002070B52B492B4B0A788C
:1090A0001C6E12F0020F06461D4640D01820022EFC
:1090B00000FB043002D0032E29D042E0244B0021D3
:1090C0001970037A012B00F1080202D0022B13D091
:1090D00037E0C28A818A8B1AB3F5806FB4BF9BB226
:1090E0004FF48063134418229BB202FB04548B425A
:1090F000E38226D1002115E0938801339380D38841
:1091000001339BB2D38012899A421AD10AE0104AE5
:1091100013780133DBB2032B01D8137011E0002365
:1091200013700821FFF752FFFFF736FF09E05007E1
:1091300007D55B6E02F0FB020A7013B142F0020227
:109140000A70BDE870406BE7C53100204C3100204B
:10915000F830002008B501F00BFC082910B501D04B
:1091600001F006FC03684068BDE81040184730B5C0
:1091700087B004460D46ADF8062002A81022002153
:10918000FFF7E0F901238DF80A300DF1060304938F
:109190002046044BADF8085002A90593FFF7F4FEF2
:1091A00007B030BDEC36002030B5304D296811F0E5
:1091B00002018BB053D1102201A8FFF7C3F90B2392
:1091C0000122ADF8023002238DF814308DF81520FD
:1091D0008DF81830062259238DF816208DF8193095
:1091E0000322FE230DF11D000DF102018DF8172061
:1091F0008DF81A30FFF7CAFEE0B9BDF802100B294E
:109200009DBF4B1C8DF81B3009230C2395BFC9183B
:109210008DF81B3089B2082388BF14214FF000025B
:1092200094BF8DF81C308DF81C3005A8C9B21346C8
:10923000FFF7B0FE0446A8B98DF8040002908DF83F
:109240000C002823ADF8100001A8ADF80E30FFF790
:109250009FFE30B92B6843F002032B6002E000242C
:1092600000E0044620460BB030BD00BFE8360020C9
:1092700013DF7047C0F3072308704B70C0F3074338
:10928000000EC8708B700420704767DF704763DF83
:109290007047ADDF7047A9DF7047A8DF7047A5DFD3
:1092A0007047A2DF7047A0DF704786DF70477FDF1F
:1092B00070477CDF70477ADF704776DF704774DF76
:1092C00070476DDF70476CDF704738B50B4C616ECF
:1092D0000429054610D0226E8B18032B88BF043B4F
:1092E00018220131616602FB034420460021FFF78A
:1092F00029F92C60012038BD002038BD4C310020F8
:10930000044A137813F0060F03D143F002031370DD
:1093100086E67047C531002030B512B11368DB43D3
:1093200001E04FF0FF33014488420DD010F8012BCB
:1093300053400822054D13F0010418BF2C46013A92
:1093400084EA5303F6D1EFE7D84330BD2083B8ED6C
:1093500010B5084B9A685AB150B9EFF3108272B643
:1093600005491C680C605C684C60986002B962B684
:10937000002010BDAC36002000E100E073B502A86B
:10938000002300F8063D01F003FD294B1B7803F094
:10939000FF05002B46D1274B1A68002A42D0264AE7
:1093A000D2F80813C9073DD51D601B68019302A8B8
:1093B000224C019BD2F8086500F8055D01F0E8FC3D
:1093C000A16860681F2994BF4B1C2B461F2994BFBE
:1093D0004A1C00228342A26004D11F2B94BF013398
:1093E0000023636063689DF803009A423ABFC3F1AB
:1093F0002103D218D21AE3682144934238BF0F4B9D
:109400000E7438BFDA60FFF7A3FFA36862681F2BF2
:1094100094BF01330023934201BF074A0123C2F8DE
:10942000083353609DF80200FFF792FF02B070BD51
:10943000C431002000D1004000D00040F8300020AE
:1094400070B5254A254B0021C2F84011C2F84411DD
:10945000C2F84811C2F84C11C2F80011C2F8041148
:109460001B68002B36D01E48D2F804250468141B54
:1094700024F07F440D461A68944215D3A41A15446B
:109480001A7CDE696AB100221A74164A12682AB17F
:1094900058699969904720B101F06AFA5A69986948
:1094A00090470EB13346E6E70F4B104A1978137810
:1094B0008B4205D10133DBB2022B08BF00231370AE
:1094C00012780B4B03EB82034FF480125D63094B60
:1094D000C3F8002170BD00BF001001401C35002002
:1094E00024350020A0340020203500202135002024
:1094F000F830002000E100E010B50A494A788C7885
:10950000531CDBB29C4208BF00230C789C421FBF57
:109510000370486802EB420200EBC20008BF002063
:1095200010BD00BFB836002038B50D4B0D4C4FF4C0
:109530000032C3F8802001254FF48033C4F848334B
:10954000C4F80833656001F07BFC074BA56000247C
:109550001C6001F075FC054B83F83C4038BD00BF32
:1095600000E100E00010014024350020F830002028
:109570002DE9F74FBB4ABC4913780978BB48BC4D6D
:10958000D0F800E0994211D00133DBB2022B08BFC2
:1095900000231370137805EB83034FF001085F6B12
:1095A00007EB0E0323F07F43036001E00027B8467A
:1095B000B04CB1492378D1F8009095F83DC00194A2
:1095C000019CAC4A66789E4227D003EB430B566859
:1095D00092780133DBB29A4208BF002316F83B2091
:1095E000022A06EBCB0A03D0032AE9D10E680DE06C
:1095F000D1F800B0DAF804205E46DA46002EDFD05B
:10960000964200F01781B246F669F7E71EB10022D4
:109610003274F669FAE70E60D2E785F83DC00E684D
:10962000B8F1000F02D0002294461AE0B6EB09060A
:1096300018BF012642461CE0BF1BB44400261E6032
:10964000D3F80C808C4EDC693460B8F1000F08D080
:109650000CEB0E0626F07F46DA615E60C3F80880E8
:109660001A460B6823B11E68B742E5D2F71B1F608C
:109670000126D1F800C095F83D8012B11346D26999
:1096800030E0019B019C1B786778DFF8E8A19F42DE
:109690007BD003EB430E9AF802B0DAF80470013382
:1096A000DBB29B458AF8003008BF8AF8002007EB40
:1096B000CE0917F83E70D9F80430012FE1D11F7C94
:1096C000002FDED1D9F808405C60D9F80C409C60CE
:1096D000D9F81040DC60D9F814409C61B8F1000F53
:1096E00000D05F60D3F804A00768DFF89891C7EB5B
:1096F0000A0E2EF07F4ECE45D3F8089002D80EEB1E
:10970000090708E0CAEB070727F07F47B9458CBF78
:10971000C7EB090700271F60D1F80090DFF858A1B8
:1097200000274FF0010E5F609F6083F810E0DF615B
:10973000B9F1000F0BD0D3F800E0D9F80070BE45A6
:1097400008D8CEEB0707C9F80070C3F81C90CAF818
:10975000003092E74F46D7F800A0D64509D9CAEBAA
:109760000E0ED7F81CA0B946BAF1000F07D0574625
:10977000F1E7CEEB0A0AC7F800A0BA464F46C3F895
:1097800000E0C3F81CA0FB6177E70B68634501D1DB
:10979000002E49D0002B45D0384E0468D6F80485F9
:1097A000D3F800A095F83C30C4EB080727F07F47BA
:1097B0000337A3B9324A4FF480334FF400314FF0EE
:1097C0000109C6F84433C6F80433C2F880111160A9
:1097D000C6F8009001F034FB254B83F83C905745C8
:1097E0002CBFE31904EB0A0323F07F44C6F840457D
:1097F000D6F80435214AC8EB030323F07F43C8EBB6
:109800000404033324F07F44A3420DD9D2F8043575
:10981000C2F8403501F014FB194B4FF40032C3F885
:10982000002101E0FFF780FE002385F83D3003B002
:10983000BDE8F08F92450AD1DBF81C600E6036B9A6
:10984000DFF838B04FF0010CCBF808C0066016689E
:10985000D269CAF81C20002A3FF4B2AE146826442C
:109860001660ADE62035002021350020243500208B
:10987000F8300020B83600201C35002000100140D0
:1098800000E100E0FEFF7F002DE9F743064602A855
:10989000002400F8014D0D46174601F079FA234BDC
:1098A000234A18781178CBB2224909888B4238BFF5
:1098B0000133C0B238BFDCB2844209D014781378C7
:1098C000DBB28B423ABF0133DBB20023137001E0FD
:1098D0004FF6FF749DF80700FFF73AFD4FF6FF7350
:1098E0009C421FD0DFF85890D9F800304FEAC408E6
:1098F00003EB080243F834708EB185B10E4B188823
:109900000E4B1B68314600FB04302A4603F0E8FA90
:10991000D9F8003098440020A8F8045003E0002053
:10992000908000E0042003B0BDE8F083A136002061
:10993000A0360020A2360020283300209C360020CC
:109940004835002007B5084B1B88072B8DE803001E
:1099500005D968460821054AFFF796FF00E009206F
:1099600003B05DF804FB00BF283300205B910700C3
:1099700070B5114C114A237812789A421BD0237883
:109980000F48104A068812680F48DBB219B202EB82
:10999000C105006852F83120A98806FB03009047F2
:1099A0000A4A23781288DBB29A4286BF0133DBB2BF
:1099B00000232370DDE770BDA1360020A036002013
:1099C00028330020483500209C360020A236002095
:1099D0002DE9F04F0022C9B00C468D5CE37843EAD4
:1099E0000563657843EA0543A57843EA052308AD96
:1099F0000434AB500432402AEFD12A463023916B15
:109A0000576A92E860004FEA714484EAF14484EABC
:109A100091242F443D194FEAF61484EAB64484EAAF
:109A2000D6012944013B116402F10402E7D1426DE1
:109A30000192826D0292C26D0392026E0492426E96
:109A40000592826E0692C26E0792924604AA92E82E
:109A50000450D0F85080DDF80CB0029E019F4446BF
:109A6000274951F8235008A951F8231005EB0109A3
:109A70004FEAB21585EAF22585EA726109EB010524
:109A80002EEA02090CEA020189EA01010D4486EA84
:109A90000701AA44214006EA07054D404FEAB401F8
:109AA00081EA743181EAB45101332944402B0BEB34
:109AB0000A0901EB0A05B346F24606D0E6463E46E1
:109AC000944627464A462C46CAE7019B1C44029B03
:109AD00044651F44039B87651E44049BC6654B4435
:109AE0000366059B1A44069B426663448366079B94
:109AF000454473440565C36649B0BDE8F08F00BFB7
:109B000068CF0700034B01B919705B6803B11847B0
:109B1000704700BF38310020094A936810B523F020
:109B2000010419B923F00303936002E044F0020436
:109B30009460436813B1BDE81040184710BD00BFE2
:109B4000383100200E4B0F4AC3F800260E4BDA685E
:109B5000198A8A4211DB0D4A127862B9BFF34F8F1E
:109B60000B490C4BCA6802F4E0621343CB60BFF3AD
:109B70004F8F00BFFDE7002200E00132DA6070473E
:109B8000000001403546526E383100202A33002053
:109B900000ED00E00400FA05F0B50346186880F314
:109BA00008885868FF2464B2EFF30585002D01D1C1
:109BB000A64600472546064621273FBAF0B40024B2
:109BC000002500260027F0B4F92040B2004700BF6E
:109BD000F0BD13DF704761DF704748DF704708B59D
:109BE000044B9B6F042B04D101F0F2F9FFF7C0FE88
:109BF000F6E708BD3831002000200146014AFFF792
:109C000043BE00BF9D9C07002DE9F341224BDD6F51
:109C1000D3F88040B5FA85F5B4FA84F46D09640987
:109C20001F46002D32D197F88430002B30D101A887
:109C3000FFF7D3FF052807D008B100F099FE164BB7
:109C40000198DB6F984700E00125ECB997F8843064
:109C5000114EEBB902A9D6F88880B6F8863021F803
:109C6000063D4046FFF7B7FF0528044606D000280A
:109C7000E3D1D6F880304046984700E00124002D1B
:109C8000D1D0002CCDD003E015B9CCE7002CDDD02D
:109C900002B0BDE8F08100BF3831002008B509B13D
:109CA00000F066FE034B93F88C3013B1BDE808401A
:109CB000AAE708BD3831002008B500F059FEF0B51C
:109CC00085B00F468D6869460646144601F0DFFBF5
:109CD00088B1B86878B17B7803F03003202B03D1CA
:109CE0002846214601F06CFB68462946224601F0D1
:109CF000AFFC019B736005B0F0BD2DE9D34F144656
:109D00006946082200F06FFD90B39DF801609DF850
:109D100002809DF805A00027002332023B434FEA52
:109D20000846002732433B439DF800609DF80380BE
:109D300000273B439DF804704FEA0A2932439DF8FF
:109D400006A04FEA086632433B43002643EA090374
:109D500032434FEA0A499DF807A0324343EA090318
:109D600032434FEA0A69324343EA0903C4E9002354
:109D700002B0BDE8D08F13B5144601A9042200F04B
:109D800032FD70B19DF806309DF805201B0443EAB2
:109D900002239DF8042013439DF8072043EA026341
:109DA000236002B010BD73B50D4601A906461446E6
:109DB00000F0E6FC98B1019A511C0FD26B7803F0C9
:109DC000C003802B0AD02B79994207D83046214610
:109DD00000F009FD019B0022E25400E0002002B0E7
:109DE00070BD73B50D4601A90646144600F0C8FCC7
:109DF000A8B1019BFF2B11D8591C0FD26A7802F031
:109E0000C002802A0AD02A79914207D821463046DA
:109E100001F8013B1A4600F0E6FC00E0002002B029
:109E200070BDF7B50F466946164601F0E5FC50B324
:109E3000DDE90045002304F001026D084FEA340417
:109E400013431CBFE443ED43E8B13B79082B02D137
:109E5000C6E9004517E0042B02D1346022460AE02F
:109E6000022B03D1A3B233801AB204E0012B09D133
:109E7000E3B233705AB2D317AB4206BFA2420120FD
:109E8000002000E0002003B0F0BD37B50D46694664
:109E9000144601F0B1FC20B32B79082B04D1DDE985
:109EA0000001C4E9000113E0042B03D1DDE9000146
:109EB00020600CE0022B03D10098208080B206E0E5
:109EC000012B0DD1DDE90001207000F0FF00002121
:109ED000DDE90023994206BF90420120002000E006
:109EE000002003B030BD37B50D466946144601F079
:109EF00083FC20B32A79082A04D1DDE90023C4E9D0
:109F000000231CE0009B042A18464FEAE37103D1AA
:109F100023601A460B460BE0022A03D19BB2238032
:109F20001AB204E0012A09D1DBB223705AB2D31766
:109F30008B4206BF82420120002000E0002003B0D7
:109F400030BD08B50C220021FEF7FCFA034B0022BD
:109F50001A635A631A615A6108BD00BF10370020A6
:109F600018DF70471FB5002110226846FEF7EAFA95
:109F7000022368460093FFF7F3FF05B05DF804FB8A
:109F80002DE9FF41484FBB6805465807144616D5D2
:109F90009A074DD443F00103BB6097F88D30DB077F
:109FA0007CD5424B424A93421E4602D3414A9342D9
:109FB00044D30220BB6823F00103BB6070E0C5F30B
:109FC0000B03002B36D10F462A463B4B0220C3F829
:109FD0000405D3F800040028FBD03748C0F8082552
:109FE000D3F800040028FBD0334B0020C3F804054D
:109FF000314BD3F80034002BFAD0013F02F58052E8
:10A00000E3D105EB0136BCB1394610226846FEF7B4
:10A0100099FA2D0B01236846360B39468DF800302E
:10A020000194ADF80850ADF80A60A047384637E013
:10A030000A2035E0062033E0204631E065B3C5F361
:10A040000B030BBB33689D4220D31FFA81F8726863
:10A0500005EB08339A4219D3B8F1000F18D06846BF
:10A06000FFF733F9B0B1009B5C601E60009B0222D9
:10A070002D0B1A729D81A3F81080FFF741F9BB6880
:10A08000002043F0010398E7062093E7052091E7BD
:10A0900004208FE707208DE703208BE7012089E765
:10A0A00004B0BDE8F08100BF38310020742C0020DE
:10A0B000742C0020842C002000E001402DE9F043A6
:10A0C0000E4646491C468B6813F0040F85B00546C2
:10A0D000884611D09F0742D443F001038B6091F86A
:10A0E0008D30D8076ED53E4B3E498B421F4638D344
:10A0F0003D498B4235D238E0002E65D0002863D030
:10A1000040EA06039B0761D1002A63D0374B012147
:10A11000C3F80415D3F800140029FBD0002156F829
:10A12000213045F82130314BD3F800040028FAD013
:10A1300001319142F3D10021C3F80415D3F8001482
:10A140000029FBD0002674B1684631468DF80060C6
:10A1500001940295ADF80C20A04730463BE00A2060
:10A1600039E0022037E0204635E06EB365B345EABA
:10A17000060399072AD13B68AB4229D81FFA82F916
:10A180007A6805EB89039A4222D3B9F1000F21D0F6
:10A190006846FFF79AF898B1009B5C601F60009BCF
:10A1A00001221A72DE601D61A3F81490FFF7A8F86F
:10A1B000D8F8083043F001030020C8F808300AE05E
:10A1C000072008E0012006E0032004E0062002E06A
:10A1D000052000E0042005B0BDE8F0833831002000
:10A1E000742C0020742C0020842C002000E00140FE
:10A1F00038B50546194C237823B100F0E9FEFFF786
:10A20000B7FBF7E7012323706560FFF7E8FC002246
:10A2100013480121FFF7B4FE07280246F5D018B114
:10A2200000232370032038BD0E4D58212846FFF728
:10A2300073F829464FF4AE7241F8040D0A4802F053
:10A240004FFEFFF7CCFC06480749084B5722FFF7A3
:10A2500035FF0728F5D00028E2D138BD383100207D
:10A2600000F0070014370020C8310020059B0700CC
:10A2700010B50446FFF776FE60B9074B4FF0FF328A
:10A28000C3F880202046FFF7A4FC18B92046BDE89B
:10A29000104081E410BD00BF00E100E008B5074BAD
:10A2A000D3F8EC211AB1904738B100F061FB93F874
:10A2B0008C3013B1BDE80840A6E408BD3831002059
:10A2C00060DF704710DF70479D4B1B78062B0AD16B
:10A2D0009C4B1B68180706D19B4B1B6803F0F003CF
:10A2E000302B00F0B580964B1B78062B0FD1954B89
:10A2F0001B6819070BD1944B1B6803F0F002302A3E
:10A3000000F0AA8003F0E003402B00F0A5808C4B06
:10A310001B78062B0AD18B4B1B681A0706D18A4B78
:10A320001B6803F0F003302B00F09D80844B1B78FA
:10A33000062B0FD1834B1B681B070BD1824B1B686D
:10A3400003F0F002302A00F0948003F0E003402B89
:10A3500000F08F807A4B1B78062B0AD1794B1B6853
:10A36000180706D1784B1B6803F0F003302B00F080
:10A370008A80734B1B78062B0AD1724B1B6813F033
:10A380000F0305D1704A126802F0F002302A7ED025
:10A390006B4B1B78062B09D16A4B1B68190705D13B
:10A3A000694B1B6803F0F003502B7AD0644B1B7889
:10A3B000062B0FD1634B1B681A070BD1624B1B682E
:10A3C00003F0F002302A00F0B48003F0E003402BE9
:10A3D00000F0AF805D4AD2F8883043F47003C2F8D1
:10A3E0008830BFF34F8FBFF36F8F4FF01023D3F838
:10A3F0000C32DB0728D5564B0122C3F80425D3F8CD
:10A400000024002AFBD04FF01022D2F80C3223F0A7
:10A410000103C2F80C324E4BD3F80024002AFAD0C4
:10A420000022C3F80425D3F80024002AFBD0BFF390
:10A430004F8F4649474BCA6802F4E0621343CB6032
:10A44000BFF34F8F00BFFDE7434B444A1A6070478C
:10A45000434B444A1A6046E7434B444A1B68C3F3E4
:10A460004233136053E7424AD36823F08073D360CA
:10A470005CE74FF080430022C3F80C21C3F81021A1
:10A48000C3F8382566E73B4B03221A6071E73A4A66
:10A4900005211160012191679360384B3F221A60BA
:10A4A00076E74FF08052364BD2F80414C3F82015EB
:10A4B000D2F80814C3F82415D2F80C14C3F82815E0
:10A4C000D2F81014C3F82C15D2F81414C3F83015B0
:10A4D000D2F81814C3F83415D2F81C14C3F8401578
:10A4E000D2F82014C3F84415D2F82414C3F8481540
:10A4F000D2F82814C3F84C15D2F82C14C3F8501510
:10A50000D2F83014C3F85415D2F83414C3F86015D7
:10A51000D2F83814C3F86415D2F83C14C3F868159F
:10A52000D2F84014C3F86C15D2F84424C3F870254F
:10A530003CE7144B144A1B6803F04F03136049E7D0
:10A54000E00F00F0E40F00F0E80F00F000ED00E095
:10A5500000E001400400FA05642C00200090D003C4
:10A5600074C007400DF0ADBA440200103C05004035
:10A57000F0ED00E0A00500401056004014560040E9
:10A5800000C0004058020010E40E004010B5012247
:10A5900003680446984710B1A368013BA36010BD4F
:10A5A00043681A44426039B10139934204D013F828
:10A5B000010B01F8010FF8E70120704776DF7047C3
:10A5C00075DF704737B5154C20884FF6FF739842FA
:10A5D000254620D0A378227C0133DBB29A42A370B7
:10A5E00007D304F12001FFF7EBFFA0B1E3698BB9BA
:10A5F00011E00023A370237D33B13B21FFF7DEFF81
:10A6000010B1E36903B19847AB6923B102A80022F6
:10A6100000F8042D984703B030BD00BF2C33002054
:10A620005B689A68054B9A4206D142688368044980
:10A630000132013B0A604B60704700BF68D00700E1
:10A64000E0360020024A936A013B9362704700BFE4
:10A650002C33002008B50E4C0E4BE41AE4080025FC
:10A660001E46A54204D006EBC5035B68984758B167
:10A67000BFF34F8F0849094BCA6802F4E0621343E5
:10A68000CB60BFF34F8F01E00135EAE700BFFDE784
:10A690008C2C0020842C002000ED00E00400FA0542
:10A6A00038B5324D2B6813F0040459D143F004023D
:10A6B0002A602F4A2F4811682F4A00BF00BF00BFF1
:10A6C00000BF00BF00BF00BF00BF81422FD000BF4E
:10A6D00000BF00BF00BF00BF00BF00BF00BF00BF82
:10A6E00000BF00BF00BF00BF00BF00BF00BF00BF72
:10A6F00000BF00BF00BF00BF00BF00BF00BF00BF62
:10A7000000BF00BF00BF00BF00BF00BF00BF00BF51
:10A7100000BF00BF00BF00BF00BF00BF00BF00BF41
:10A7200000BF00BF00BF00BF00BF00BF00BF013AB5
:10A73000C3D1124A10884FF6FF72904204D0132101
:10A74000FEF7BBFD48B10DE09B0706D5FEF7B7FD50
:10A7500040B92B6843F002032B6000F0B7FB02E026
:10A76000002400E00446204638BD00BFE836002043
:10A77000642C00200024F400C0D40100622C0020CE
:10A780002DE9F3418368074688460BB9002626E089
:10A790000DF10701FFF7FAFE06460028F6D09DF8F6
:10A7A0000740220619D504F07F040725BB68002B5B
:10A7B000ECD038460DF10701FFF7E8FE0028E5D0A0
:10A7C0009DF8072002F07F03AB401C43130605F100
:10A7D000070502D5232DE9D1D8E7C8F80040304657
:10A7E00002B0BDE8F08130B5044685B0154689B9A0
:10A7F0000268104B9A420DD0102D2046694605D9AB
:10A800001022FFF7F0FF98B1103DF5E72A46FFF759
:10A81000EAFF0DE0A368AB4201D2002008E0236804
:10A8200020462A4698470028F7D0A3685D1BA560FC
:10A8300005B030BDA1A507000023C26001604160E2
:10A8400083608B781A44026191F903301A444261A3
:10A850000878003018BF0120704710B542681178A1
:10A86000034600293AD002F10C014160147B2CB957
:10A870000168C268FFF7E0FF204610BD51781079EB
:10A8800001F03004302C0AD1547B04F03004302C19
:10A8900005D190781969091A196100200CE001F0BE
:10A8A000F004202C03D1517911FB00F004E001F0F9
:10A8B000C001802908BF0420517811F0300F02BF79
:10A8C000996801319960917B0144186901441961CB
:10A8D00092F90F2011445961012010BD084610BDA6
:10A8E00013B51E4CE38D228C9A420ED8628C9A428C
:10A8F0000BD3A36923B102A8012200F8042D9847C5
:10A90000002384F8343002B010BD94F83420134B87
:10A910002AB19B69002BF3D002A80022EDE79968C9
:10A92000DA689B78002B18BF11460D4B5B689BB112
:10A9300004290FD90B48436973B1437C012B0CBF29
:10A940000A46002200F04AFA0028D9D0E369002B19
:10A95000D5D1D5E70720F9E70820F7E72C33002009
:10A96000B8360020C03600207BDF70477ADF7047A2
:10A97000BFF34F8F0549064BCA6802F4E0621343E8
:10A98000CB60BFF34F8F00BFFDE700BF00ED00E0DD
:10A990000400FA0570B50E4B0E4C9A6B0E4E0F4923
:10A9A000A1635C33E3630E4B636404F148050D4B14
:10A9B00022643046002229461A605A6000F000FDE9
:10A9C00004F1380031462A4600F042FE70BD00BF57
:10A9D000103700202C330020E0D00700A1A507008D
:10A9E00021A60700E03600202DE9FF47B54BB64D04
:10A9F00001214FF4A022C3F80C15C3F80425D3F8A5
:10AA000008250A43C3F80825B04A1960C3F8002690
:10AA10004FF0A0430322C3F858274FF48002C3F835
:10AA20000825AB4BAB49002628464FF4AE721E708A
:10AA300002F056FA2C68631C06D0281D58213246B5
:10AA4000FEF76AFCA0420DD09F4800214FF4AE7281
:10AA5000FDF778FD012300206B60FFF7C9FB08B10B
:10AA6000FFF786FF2A69984C43F20803012A1B6806
:10AA70000BD062694AB1A76907F6FF7727F47F67B1
:10AA800027F00F071F44243401E01F461834A26842
:10AA9000A52A61D002D8012A05D07BE0AA2A67D076
:10AAA000AC2A6BD076E06969874A012972D1166BAE
:10AAB000D2F824A0F418C6EB0A06B6F5805F20464B
:10AAC0004FF001014FF00002B04628BF4FF480580C
:10AAD000FFF756FA034600285AD120463946424627
:10AAE000FFF7ECFA002853D103238DE8980068465D
:10AAF0004FEA98030393FFF733FA0246002847D141
:10AB000038460121FFF73CFA002841D12B6BDFF8D2
:10AB1000B89143442B63FFF76BFBB6EB0806444444
:10AB20004744CAD143F20803514618683246FEF73B
:10AB3000F3FBD9F82830984204BF0123C9F81C0060
:10AB4000654804BFC9F82030C9F818A0FFF7F9F923
:10AB50000020FFF74DFB0FE0384600F0BFFA064635
:10AB6000B0B92046FFF7EDF93046FFF741FB0DE0A5
:10AB70003846214600F012FB002408E0384600F079
:10AB8000ADFA28B93846214600F008FB012410B17F
:10AB9000012400E00024514AD2F8C83623F0010312
:10ABA000C2F8C836BFF34F8F4FF080434C48D3F8FC
:10ABB0001C65D3F8201541EA06210180BFF34F8FB1
:10ABC0000021C3F81C15C3F82015D2F8C86646F05A
:10ABD0000106C2F8C8660288920092B20280002A7A
:10ABE0006BD124B900F0C2FA002840F0B880FEF71B
:10ABF0009BFC3C4C3C4A3D4BC4F87431052100237E
:10AC0000917004F5BC71137053705160384AC4F8E8
:10AC1000F0314FF48010E02684F8F43184F8F531F7
:10AC2000C2F8800182F81463106000F18040A0F542
:10AC30006F20C0F8083582F81163D0F80435C4F8E5
:10AC4000F83100293FF40CAF94F80C32002B7FF45C
:10AC500007AF84F80C32012384F80D324FF4005111
:10AC6000244BC4F8103204F5FE700A4600F0B6F822
:10AC700000287FF4F5AE04F50873C4F81C3204F51F
:10AC80003273C4F870331C4B1C4F84F874030822D1
:10AC90001A801423A4F87633194B84F87503FF1A2D
:10ACA000FF0806469846BE422CD058F836309847E2
:10ACB00000287FF4D5AE0136F5E7C3F81C15C3F8BC
:10ACC000201594E700000140103700203546526EF1
:10ACD0003831002000F00700343700200000024027
:10ACE000483100202C330020B83600204599070059
:10ACF00000E100E0459B0700283300208C2C002059
:10AD0000842C00201C4A1D4E137843F0010313705D
:10AD10001B4B1C4A1A601C4B04221A600023A362BE
:10AD2000AB6BCBB1FFF736FEB0B1336A2BB9B36969
:10AD30001BB1164AC2F8783307E0EA6A0F4B5AB9DA
:10AD40009A694AB15B6AC4F87833D4F8780300F0A2
:10AD500087F9012384F87C33FEF70AFEFCE743F20F
:10AD600008052868FFF784FA2868FFF781FA20466B
:10AD700004B0BDE8F08700BFC531002010370020C7
:10AD8000B431002099900700403100202C3300207E
:10AD900070B5EFF3108572B60D4A9468012394B92B
:10ADA00093600C4B0C49D3F88060314011600A4924
:10ADB000C3F88010D3F8841051604FF0FF32C3F80D
:10ADC0008420047000E0037005B962B6002070BDF5
:10ADD000AC36002000E100E0FC06FFBCF7B50746FA
:10ADE00002A8002400F8014D0E461546FFF7D0FFDB
:10ADF0000DF10600FEF780FB70B1012303700D4BCF
:10AE00004760D3F8043583600B4B9DF80620C6607D
:10AE1000056144615A7300E004249DF80700FEF7C1
:10AE200097FA24B9054B4FF48012C3F8002120464D
:10AE300003B0F0BD00100140AC36002000E100E09E
:10AE4000204B21491A682F2300BF00BF00BF00BF5D
:10AE500000BF00BF00BF00BF8A422FD000BF00BFAD
:10AE600000BF00BF00BF00BF00BF00BF00BF00BFEA
:10AE700000BF00BF00BF00BF00BF00BF00BF00BFDA
:10AE800000BF00BF00BF00BF00BF00BF00BF00BFCA
:10AE900000BF00BF00BF00BF00BF00BF00BF00BFBA
:10AEA00000BF00BF00BF00BF00BF00BF00BF00BFAA
:10AEB00000BF00BF00BF00BF00BF00BF013BC3D148
:10AEC000704700BF642C00200024F40037B5154DF6
:10AED0002B6923B3AB6A13B302A8002400F8014D19
:10AEE00085F82440FFF754FF0DF10600FEF704FB40
:10AEF00040B10223037005F1140343609DF806304E
:10AF00006B7300E004249DF80700FEF721FA24B9D2
:10AF1000054B4FF48012C3F80021204600E00820C2
:10AF200003B030BDAC36002000E100E00D4B1A88C4
:10AF30004FF6FF739A4210B512D00B4BDC6BE4074F
:10AF40000ED5602483F8410083F8421083F8404016
:10AF50001046B3F85C100322BDE81040FEF707B9B5
:10AF6000082010BD622C0020AC360020164B2DE9C5
:10AF7000F0411E884FF6FF739E42884621D0134C45
:10AF8000E36BDB071DD5602384F84030032384F88E
:10AF9000413004F14301012384F84230FEF76AF99D
:10AFA000033085B204F1400779194046FEF762F993
:10AFB0002A18B4F85C10304692B2BDE8F041FEF7B2
:10AFC000D6B80820BDE8F081622C0020AC36002005
:10AFD000204B21491A68214B00BF00BF00BF00BFB2
:10AFE00000BF00BF00BF00BF8A422FD000BF00BF1C
:10AFF00000BF00BF00BF00BF00BF00BF00BF00BF59
:10B0000000BF00BF00BF00BF00BF00BF00BF00BF48
:10B0100000BF00BF00BF00BF00BF00BF00BF00BF38
:10B0200000BF00BF00BF00BF00BF00BF00BF00BF28
:10B0300000BF00BF00BF00BF00BF00BF00BF00BF18
:10B0400000BF00BF00BF00BF00BF00BF013BC3D1B6
:10B05000704700BF642C00200024F400A08601008B
:10B0600038B543F20803054619681A4B1A68A2F569
:10B070004052521A82422AD31748D0F88440C0F86E
:10B08000C011012C16D1C36F03F6FF7323F47F6345
:10B0900023F00F03D21A95424FF0000202D9446701
:10B0A00082670AE00B4484674267C0F8C03100F150
:10B0B000880404E000234367836700F17C04204692
:10B0C00000210C22FDF73EFA2560002038BD042047
:10B0D00038BD00BF14100010AC3600202DE9F0433D
:10B0E000214DD5F89820D5F8943002F6FF74E41A73
:10B0F00024F47F6424F00F044FEA940909F6FF79E1
:10B1000029F47F6985B003F5805629F00F09C71827
:10B110000AB1934224D04FEA9908012368468DE88A
:10B1200088000296CDF80C80FEF71AFFC8B90323F9
:10B1300068468DE8C801FEF713FF90B9A145D5F820
:10B1400098308CBF0446C9EB04041B1B00204E44FE
:10B150004F44C5F89430FFF74BF8002CDDD100E0E8
:10B16000002005B0BDE8F083AC36002010B50A4BD6
:10B17000D3F8840001280DD1D3F880405CB143F2AC
:10B180000802D96F10680022FEF7C6F8031B584268
:10B19000584110BD002010BDAC360020F0B5134B57
:10B1A000D3F898400B6885B005191C1B0323009346
:10B1B000A4080F4B019368460F4602950394FEF7CF
:10B1C000CFFE064630B93846FEF7BBFE3046FFF7E5
:10B1D0000FF809E0684600211022FDF7B3F9684630
:10B1E00001950294FEF7BCFE05B0F0BDAC36002020
:10B1F0000080070070B59CB000231093002200234C
:10B20000CDE91223524B1493524B1593524B169384
:10B21000524B1793524B1893524B1993524B1A930C
:10B2200003F17453A3F52303A3F692431B9311B9BF
:10B23000044645181BE00028FAD11DE0109B14F8C5
:10B24000011B1CAA1A440133402B02F8701C1093F6
:10B250000DD168466946FEF7BBFBDDE9122312F506
:10B26000007243F10003CDE9122300231093AC4296
:10B27000E4D13E4C656B0DB90E2067E0109B1CAA13
:10B280001A44372B4FF0800103F101036E4602F898
:10B29000701C6B4406D89A1B382A13D0002203F87E
:10B2A000012BF8E79A1B3F2A03D8002203F8012B51
:10B2B000F8E730463146FEF78BFB30460021382256
:10B2C000FDF740F9DDE9122310980821E1FB002386
:10B2D00022FA01F1CDE912238DF83F208DF83E10BE
:10B2E000110C120E8DF83C201A0A8DF83D108DF8C5
:10B2F0003B308DF83A2030461A0C31461B0E8DF843
:10B3000039208DF83830FEF763FB2A4600231B995D
:10B31000D94011701A99D94011711999D9401172F7
:10B320001899D94011731799D94011741699D940B9
:10B3300011751599D94011761499D9400833202BED
:10B34000117702F10102E2D1A36300201CB070BDAD
:10B3500067E6096A85AE67BB72F36E3C3AF54FA5A6
:10B360007F520E518C68059BABD9831FAC360020F1
:10B3700013B50446052920D8DFE801F0070F121F96
:10B380001F1C9DF90430002B18DA204601A9012268
:10B39000FFF729FA0028F4D110E00021082206E086
:10B3A00001A9FFF7EDF948B1019A20460021FFF706
:10B3B0001AFA03E000210422F9E7002002B010BDD0
:10B3C0007FB503460A4668461946FFF735FA30B19D
:10B3D000684600F007F86846FFF73FFAF7E707B05E
:10B3E0005DF804FB30B54268527802F00F0108297D
:10B3F00087B003461ED103691C68002C45D000238A
:10B400002373236862689D6868462946FFF714FA2B
:10B410006368049304F10C0305936B7803F0C00395
:10B42000802B08BF231D684608BF0493FFF7DAFF8F
:10B43000A468E2E712F0C00109D102F03000102840
:10B4400002D15A6911700CE090060AD506E08029F5
:10B450001BD1006900219206016016D55B69197045
:10B4600013E05A68517801F00F01072904D1906860
:10B470001969FFF7A5FF08E091681869127911B101
:10B4800001F02EFD01E0FDF75DF807B030BD73B5AA
:10B490000D4601A90446FFF773F9064608B90026D0
:10B4A0000AE094E80F0085E80F0001998A42F6D37C
:10B4B000A960A3685B1AA360304602B070BD2DE995
:10B4C000F04357687B7813F0C00C89B006468E466F
:10B4D000144603D0BCF1400F66D0B0E003F00F0279
:10B4E000594903F03003102B51F822500AD004D8E8
:10B4F000002B40F0A480394608E0202B09D0302BE7
:10B5000040D09CE0636901221A7061682269A847F3
:10B5100096E0BEF1020FD4F8148023D1042A21D87A
:10B5200004A9FFF7B4FF002800F08980069B93B1BF
:10B53000616898F800204B7993420CD90F79236900
:10B5400004A807FB0232A84730B198F80030013355
:10B5500088F80030EAE70120059B7360069B002B0A
:10B560006ED06CE098F800307979226997F804E0A1
:10B57000994264D9591C88F80010304661680EFB66
:10B580000322C4E7636939781970072A0AD163680E
:10B5900020691A796146FCF7D5FF636821699868CC
:10B5A000FFF70EFF3046B0E717693B6807F1040963
:10B5B00013B9FFF7DDFE43E0022911D104A9FFF71B
:10B5C00066FF00283BD03B68616804A84A4698475C
:10B5D000002834D0069B002BF5D1059B73602FE02B
:10B5E000012919D007D3052929D101A90422FFF780
:10B5F000FAF8042515E000250DF1040801350B2D9E
:10B600001DD0304641460122FFF7EDF8B8B118F9D8
:10B61000013B002BF2DB05E001A90822FFF7E3F86C
:10B62000082568B1094B049301AB059300230695E7
:10B6300007933B68616804A84A46984700E00020E9
:10B6400009B0BDE8F08300BFA4D10700A1A50700A1
:10B650002DE9F0478EB00027044602A80097019715
:10B66000FFF7EAF8A368002B44D0204608A9FFF7AB
:10B6700087F818B9A368002B3CD033E0089E002E51
:10B6800038D0039D4FEAD60806F00706039B1A78C8
:10B69000424529D002A8FFF7E0F8039BAB42F5D161
:10B6A000B8455CD3039A537803F00F03082B4BD1B2
:10B6B0001778B84553D3069BD4F808901D68A36843
:10B6C000002D4AD0994548D12B68D3F800C0BCF171
:10B6D000000F6CD02046294642463346E0470028FA
:10B6E00040F08580002084E05B7803F00F02082A98
:10B6F000D0D039E0039B049C5D7802A8FFF7ADF839
:10B700000028F7D115F0300F03D1039B1B7803B14C
:10B710000134BCB162090023934205D05DF82310C7
:10B720000131DFD10133F7E70EAA02EB830304F006
:10B730001F04C4F120044FF0FF3253F8383CE240BC
:10B740009342CFD1012054E002A8FFF786F8039B73
:10B75000AB42A7D14FF0FF3701E0994582D1204697
:10B760003146FFF705FE1EE013F0300F0FD1049BAA
:10B770003F2B0CD85A090EA901EB820203F01F03DC
:10B780000121994052F8383C0B4342F8383CE568B7
:10B7900025B120464146324602ABA84720463146F5
:10B7A00002AAFFF78CFE00287FF45CAF9AE7D3F87B
:10B7B00008A09AF80030434519D151466A6808A894
:10B7C000FFF73AF86B680C9305F10C030D939AF8A8
:10B7D000013003F0C003802B04BF2B1D0C93012309
:10B7E0002B732046314608AAFFF769FE77E7AD685C
:10B7F00065E70EB0BDE8F0872DE9F34781468A463C
:10B80000002600270024D9F808300BB900251EE0D7
:10B8100048460DF10701FEF7B9FE05460028F5D0B0
:10B820009DF8078008F07F002246C0B2002100F09A
:10B83000D3F918F0800F46EA000647EA010704F141
:10B84000070402D0462CDED1E0E7CAE900672846AB
:10B8500002B0BDE8F08700BF2DE9F043A14B95B0E1
:10B8600018680490FEF77EFB00285BD19E48FDF728
:10B87000FFFC002856D19D4B9D4A1A609D4B5022DB
:10B880001A809D4B9D4A1A609D4B1C68C4F340343E
:10B890001CB14FF40052C3F8802004A89949FEF768
:10B8A00011FD974A20B17CB14FF4005313600BE0B7
:10B8B000954B0121197092F816335B09991E0529E1
:10B8C00002D8043B012B01D8FFF752F88F4B99683F
:10B8D000002900F066811A6842F480021A60002193
:10B8E0001C220DA8FCF72EFE01239DF84820ADF880
:10B8F00034308DF83C308DF83D308DF83E301723D4
:10B900000021ADF84430824B139161F300020193A2
:10B9100014A9019B41F8303D0DA88DF84820FEF791
:10B92000CFFC019B0446002840F03F81794B7A4AC6
:10B930001A609DF810300D90012262F303030E90FF
:10B9400062F3071308A88DF81030FDF7BAFC38B978
:10B950009DF8213008A801338DF82130FDF7B3FCA4
:10B960000446002840F021816C4801F0C4FA6B497C
:10B9700082B204A8FDF79DFC70B90C23ADF83430F9
:10B980001823ADF836300DA84FF4C873ADF8384021
:10B99000ADF83A30FDF78FFC0446002840F00581F1
:10B9A0005F4B4FF6FF7214A91A804FF659630120BE
:10B9B00021F8483D5B4A8DF80A00FDF774FC002829
:10B9C00040F0B880584B04AC03F110051868596872
:10B9D000224603C20833AB421446F7D1534E04A8A3
:10B9E0003146FDF754FC0446002840F0A48021466F
:10B9F0001C224FF014090DA8FCF7A4FD21464A466D
:10BA000008A8FCF79FFD9DF83430ADF8004037469C
:10BA100043F004038DF8343017F802398DF80E30F6
:10BA200002234FF00108ADF80C30230A68F303033A
:10BA300068F3420468F30713E4B28DF8013044EA76
:10BA4000080403AD36F8020C8DF802400DA908AACF
:10BA50003B1D0895CDF824D0ADF82C90FDF721FCC6
:10BA60000446002840F0A18021461C220DA8FCF7C6
:10BA700069FD21464A4608A8FCF764FD9DF834306C
:10BA8000ADF8004043F018038DF83430BB788DF8E2
:10BA90000E30230A204668F3030368F3071368F3A4
:10BAA00042008DF80130C4B2172344F01104ADF800
:10BAB0002C3036F8020C8DF802400DA908AA07F1C7
:10BAC0000C03ADF80C800895CDF824D0FDF7E9FB08
:10BAD0000446002869D1164A136843EA0803136034
:10BAE0002BE000BFC8D1070000800700C031002054
:10BAF00090380020BE31002024330020F99B07003D
:10BB000000E100E0B99C0700C4310020AC36002001
:10BB1000002C0020B831002059850700DCD1070037
:10BB2000622C0020FC360020CCD10700FE3600201D
:10BB3000E83600200446002C37D100211C220DA835
:10BB4000FCF700FD40F6CD430E934FF480430F9376
:10BB500003238DF84030174B13930DAD0FCD164EC8
:10BB60000FC695E80700154B86E8070014481C70BF
:10BB7000FEF7FAFE88B9134B4FF6FF721A80124B8C
:10BB80001C70124B5B6853B1114B1A7C3AB9114AC5
:10BB90001C745C745A61FDF707FB044605E0082439
:10BBA00003E04FF48003136099E6204615B0BDE82A
:10BBB000F08300BF55910700303300206033002030
:10BBC0004C3300202C3300202E330020B8360020C8
:10BBD000C0360020C5A507009140031C90409C463C
:10BBE000203A9340194352426346D3401943704769
:10BBF0000649074A074B9B1A03DD043BC858D0503F
:10BC0000FBDCFEF761FBFCF729FC0000A0D207007B
:10BC1000002C00208C2C0020FEE7FEE7FEE7FEE76C
:10BC2000FEE7FEE7FEE7FEE7FEE7FEE71AB1013AB0
:10BC30008B5C8354FAE7704710B5013AD2B253B225
:10BC4000002B09DB1BB250F8234051F823309C42F3
:10BC500004D8F2D2FF2002E0002000E0012040B230
:10BC600010BD000000000000000000000000000007
:10BC7000C3F10803DB0070B501330446002003A5BF
:10BC80005B1920C940CAAD1920C4184720C940CA51
:10BC9000754120C420C940CA754120C420C940CA8A
:10BCA000754120C420C940CA754120C420C940CA7A
:10BCB000754120C420C940CA754120C420C940CA6A
:10BCC000754120C4404170BD00000000000000002C
:10BCD000C3F10803DB0070B50133002403A500BFE6
:10BCE0005B1920C940CAAD1B20C0184720C940CAF3
:10BCF000B54120C020C940CAB54120C020C940CAB2
:10BD0000B54120C020C940CAB54120C020C940CAA1
:10BD1000B54120C020C940CAB54120C020C940CA91
:10BD2000B54120C06441B4FA84F0400970BD00BF41
:10BD30002DE9F04F08B4F8CA04B451F8042BA3FB62
:10BD4000028940F8048B4FF0000AE4FB629A4FF03E
:10BD5000000BE5FB62AB4FF0000CE6FB62BC4FF062
:10BD6000000EE7FB62CE51F8042B4FF00008E3FB16
:10BD7000628940F8048BE4FB629AE5FB62ABE6FB68
:10BD800062BCE7FB62CE51F8042B4FF00008E3FBE6
:10BD9000628940F8048BE4FB629AE5FB62ABE6FB48
:10BDA00062BCE7FB62CE51F8042B4FF00008E3FBC6
:10BDB000628940F8048BE4FB629AE5FB62ABE6FB28
:10BDC00062BCE7FB62CE51F8042B4FF00008E3FBA6
:10BDD000628940F8048BE4FB629AE5FB62ABE6FB08
:10BDE00062BCE7FB62CE40F8049B40F804AB40F82D
:10BDF00004BB40F804CB40F804EB0CBC052B00F06E
:10BE00001E810C68A0F11400A1F11401A2F114022A
:10BE100052F804EB4FF0000550F8046BE4FB6E564B
:10BE200052F804EB50F8047BE4FB6E6752F804EB25
:10BE300050F8048BE4FB6E7852F804EB50F8049B46
:10BE4000E4FB6E8952F804EB50F804ABE4FB6E9A05
:10BE5000A0F1140052F8044B51F804EB4FF0000C21
:10BE6000E4FB6EC540F804CB51F804EBE4FB6E56DE
:10BE700040F8045B51F804EBE4FB6E6740F8046B98
:10BE800051F804EBE4FB6E7840F8047B51F804EBC6
:10BE9000E4FB6E8940F8048B51F804EBE4FB6E9AE6
:10BEA000A0E80006062B00F0CA800C68A0F118007C
:10BEB000A1F11801A2F1180252F804EB4FF00005AD
:10BEC00050F8046BE4FB6E5652F804EB50F8047B18
:10BED000E4FB6E6752F804EB50F8048BE4FB6E78D9
:10BEE00052F804EB50F8049BE4FB6E8952F804EB23
:10BEF00050F804ABE4FB6E9A52F804EB50F804BB24
:10BF0000E4FB6EABA0F1180052F8044B51F804EBBF
:10BF10004FF0000CE4FB6EC540F804CB51F804EB85
:10BF2000E4FB6E5640F8045B51F804EBE4FB6E67EB
:10BF300040F8046B51F804EBE4FB6E7840F8047BA6
:10BF400051F804EBE4FB6E8940F8048B51F804EBE4
:10BF5000E4FB6E9A40F8049B51F804EBE4FB6EABF3
:10BF6000A0E8000C072B6AD008B40C68A0F11C00F4
:10BF7000A1F11C01A2F11C0252F804EB4FF00005E4
:10BF800050F8046BE4FB6E5652F804EB50F8047B57
:10BF9000E4FB6E6752F804EB50F8048BE4FB6E7818
:10BFA00052F804EB50F8049BE4FB6E8952F804EB62
:10BFB00050F804ABE4FB6E9A52F804EB50F804BB63
:10BFC000E4FB6EAB52F804EB50F804CBE4FB6EBC20
:10BFD000A0F11C0052F8044B51F804EB4FF00003A1
:10BFE000E4FB6E3540F8043B51F804EBE4FB6E567D
:10BFF00040F8045B51F804EBE4FB6E6740F8046B17
:10C0000051F804EBE4FB6E7840F8047B51F804EB44
:10C01000E4FB6E8940F8048B51F804EBE4FB6E9A64
:10C0200040F8049B51F804EBE4FB6EAB40F804AB22
:10C0300051F804EBE4FB6EBCA0E8001808BCBDE8B6
:10C04000F08F2DE9F04FB1E8005E06B4AAFB0912AB
:10C050004FF00003EBFB69234FF00004ECFB693465
:10C060004FF00005EEFB69454FF00006EBFB6A63FD
:10C07000ECFB6A344918524176415B41A9FB0978CF
:10C080004FF0000949F1000918EB0108A0E8800110
:10C09000AAFB0A78574158EB0608A0E88001EEFB9E
:10C0A0006A454FF0000A4AF1000A4FF00001ECFB2C
:10C0B0006B14EEFB6B454FF00002EEFB6C255FEA64
:10C0C00059094941644152416D4149F10009EBFB75
:10C0D0006B3A1AEB010AA0E80804ACFB0C6A664153
:10C0E0005AEB020AA0E84004AEFB0E6A6E415AEB1E
:10C0F000090AA0E8400406BC052A00F0E680A0F189
:10C100001400A1F11401B1E8E043A5FB0E344FF097
:10C110000005E6FB6E454FF00006E7FB6E564FF05C
:10C120000007E8FB6E674FF00008E9FB6E784FF000
:10C130000009DB1864416D4176417F4158EB0808E6
:10C1400059F1000950F804CB13EB0C0350F804CB61
:10C1500054EB0C0450F804CB55EB0C0550F804CB11
:10C1600056EB0C0650F804CB57EB0C0758F10008BF
:10C1700059F10009A0F11400EEFB0E89A0E8F803C4
:10C18000062A00F0A280A0F11800A1F11801B1E880
:10C19000E047A5FB0E344FF00005E6FB6E454FF07F
:10C1A0000006E7FB6E564FF00007E8FB6E674FF0A6
:10C1B0000008E9FB6E784FF00009EAFB6E894FF04A
:10C1C000000ADB1864416D4176417F4158EB080855
:10C1D00059EB09095AF1000A50F804CB13EB0C0390
:10C1E00050F804CB54EB0C0450F804CB55EB0C0581
:10C1F00050F804CB56EB0C0650F804CB57EB0C0769
:10C2000050F804CB58EB0C0859F100095AF1000A18
:10C21000A0F11800EEFB0E9AA0E8F807072A54D008
:10C22000A0F11C00A1F11C01B1E8E04FA5FB0E3408
:10C230004FF00005E6FB6E454FF00006E7FB6E563B
:10C240004FF00007E8FB6E674FF00008E9FB6E78DF
:10C250004FF00009EAFB6E894FF0000AEBFB6E9A83
:10C260004FF0000BDB1864416D4176417F4158EB84
:10C27000080859EB09095AEB0A0A5BF1000B50F860
:10C2800004CB13EB0C0350F804CB54EB0C0450F824
:10C2900004CB55EB0C0550F804CB56EB0C0650F8CC
:10C2A00004CB57EB0C0750F804CB58EB0C0850F8B4
:10C2B00004CB59EB0C095AF1000A5BF1000BA0F119
:10C2C0001C00EEFB0EABA0E8F80FBDE8F08F10B538
:10C2D000002253B28B4205DA1BB2002440F82340FF
:10C2E0000132F6E710BD2DE9F0478846B3F9021098
:10C2F0001F460825CB1D202493FBF5F51F319542E1
:10C3000091FBF4F44FFA84F928BF154606464946D6
:10C31000FFF7DDFF2A4630464146FFF787FCB7F9B5
:10C320000230ED009D4220D9ED1A06EB8401002277
:10C330008E420AD251F8040D20FA05F313430B6024
:10C34000C5F1200300FA03F2F2E7243738463146FC
:10C350004A46FFF771FC012807D0304631463A467D
:10C360004B46BDE8F047FFF7B3BCBDE8F08710B51A
:10C3700000231A465CB28C4204DA50F824400133A0
:10C380002243F7E7B2FA82F0400910BD4A110123B7
:10C3900001F01F0150F822008B401840704701390E
:10C3A000C9B24BB2002B0BDA013111F0FF0315D0EB
:10C3B00059B201F18043013B50F82320002304E0EF
:10C3C00050F82330002BEAD0EEE712B152080133C7
:10C3D000FBE7481E03EB401080B200E0184600B2B5
:10C3E000704730B5002463B2934206DA1BB20134C1
:10C3F00051F8235040F82350F5E730BDF0B50C4616
:10C4000089B008220646FFF7ECFFE36A0393236B2B
:10C410000493636B0593A36B0693E36B0793002769
:10C4200069466A4608236846029701970097FFF716
:10C430001FFC314605466A4608233046FFF718FCC4
:10C44000236B0393636B0493A36B0593E36B0693D6
:10C45000054469466A46082368460797FFF708FCC3
:10C46000314605446A4608233046FFF701FC236A3B
:10C470000093636A0193A36A0293A36B0693E36B31
:10C480000793054431466A460823304605970497CA
:10C490000397FFF7EDFB636A0093A36A0193E36AD6
:10C4A000A26B0293636B039304920693E26B236A7D
:10C4B00005920544079331466A4608233046FFF744
:10C4C000D7FBE36A0093236B0193636B0293236AA8
:10C4D0000693A36A0793054431466A46082330460B
:10C4E000059704970397FFF7F3FB236B0093636BA8
:10C4F0000193A36B0293E36B0393636A0693E36A6E
:10C5000007932D1A31466A4608233046059704974B
:10C51000FFF7DEFB636B0093A36B0193E36B029366
:10C52000236A0393636A0493A36A0593236B0793B7
:10C530002D1A31466A46082330460697FFF7C8FB96
:10C54000A36B0093E36B0193636A0393A36A049361
:10C55000E36A0593636B07932D1A314630466A46AA
:10C56000082302970697FFF7B3FB2D1A16D530461E
:10C5700031460D4A0823FFF77BFB4519F7D410E03D
:10C58000094831460822FFF757FB012809D03046F9
:10C590003146054A0823FFF79BFB2D1A002DEFD0EB
:10C5A000F5E709B0F0BD00BFE8D10700013A30B5AA
:10C5B000D2B2002453B2002B09DB1BB2013A51F86E
:10C5C000235050F823306B401C43D2B2F2E7B4FA48
:10C5D00084F0400930BD00EB81010023884206D27F
:10C5E00051F8042D43EA52030B60D307F6E7704776
:10C5F000F8B5036813F0010506460F46144605D04A
:10C6000001463A462346FFF733FB054630462146AE
:10C61000FFF7E1FF45B104F18042013A56F82230BC
:10C6200043F0004346F82230F8BD70B59DF9104044
:10C630001D4623460646FFF71BFB30B92846314608
:10C640002246FFF7F9FA012807D0304631462A463C
:10C650002346BDE87040FFF73BBB70BD70B59DF948
:10C6600010401D4623460646FFF732FB38B13046E0
:10C6700031462A462346BDE87040FFF7F9BA70BD3F
:10C680002DE9F043A3B09846019112AB414607460D
:10C69000104691460093FFF782FEC0EB881086B2E9
:10C6A000454C33B21C40002CBEBF04F1FF3464F093
:10C6B0001F040134202593FBF5F5EDB26DB2A4B251
:10C6C00002A8294624B2FFF702FE28B202AB002CD2
:10C6D00003EB800010DD00221346434510D259F8C9
:10C6E000235005FA04F10A4340F82320C4F1200244
:10C6F00025FA02F20133F0E749464246FFF771FEA0
:10C700000FFA88F502AB4FEA4509012403EB8505D2
:10C71000330444D40022114653B24B4522DA0DF1C2
:10C72000880E0EEB840E0DF1880C18B25EF888ECC2
:10C730000CEB83035EF820E053F8803CC3EB0E0360
:10C740005B1A734502D08CBF01210021C4F1010E98
:10C750000DF1880C0CEB8E0E01325EF888EC4EF871
:10C760002030D9E7621A544202A841465441FFF7EB
:10C7700032FF22AA08F1FF3302EB830302EB8802A7
:10C78000284652F8801C53F8802C013E42EAC172C0
:10C79000414643F8802CB6B2FFF71DFFB8E722AB45
:10C7A00003EB8404384654F8881C4246FFF719FE10
:10C7B00023B0BDE8F08300BF1F00008070B590B0CB
:10C7C00006469DF950401D4668462346FFF7B0FADD
:10C7D000304669462A462346FFF752FF10B070BD27
:10C7E00030B51C4691B0054693F900306846FFF716
:10C7F0009FFAD4F8AC3028466946984711B030BD4E
:10C8000030B5144691B0054692F900206846FFF70E
:10C8100018FCD4F8AC3028466946984711B030BDB2
:10C820002DE9F04115468AB00446884602A8002149
:10C830002022FBF787FE2E780323204641462A4616
:10C840002F1D76B20293FFF7DBFF2046214602AA96
:10C850003B460096FFF702FF2046214642462B4604
:10C86000FFF7BEFF00962046214605F184023B46B5
:10C87000FFF7DBFE0AB0BDE8F0812DE9F04793F940
:10C88000006092B0044689461046314615469846E7
:10C89000FFF76DFD002840F0978002A84946424608
:10C8A000FFF7AEFF43460AA8214602AAFFF798FF0A
:10C8B00002A801464246FFF7A3FF434648464946C1
:10C8C0002A46FFF78DFF08F104072846294642460D
:10C8D000FFF796FF204621462A463B460096FFF783
:10C8E000A4FE284629462A463B460096FFF79DFEB1
:10C8F000284621462A463B460096FFF7AFFE2046D3
:10C9000021462A464346FFF76BFF2846214622462A
:10C910003B460096FFF789FE20463B46009621469F
:10C920002A46FFF782FE2368DB07204613D53346ED
:10C9300021463A46FFF79CF9314682462046FFF7EA
:10C940004AFE06F18043013B54F8230040EACA70D6
:10C9500044F8230002E03146FFF73DFE2846214619
:10C960004246FFF74DFF284629460AAA3B46009655
:10C97000FFF774FE284629460AAA3B460096FFF7B1
:10C980006DFE0AA801462A463B460096FFF766FE62
:10C99000204621460AAA4346FFF722FF02A8024684
:10C9A0003B4621460096FFF759FE2046294632466F
:10C9B000FFF717FD284649463246FFF712FD484665
:10C9C00002A93246FFF70DFD12B0BDE8F0872DE950
:10C9D000F0438BB08046129D15F9046B0096144607
:10C9E0001F4689462B4602A811464246FFF736FEEF
:10C9F00002A80146129AFFF703FF4046414602AAE9
:10CA0000129BFFF7EDFE2046214602AA129BFFF77C
:10CA1000E7FE2B46384639464A460096FFF71EFE8B
:10CA200002A83946129AFFF7EBFE02A801464246D9
:10CA30002B460096FFF712FE02A8014622462B461F
:10CA40000096FFF70BFE2046214642462B460096F5
:10CA5000FFF704FE484649462246129BFFF7C0FEF8
:10CA60002046414602AA2B460096FFF7F7FD3846BE
:10CA700039462246129BFFF7B3FE384639464A46EE
:10CA80002B460096FFF7EAFD204602A93246FFF743
:10CA9000A8FC0BB0BDE8F083F0B589B01C46074692
:10CAA0000E461546684611461A46FFF7A9FE384657
:10CAB00039466A462346FFF793FE684669462A468A
:10CAC0002346FFF78DFE304631466A462346FFF780
:10CAD00087FE09B0F0BDF0B50646A1B00F46084686
:10CAE000194615461C46FFF742FC20B13046214648
:10CAF000FFF7EDFB73E0684639462246FFF771FC0D
:10CB000008A829462246FFF76CFC10A82146FFF72B
:10CB1000DEFB012318A821461093FFF7D8FB6846D7
:10CB200008A92246FFF788F8002853D0009BDA07AF
:10CB300004D468462146FFF74EFD26E0089BDB073C
:10CB400004D408A82146FFF746FD3DE000281EDD7D
:10CB500008AA234669466846FFF7BAF868462146A0
:10CB6000FFF739FD10A818A92246FFF765F800283D
:10CB700005DA10A801462A462346FFF779F810A8DF
:10CB8000014618AA2346FFF7A3F810A81DE008A83D
:10CB90006A4623460146FFF79BF808A82146FFF79F
:10CBA0001AFD18A810A92246FFF746F8002805DA52
:10CBB00018A801462A462346FFF75AF818A8014646
:10CBC00010AA2346FFF784F818A829462246FFF743
:10CBD0000FFDA4E7304610A92246FFF702FC21B062
:10CBE000F0BD000000487047E4D107002DE9F04F88
:10CBF000EFB01E46789C059023780493B4F9023078
:10CC000092461F33202293FBF2F3DBB206939DF989
:10CC1000187094F9012007F1FF3926AB002543F87D
:10CC200029506EAB03EB89034EA88B46314643F87F
:10CC3000805C43F8605CFEF7F9FF94F9012056A888
:10CC4000B118FEF7F3FF9DF910604EA83146FFF7CB
:10CC50008EFB8046002840F02F8156A83146FFF712
:10CC600086FB0546002840F0258104F12408404653
:10CC70004EA93A46FEF7E0FF012840F01D814046EC
:10CC800056A93A46FEF7D8FF0128089040F01481D3
:10CC90003B461EA856A94246FFF71DFF0DF1380C72
:10CCA00060465946524623464CF82950CDF80CC0F0
:10CCB000FFF719FBDDF80CC00097604661461EAA1D
:10CCC0004346CDF824C00DF5BC79FFF777FD434608
:10CCD000009716A84EA91EAAFFF770FD48463246D7
:10CCE0000599FFF77EFBB300039309EB030B039A4F
:10CCF000059B584699183246FFF773FB04F144032D
:10CD00001946324636A80793FFF76BFB04EB860102
:10CD100032463EA8443104F1040AFFF762FB49465B
:10CD200000961EA836AA5346FFF798FC4A465B4673
:10CD300036A83EA90094FFF74AFE1EA801463346D6
:10CD40005246FFF7C8FE1EAA484659462346FFF73B
:10CD5000A3FEDDF824C0079B0B936046059B0C9354
:10CD60003946CDF814C00A95CDF83490FFF717FB7B
:10CD70003946054616A8FFF712FBA842B8BF284659
:10CD800085B2DDF814C06F1E3FB260463946FFF72A
:10CD9000FDFA394610F1000916A818BF4FF0010935
:10CDA000FFF7F4FA002814BF0223002343EA09091D
:10CDB0000DF1280B32465BF8297026A83946FFF79B
:10CDC00010FB039B3246F9182EA8FFF70AFB3146E9
:10CDD0001EA8FFF77CFA023D089B1E93AEB237B245
:10CDE000002F44DB23461EAAD4F8A45026A82EA95F
:10CDF000A84739460EA8FFF7C9FA3946051C16A8F8
:10CE000018BF0125FFF7C2FA002814BF0223002330
:10CE10001D430AAB53F8257037B39DF9105036A85F
:10CE200039462A46FFF7DDFA039B3EA8F9182A4641
:10CE3000FFF7D7FA36A83EA91EAA2346FFF72CFE15
:10CE400046A826A936AA53460095FFF707FC36A840
:10CE50003EA926AA2EAB0094FFF7B9FD1EA80146F5
:10CE600046AA2346FFF7BCFC013EB6B2B7E79DF9E0
:10CE700010501EA8014652462B46FFF72CFE2346B3
:10CE800026A82EA91EAAFFF707FE9DF918404046C6
:10CE900026A92246FEF7D0FE012805D026A8014685
:10CEA00042462346FEF714FF26A84EA92A46FFF75E
:10CEB0007DFB02E0404600E028466FB0BDE8F08F01
:10CEC00010B50A44441E914208D014F8013F087876
:10CED000834201D0181A10BD0131F4E7002010BDC3
:10CEE00010B5431E0A44914204D011F8014B03F8D7
:10CEF000014FF8E710BD034613F8012B002AFBD1C0
:10CF0000181A013870470000F8B500BFF8BC08BC1B
:10CF10009E467047F8B500BFF8BC08BC9E467047F7
:10CF200043000000002C00204109D6C659653C5141
:10CF3000CBD5301AD321743D0E56B1DA1A7E6D8DE1
:10CF4000DF361A3165F0315C05025569EDC6B3AFC5
:10CF50003F8058CEEEA67D208159A0D227EE2C68C6
:10CF6000ECF20BF0D3198CED982F8A429144377173
:10CF7000CFFBC0B5A5DBB5E95BC25639F111F1595C
:10CF8000A4823F92D55E1CAB98AA07D8015B83129E
:10CF9000BE853124C37D0C55745DBE72FEB1DE804A
:10CFA000A706DC9B74F19BC1C1699BE48647BEEF79
:10CFB000C69DC10FCCA10C246F2CE92DAA84744A04
:10CFC000DCA9B05CDA88F97652513E986DC631A87A
:10CFD000C82703B0C77F59BFF30BE0C64791A7D559
:10CFE0005163CA0667292914850AB72738211B2EE1
:10CFF000FC6D2C4D130D385354730A65BB0A6A76C9
:10D000002EC9C281852C7292A1E8BFA24B661AA8D4
:10D01000708B4BC2A3516CC719E892D1240699D6E4
:10D0200085350EF470A06A1016C1A419086C371E5D
:10D030004C774827B5BCB034B30C1C394AAAD84E3B
:10D040004FCA9C5BF36F2E68EE828F746F63A57876
:10D050001478C8840802C78CFAFFBE90EB6C50A409
:10D06000F7A3F9BEF27871C6011104FC04000000B8
:10D0700000000000021104FC040000000000000099
:10D08000032104FC0404000000000000041101FF5F
:10D090000100000000000000051102FE0400000075
:10D0A00000000000061104FC040000000000000065
:10D0B000071104FC0400000000000000081701FF35
:10D0C0002200000004D10700091001FF0100000048
:10D0D000A0D10700000000000000000000000000D8
:10D0E000011704FC7000000070D10700021704FC57
:10D0F000B400000040D10700000000000000000064
:10D10000000000000101000001000000000000001C
:10D1100002050000210000000000000000000000E7
:10D1200000000000000000000101000004000000F9
:10D1300000000000000000000000000000000000EF
:10D14000010700007000000070D10700020100001C
:10D150000100000000000000030500004100000085
:10D1600000000000000000000000000000000000BF
:10D17000011101FF0100000000000000021702FE83
:10D180006400000068D00700031704FC04000000DE
:10D1900028D107000000000000000000000000008F
:10D1A00000000000E79E07008B9E0700239E0700FB
:10D1B000779D0700FB9C0700E39D0700A79D0700E4
:10D1C000BF9C0700000000000100000750EADA30B1
:10D1D0008883B89F604F15F30000C98E564E475F95
:10D1E0004C50000008200001FFFFFFFFFFFFFFFF82
:10D1F000FFFFFFFF00000000000000000000000033
:10D2000001000000FFFFFFFF512563FCC2CAB9F314
:10D21000849E17A7ADFAE6BCFFFFFFFFFFFFFFFFED
:10D2200000000000FFFFFFFF96C298D84539A1F427
:10D23000A033EB2D817D0377F240A463E5E6BCF8D3
:10D2400047422CE1F2D1176BF551BF376840B6CB9E
:10D25000CE5E316B5733CE2B169E0F7C4AEBE78E9A
:10D260009B7F1AFEE242E34F4B60D2273E3CCE3B0F
:10D27000F6B053CCB0061D65BC86987655BDEBB3B1
:10D28000E7933AAAD835C65A7BC8070021C80700D9
:08D29000FDC3070000000000CF
:08D29800C4B1FF7F010000009A
:10D2A000000000000000000000000000000000007E
:10D2B000000000000000000000000000000000006E
:10D2C00020CF070000000000000000000000000068
:10D2D000000000000000000000000000000000004E
:10D2E000000000000000000000000000000000003E
:10D2F000000000000000000000000000000000002E
:10D300000100FFFF0090D00325840700018407007F
:04D310000000000019
:10D314000010000000300800199B07000000000006
:08D3240059B80700A1A607009B
:020000020000FC
:020000041000EA
:041014000080070051
:0410180000E00700ED
:040000037000BBF1DD
:00000001FF
