The target system is: Generic -  - arm
The host system is: Linux - 4.13.0-39-generic - x86_64
Compiling the C compiler identification source file "CMakeCCompilerId.c" succeeded.
Compiler: /opt/zephyr-sdk/sysroots/x86_64-pokysdk-linux/usr/bin/arm-zephyr-eabi/arm-zephyr-eabi-gcc 
Build flags: 
Id flags: -c 

The output was:
0


Compilation of the C compiler identification source "CMakeCCompilerId.c" produced "CMakeCCompilerId.o"

The C compiler identification is GNU, found in "/home/khoinlm/KhoiNLM/Zephyr/zephyr_1.11_do/samples/basic/HUB/build/CMakeFiles/3.10.2/CompilerIdC/CMakeCCompilerId.o"

Compiling the CXX compiler identification source file "CMakeCXXCompilerId.cpp" succeeded.
Compiler: /opt/zephyr-sdk/sysroots/x86_64-pokysdk-linux/usr/bin/arm-zephyr-eabi/arm-zephyr-eabi-g++ 
Build flags: 
Id flags: -c 

The output was:
0


Compilation of the CXX compiler identification source "CMakeCXXCompilerId.cpp" produced "CMakeCXXCompilerId.o"

The CXX compiler identification is GNU, found in "/home/khoinlm/KhoiNLM/Zephyr/zephyr_1.11_do/samples/basic/HUB/build/CMakeFiles/3.10.2/CompilerIdCXX/CMakeCXXCompilerId.o"

Performing C SOURCE FILE Test toolchain_is_ok succeeded with the following output:
Change Dir: /home/khoinlm/KhoiNLM/Zephyr/zephyr_1.11_do/samples/basic/HUB/build/CMakeFiles/CMakeTmp

Run Build Command:"/usr/bin/make" "cmTC_7d5dd/fast"
/usr/bin/make -f CMakeFiles/cmTC_7d5dd.dir/build.make CMakeFiles/cmTC_7d5dd.dir/build
make[1]: Entering directory '/home/khoinlm/KhoiNLM/Zephyr/zephyr_1.11_do/samples/basic/HUB/build/CMakeFiles/CMakeTmp'
Building C object CMakeFiles/cmTC_7d5dd.dir/src.c.obj
/opt/zephyr-sdk/sysroots/x86_64-pokysdk-linux/usr/bin/arm-zephyr-eabi/arm-zephyr-eabi-gcc   -Dtoolchain_is_ok -nostartfiles -nostdlib -isystem "/opt/zephyr-sdk/sysroots/x86_64-pokysdk-linux/usr/lib/arm-zephyr-eabi/gcc/arm-zephyr-eabi/6.2.0/include" -isystem "/opt/zephyr-sdk/sysroots/x86_64-pokysdk-linux/usr/lib/arm-zephyr-eabi/gcc/arm-zephyr-eabi/6.2.0/include-fixed" -Wl,--unresolved-symbols=ignore-in-object-files   -o CMakeFiles/cmTC_7d5dd.dir/src.c.obj   -c /home/khoinlm/KhoiNLM/Zephyr/zephyr_1.11_do/samples/basic/HUB/build/CMakeFiles/CMakeTmp/src.c
Linking C executable cmTC_7d5dd
/usr/local/bin/cmake -E cmake_link_script CMakeFiles/cmTC_7d5dd.dir/link.txt --verbose=1
/opt/zephyr-sdk/sysroots/x86_64-pokysdk-linux/usr/bin/arm-zephyr-eabi/arm-zephyr-eabi-gcc  -Dtoolchain_is_ok -nostartfiles -nostdlib -isystem "/opt/zephyr-sdk/sysroots/x86_64-pokysdk-linux/usr/lib/arm-zephyr-eabi/gcc/arm-zephyr-eabi/6.2.0/include" -isystem "/opt/zephyr-sdk/sysroots/x86_64-pokysdk-linux/usr/lib/arm-zephyr-eabi/gcc/arm-zephyr-eabi/6.2.0/include-fixed" -Wl,--unresolved-symbols=ignore-in-object-files    CMakeFiles/cmTC_7d5dd.dir/src.c.obj  -o cmTC_7d5dd 
/opt/zephyr-sdk/sysroots/x86_64-pokysdk-linux/usr/libexec/arm-zephyr-eabi/gcc/arm-zephyr-eabi/6.2.0/real-ld: warning: cannot find entry symbol _start; defaulting to 0000000000008024
make[1]: Leaving directory '/home/khoinlm/KhoiNLM/Zephyr/zephyr_1.11_do/samples/basic/HUB/build/CMakeFiles/CMakeTmp'

Source file was:
int main(void) { return 0; }
Performing C SOURCE FILE Test check_nostartfiles succeeded with the following output:
Change Dir: /home/khoinlm/KhoiNLM/Zephyr/zephyr_1.11_do/samples/basic/HUB/build/CMakeFiles/CMakeTmp

Run Build Command:"/usr/bin/make" "cmTC_ad79c/fast"
/usr/bin/make -f CMakeFiles/cmTC_ad79c.dir/build.make CMakeFiles/cmTC_ad79c.dir/build
make[1]: Entering directory '/home/khoinlm/KhoiNLM/Zephyr/zephyr_1.11_do/samples/basic/HUB/build/CMakeFiles/CMakeTmp'
Building C object CMakeFiles/cmTC_ad79c.dir/src.c.obj
/opt/zephyr-sdk/sysroots/x86_64-pokysdk-linux/usr/bin/arm-zephyr-eabi/arm-zephyr-eabi-gcc   -Dcheck_nostartfiles -nostartfiles -nostdlib -isystem "/opt/zephyr-sdk/sysroots/x86_64-pokysdk-linux/usr/lib/arm-zephyr-eabi/gcc/arm-zephyr-eabi/6.2.0/include" -isystem "/opt/zephyr-sdk/sysroots/x86_64-pokysdk-linux/usr/lib/arm-zephyr-eabi/gcc/arm-zephyr-eabi/6.2.0/include-fixed" -Wl,--unresolved-symbols=ignore-in-object-files -nostartfiles   -o CMakeFiles/cmTC_ad79c.dir/src.c.obj   -c /home/khoinlm/KhoiNLM/Zephyr/zephyr_1.11_do/samples/basic/HUB/build/CMakeFiles/CMakeTmp/src.c
Linking C executable cmTC_ad79c
/usr/local/bin/cmake -E cmake_link_script CMakeFiles/cmTC_ad79c.dir/link.txt --verbose=1
/opt/zephyr-sdk/sysroots/x86_64-pokysdk-linux/usr/bin/arm-zephyr-eabi/arm-zephyr-eabi-gcc  -Dcheck_nostartfiles -nostartfiles -nostdlib -isystem "/opt/zephyr-sdk/sysroots/x86_64-pokysdk-linux/usr/lib/arm-zephyr-eabi/gcc/arm-zephyr-eabi/6.2.0/include" -isystem "/opt/zephyr-sdk/sysroots/x86_64-pokysdk-linux/usr/lib/arm-zephyr-eabi/gcc/arm-zephyr-eabi/6.2.0/include-fixed" -Wl,--unresolved-symbols=ignore-in-object-files -nostartfiles    CMakeFiles/cmTC_ad79c.dir/src.c.obj  -o cmTC_ad79c 
/opt/zephyr-sdk/sysroots/x86_64-pokysdk-linux/usr/libexec/arm-zephyr-eabi/gcc/arm-zephyr-eabi/6.2.0/real-ld: warning: cannot find entry symbol _start; defaulting to 0000000000008024
make[1]: Leaving directory '/home/khoinlm/KhoiNLM/Zephyr/zephyr_1.11_do/samples/basic/HUB/build/CMakeFiles/CMakeTmp'

Source file was:
int main(void) { return 0; }
Performing C SOURCE FILE Test check_nodefaultlibs succeeded with the following output:
Change Dir: /home/khoinlm/KhoiNLM/Zephyr/zephyr_1.11_do/samples/basic/HUB/build/CMakeFiles/CMakeTmp

Run Build Command:"/usr/bin/make" "cmTC_e6fa7/fast"
/usr/bin/make -f CMakeFiles/cmTC_e6fa7.dir/build.make CMakeFiles/cmTC_e6fa7.dir/build
make[1]: Entering directory '/home/khoinlm/KhoiNLM/Zephyr/zephyr_1.11_do/samples/basic/HUB/build/CMakeFiles/CMakeTmp'
Building C object CMakeFiles/cmTC_e6fa7.dir/src.c.obj
/opt/zephyr-sdk/sysroots/x86_64-pokysdk-linux/usr/bin/arm-zephyr-eabi/arm-zephyr-eabi-gcc   -Dcheck_nodefaultlibs -nostartfiles -nostdlib -isystem "/opt/zephyr-sdk/sysroots/x86_64-pokysdk-linux/usr/lib/arm-zephyr-eabi/gcc/arm-zephyr-eabi/6.2.0/include" -isystem "/opt/zephyr-sdk/sysroots/x86_64-pokysdk-linux/usr/lib/arm-zephyr-eabi/gcc/arm-zephyr-eabi/6.2.0/include-fixed" -Wl,--unresolved-symbols=ignore-in-object-files -nodefaultlibs   -o CMakeFiles/cmTC_e6fa7.dir/src.c.obj   -c /home/khoinlm/KhoiNLM/Zephyr/zephyr_1.11_do/samples/basic/HUB/build/CMakeFiles/CMakeTmp/src.c
Linking C executable cmTC_e6fa7
/usr/local/bin/cmake -E cmake_link_script CMakeFiles/cmTC_e6fa7.dir/link.txt --verbose=1
/opt/zephyr-sdk/sysroots/x86_64-pokysdk-linux/usr/bin/arm-zephyr-eabi/arm-zephyr-eabi-gcc  -Dcheck_nodefaultlibs -nostartfiles -nostdlib -isystem "/opt/zephyr-sdk/sysroots/x86_64-pokysdk-linux/usr/lib/arm-zephyr-eabi/gcc/arm-zephyr-eabi/6.2.0/include" -isystem "/opt/zephyr-sdk/sysroots/x86_64-pokysdk-linux/usr/lib/arm-zephyr-eabi/gcc/arm-zephyr-eabi/6.2.0/include-fixed" -Wl,--unresolved-symbols=ignore-in-object-files -nodefaultlibs    CMakeFiles/cmTC_e6fa7.dir/src.c.obj  -o cmTC_e6fa7 
/opt/zephyr-sdk/sysroots/x86_64-pokysdk-linux/usr/libexec/arm-zephyr-eabi/gcc/arm-zephyr-eabi/6.2.0/real-ld: warning: cannot find entry symbol _start; defaulting to 0000000000008024
make[1]: Leaving directory '/home/khoinlm/KhoiNLM/Zephyr/zephyr_1.11_do/samples/basic/HUB/build/CMakeFiles/CMakeTmp'

Source file was:
int main(void) { return 0; }
Performing C SOURCE FILE Test check_nostdlib succeeded with the following output:
Change Dir: /home/khoinlm/KhoiNLM/Zephyr/zephyr_1.11_do/samples/basic/HUB/build/CMakeFiles/CMakeTmp

Run Build Command:"/usr/bin/make" "cmTC_85b44/fast"
/usr/bin/make -f CMakeFiles/cmTC_85b44.dir/build.make CMakeFiles/cmTC_85b44.dir/build
make[1]: Entering directory '/home/khoinlm/KhoiNLM/Zephyr/zephyr_1.11_do/samples/basic/HUB/build/CMakeFiles/CMakeTmp'
Building C object CMakeFiles/cmTC_85b44.dir/src.c.obj
/opt/zephyr-sdk/sysroots/x86_64-pokysdk-linux/usr/bin/arm-zephyr-eabi/arm-zephyr-eabi-gcc   -Dcheck_nostdlib -nostartfiles -nostdlib -isystem "/opt/zephyr-sdk/sysroots/x86_64-pokysdk-linux/usr/lib/arm-zephyr-eabi/gcc/arm-zephyr-eabi/6.2.0/include" -isystem "/opt/zephyr-sdk/sysroots/x86_64-pokysdk-linux/usr/lib/arm-zephyr-eabi/gcc/arm-zephyr-eabi/6.2.0/include-fixed" -Wl,--unresolved-symbols=ignore-in-object-files -nostdlib   -o CMakeFiles/cmTC_85b44.dir/src.c.obj   -c /home/khoinlm/KhoiNLM/Zephyr/zephyr_1.11_do/samples/basic/HUB/build/CMakeFiles/CMakeTmp/src.c
Linking C executable cmTC_85b44
/usr/local/bin/cmake -E cmake_link_script CMakeFiles/cmTC_85b44.dir/link.txt --verbose=1
/opt/zephyr-sdk/sysroots/x86_64-pokysdk-linux/usr/bin/arm-zephyr-eabi/arm-zephyr-eabi-gcc  -Dcheck_nostdlib -nostartfiles -nostdlib -isystem "/opt/zephyr-sdk/sysroots/x86_64-pokysdk-linux/usr/lib/arm-zephyr-eabi/gcc/arm-zephyr-eabi/6.2.0/include" -isystem "/opt/zephyr-sdk/sysroots/x86_64-pokysdk-linux/usr/lib/arm-zephyr-eabi/gcc/arm-zephyr-eabi/6.2.0/include-fixed" -Wl,--unresolved-symbols=ignore-in-object-files -nostdlib    CMakeFiles/cmTC_85b44.dir/src.c.obj  -o cmTC_85b44 
/opt/zephyr-sdk/sysroots/x86_64-pokysdk-linux/usr/libexec/arm-zephyr-eabi/gcc/arm-zephyr-eabi/6.2.0/real-ld: warning: cannot find entry symbol _start; defaulting to 0000000000008024
make[1]: Leaving directory '/home/khoinlm/KhoiNLM/Zephyr/zephyr_1.11_do/samples/basic/HUB/build/CMakeFiles/CMakeTmp'

Source file was:
int main(void) { return 0; }
Performing C SOURCE FILE Test check_static succeeded with the following output:
Change Dir: /home/khoinlm/KhoiNLM/Zephyr/zephyr_1.11_do/samples/basic/HUB/build/CMakeFiles/CMakeTmp

Run Build Command:"/usr/bin/make" "cmTC_e9a86/fast"
/usr/bin/make -f CMakeFiles/cmTC_e9a86.dir/build.make CMakeFiles/cmTC_e9a86.dir/build
make[1]: Entering directory '/home/khoinlm/KhoiNLM/Zephyr/zephyr_1.11_do/samples/basic/HUB/build/CMakeFiles/CMakeTmp'
Building C object CMakeFiles/cmTC_e9a86.dir/src.c.obj
/opt/zephyr-sdk/sysroots/x86_64-pokysdk-linux/usr/bin/arm-zephyr-eabi/arm-zephyr-eabi-gcc   -Dcheck_static -nostartfiles -nostdlib -isystem "/opt/zephyr-sdk/sysroots/x86_64-pokysdk-linux/usr/lib/arm-zephyr-eabi/gcc/arm-zephyr-eabi/6.2.0/include" -isystem "/opt/zephyr-sdk/sysroots/x86_64-pokysdk-linux/usr/lib/arm-zephyr-eabi/gcc/arm-zephyr-eabi/6.2.0/include-fixed" -Wl,--unresolved-symbols=ignore-in-object-files -static   -o CMakeFiles/cmTC_e9a86.dir/src.c.obj   -c /home/khoinlm/KhoiNLM/Zephyr/zephyr_1.11_do/samples/basic/HUB/build/CMakeFiles/CMakeTmp/src.c
Linking C executable cmTC_e9a86
/usr/local/bin/cmake -E cmake_link_script CMakeFiles/cmTC_e9a86.dir/link.txt --verbose=1
/opt/zephyr-sdk/sysroots/x86_64-pokysdk-linux/usr/bin/arm-zephyr-eabi/arm-zephyr-eabi-gcc  -Dcheck_static -nostartfiles -nostdlib -isystem "/opt/zephyr-sdk/sysroots/x86_64-pokysdk-linux/usr/lib/arm-zephyr-eabi/gcc/arm-zephyr-eabi/6.2.0/include" -isystem "/opt/zephyr-sdk/sysroots/x86_64-pokysdk-linux/usr/lib/arm-zephyr-eabi/gcc/arm-zephyr-eabi/6.2.0/include-fixed" -Wl,--unresolved-symbols=ignore-in-object-files -static    CMakeFiles/cmTC_e9a86.dir/src.c.obj  -o cmTC_e9a86 
/opt/zephyr-sdk/sysroots/x86_64-pokysdk-linux/usr/libexec/arm-zephyr-eabi/gcc/arm-zephyr-eabi/6.2.0/real-ld: warning: cannot find entry symbol _start; defaulting to 0000000000008024
make[1]: Leaving directory '/home/khoinlm/KhoiNLM/Zephyr/zephyr_1.11_do/samples/basic/HUB/build/CMakeFiles/CMakeTmp'

Source file was:
int main(void) { return 0; }
Performing C SOURCE FILE Test check_no_pie succeeded with the following output:
Change Dir: /home/khoinlm/KhoiNLM/Zephyr/zephyr_1.11_do/samples/basic/HUB/build/CMakeFiles/CMakeTmp

Run Build Command:"/usr/bin/make" "cmTC_5c3fe/fast"
/usr/bin/make -f CMakeFiles/cmTC_5c3fe.dir/build.make CMakeFiles/cmTC_5c3fe.dir/build
make[1]: Entering directory '/home/khoinlm/KhoiNLM/Zephyr/zephyr_1.11_do/samples/basic/HUB/build/CMakeFiles/CMakeTmp'
Building C object CMakeFiles/cmTC_5c3fe.dir/src.c.obj
/opt/zephyr-sdk/sysroots/x86_64-pokysdk-linux/usr/bin/arm-zephyr-eabi/arm-zephyr-eabi-gcc   -Dcheck_no_pie -nostartfiles -nostdlib -isystem "/opt/zephyr-sdk/sysroots/x86_64-pokysdk-linux/usr/lib/arm-zephyr-eabi/gcc/arm-zephyr-eabi/6.2.0/include" -isystem "/opt/zephyr-sdk/sysroots/x86_64-pokysdk-linux/usr/lib/arm-zephyr-eabi/gcc/arm-zephyr-eabi/6.2.0/include-fixed" -Wl,--unresolved-symbols=ignore-in-object-files -no-pie   -o CMakeFiles/cmTC_5c3fe.dir/src.c.obj   -c /home/khoinlm/KhoiNLM/Zephyr/zephyr_1.11_do/samples/basic/HUB/build/CMakeFiles/CMakeTmp/src.c
Linking C executable cmTC_5c3fe
/usr/local/bin/cmake -E cmake_link_script CMakeFiles/cmTC_5c3fe.dir/link.txt --verbose=1
/opt/zephyr-sdk/sysroots/x86_64-pokysdk-linux/usr/bin/arm-zephyr-eabi/arm-zephyr-eabi-gcc  -Dcheck_no_pie -nostartfiles -nostdlib -isystem "/opt/zephyr-sdk/sysroots/x86_64-pokysdk-linux/usr/lib/arm-zephyr-eabi/gcc/arm-zephyr-eabi/6.2.0/include" -isystem "/opt/zephyr-sdk/sysroots/x86_64-pokysdk-linux/usr/lib/arm-zephyr-eabi/gcc/arm-zephyr-eabi/6.2.0/include-fixed" -Wl,--unresolved-symbols=ignore-in-object-files -no-pie    CMakeFiles/cmTC_5c3fe.dir/src.c.obj  -o cmTC_5c3fe 
/opt/zephyr-sdk/sysroots/x86_64-pokysdk-linux/usr/libexec/arm-zephyr-eabi/gcc/arm-zephyr-eabi/6.2.0/real-ld: warning: cannot find entry symbol _start; defaulting to 0000000000008024
make[1]: Leaving directory '/home/khoinlm/KhoiNLM/Zephyr/zephyr_1.11_do/samples/basic/HUB/build/CMakeFiles/CMakeTmp'

Source file was:
int main(void) { return 0; }
Performing C SOURCE FILE Test check_fno_asynchronous_unwind_tables_C succeeded with the following output:
Change Dir: /home/khoinlm/KhoiNLM/Zephyr/zephyr_1.11_do/samples/basic/HUB/build/CMakeFiles/CMakeTmp

Run Build Command:"/usr/bin/make" "cmTC_448e0/fast"
/usr/bin/make -f CMakeFiles/cmTC_448e0.dir/build.make CMakeFiles/cmTC_448e0.dir/build
make[1]: Entering directory '/home/khoinlm/KhoiNLM/Zephyr/zephyr_1.11_do/samples/basic/HUB/build/CMakeFiles/CMakeTmp'
Building C object CMakeFiles/cmTC_448e0.dir/src.c.obj
/opt/zephyr-sdk/sysroots/x86_64-pokysdk-linux/usr/bin/arm-zephyr-eabi/arm-zephyr-eabi-gcc   -Dcheck_fno_asynchronous_unwind_tables_C -nostartfiles -nostdlib -isystem "/opt/zephyr-sdk/sysroots/x86_64-pokysdk-linux/usr/lib/arm-zephyr-eabi/gcc/arm-zephyr-eabi/6.2.0/include" -isystem "/opt/zephyr-sdk/sysroots/x86_64-pokysdk-linux/usr/lib/arm-zephyr-eabi/gcc/arm-zephyr-eabi/6.2.0/include-fixed" -Wl,--unresolved-symbols=ignore-in-object-files   -fno-asynchronous-unwind-tables -o CMakeFiles/cmTC_448e0.dir/src.c.obj   -c /home/khoinlm/KhoiNLM/Zephyr/zephyr_1.11_do/samples/basic/HUB/build/CMakeFiles/CMakeTmp/src.c
Linking C executable cmTC_448e0
/usr/local/bin/cmake -E cmake_link_script CMakeFiles/cmTC_448e0.dir/link.txt --verbose=1
/opt/zephyr-sdk/sysroots/x86_64-pokysdk-linux/usr/bin/arm-zephyr-eabi/arm-zephyr-eabi-gcc  -Dcheck_fno_asynchronous_unwind_tables_C -nostartfiles -nostdlib -isystem "/opt/zephyr-sdk/sysroots/x86_64-pokysdk-linux/usr/lib/arm-zephyr-eabi/gcc/arm-zephyr-eabi/6.2.0/include" -isystem "/opt/zephyr-sdk/sysroots/x86_64-pokysdk-linux/usr/lib/arm-zephyr-eabi/gcc/arm-zephyr-eabi/6.2.0/include-fixed" -Wl,--unresolved-symbols=ignore-in-object-files    CMakeFiles/cmTC_448e0.dir/src.c.obj  -o cmTC_448e0 
/opt/zephyr-sdk/sysroots/x86_64-pokysdk-linux/usr/libexec/arm-zephyr-eabi/gcc/arm-zephyr-eabi/6.2.0/real-ld: warning: cannot find entry symbol _start; defaulting to 0000000000008024
make[1]: Leaving directory '/home/khoinlm/KhoiNLM/Zephyr/zephyr_1.11_do/samples/basic/HUB/build/CMakeFiles/CMakeTmp'

Source file was:
int main(void) { return 0; }
Performing C SOURCE FILE Test check_fno_pie_C succeeded with the following output:
Change Dir: /home/khoinlm/KhoiNLM/Zephyr/zephyr_1.11_do/samples/basic/HUB/build/CMakeFiles/CMakeTmp

Run Build Command:"/usr/bin/make" "cmTC_2037f/fast"
/usr/bin/make -f CMakeFiles/cmTC_2037f.dir/build.make CMakeFiles/cmTC_2037f.dir/build
make[1]: Entering directory '/home/khoinlm/KhoiNLM/Zephyr/zephyr_1.11_do/samples/basic/HUB/build/CMakeFiles/CMakeTmp'
Building C object CMakeFiles/cmTC_2037f.dir/src.c.obj
/opt/zephyr-sdk/sysroots/x86_64-pokysdk-linux/usr/bin/arm-zephyr-eabi/arm-zephyr-eabi-gcc   -Dcheck_fno_pie_C -nostartfiles -nostdlib -isystem "/opt/zephyr-sdk/sysroots/x86_64-pokysdk-linux/usr/lib/arm-zephyr-eabi/gcc/arm-zephyr-eabi/6.2.0/include" -isystem "/opt/zephyr-sdk/sysroots/x86_64-pokysdk-linux/usr/lib/arm-zephyr-eabi/gcc/arm-zephyr-eabi/6.2.0/include-fixed" -Wl,--unresolved-symbols=ignore-in-object-files   -fno-pie -o CMakeFiles/cmTC_2037f.dir/src.c.obj   -c /home/khoinlm/KhoiNLM/Zephyr/zephyr_1.11_do/samples/basic/HUB/build/CMakeFiles/CMakeTmp/src.c
Linking C executable cmTC_2037f
/usr/local/bin/cmake -E cmake_link_script CMakeFiles/cmTC_2037f.dir/link.txt --verbose=1
/opt/zephyr-sdk/sysroots/x86_64-pokysdk-linux/usr/bin/arm-zephyr-eabi/arm-zephyr-eabi-gcc  -Dcheck_fno_pie_C -nostartfiles -nostdlib -isystem "/opt/zephyr-sdk/sysroots/x86_64-pokysdk-linux/usr/lib/arm-zephyr-eabi/gcc/arm-zephyr-eabi/6.2.0/include" -isystem "/opt/zephyr-sdk/sysroots/x86_64-pokysdk-linux/usr/lib/arm-zephyr-eabi/gcc/arm-zephyr-eabi/6.2.0/include-fixed" -Wl,--unresolved-symbols=ignore-in-object-files    CMakeFiles/cmTC_2037f.dir/src.c.obj  -o cmTC_2037f 
/opt/zephyr-sdk/sysroots/x86_64-pokysdk-linux/usr/libexec/arm-zephyr-eabi/gcc/arm-zephyr-eabi/6.2.0/real-ld: warning: cannot find entry symbol _start; defaulting to 0000000000008024
make[1]: Leaving directory '/home/khoinlm/KhoiNLM/Zephyr/zephyr_1.11_do/samples/basic/HUB/build/CMakeFiles/CMakeTmp'

Source file was:
int main(void) { return 0; }
Performing C SOURCE FILE Test check_fno_pic_C succeeded with the following output:
Change Dir: /home/khoinlm/KhoiNLM/Zephyr/zephyr_1.11_do/samples/basic/HUB/build/CMakeFiles/CMakeTmp

Run Build Command:"/usr/bin/make" "cmTC_7d3dc/fast"
/usr/bin/make -f CMakeFiles/cmTC_7d3dc.dir/build.make CMakeFiles/cmTC_7d3dc.dir/build
make[1]: Entering directory '/home/khoinlm/KhoiNLM/Zephyr/zephyr_1.11_do/samples/basic/HUB/build/CMakeFiles/CMakeTmp'
Building C object CMakeFiles/cmTC_7d3dc.dir/src.c.obj
/opt/zephyr-sdk/sysroots/x86_64-pokysdk-linux/usr/bin/arm-zephyr-eabi/arm-zephyr-eabi-gcc   -Dcheck_fno_pic_C -nostartfiles -nostdlib -isystem "/opt/zephyr-sdk/sysroots/x86_64-pokysdk-linux/usr/lib/arm-zephyr-eabi/gcc/arm-zephyr-eabi/6.2.0/include" -isystem "/opt/zephyr-sdk/sysroots/x86_64-pokysdk-linux/usr/lib/arm-zephyr-eabi/gcc/arm-zephyr-eabi/6.2.0/include-fixed" -Wl,--unresolved-symbols=ignore-in-object-files   -fno-pic -o CMakeFiles/cmTC_7d3dc.dir/src.c.obj   -c /home/khoinlm/KhoiNLM/Zephyr/zephyr_1.11_do/samples/basic/HUB/build/CMakeFiles/CMakeTmp/src.c
Linking C executable cmTC_7d3dc
/usr/local/bin/cmake -E cmake_link_script CMakeFiles/cmTC_7d3dc.dir/link.txt --verbose=1
/opt/zephyr-sdk/sysroots/x86_64-pokysdk-linux/usr/bin/arm-zephyr-eabi/arm-zephyr-eabi-gcc  -Dcheck_fno_pic_C -nostartfiles -nostdlib -isystem "/opt/zephyr-sdk/sysroots/x86_64-pokysdk-linux/usr/lib/arm-zephyr-eabi/gcc/arm-zephyr-eabi/6.2.0/include" -isystem "/opt/zephyr-sdk/sysroots/x86_64-pokysdk-linux/usr/lib/arm-zephyr-eabi/gcc/arm-zephyr-eabi/6.2.0/include-fixed" -Wl,--unresolved-symbols=ignore-in-object-files    CMakeFiles/cmTC_7d3dc.dir/src.c.obj  -o cmTC_7d3dc 
/opt/zephyr-sdk/sysroots/x86_64-pokysdk-linux/usr/libexec/arm-zephyr-eabi/gcc/arm-zephyr-eabi/6.2.0/real-ld: warning: cannot find entry symbol _start; defaulting to 0000000000008024
make[1]: Leaving directory '/home/khoinlm/KhoiNLM/Zephyr/zephyr_1.11_do/samples/basic/HUB/build/CMakeFiles/CMakeTmp'

Source file was:
int main(void) { return 0; }
Performing C SOURCE FILE Test check_fno_strict_overflow_C succeeded with the following output:
Change Dir: /home/khoinlm/KhoiNLM/Zephyr/zephyr_1.11_do/samples/basic/HUB/build/CMakeFiles/CMakeTmp

Run Build Command:"/usr/bin/make" "cmTC_958a7/fast"
/usr/bin/make -f CMakeFiles/cmTC_958a7.dir/build.make CMakeFiles/cmTC_958a7.dir/build
make[1]: Entering directory '/home/khoinlm/KhoiNLM/Zephyr/zephyr_1.11_do/samples/basic/HUB/build/CMakeFiles/CMakeTmp'
Building C object CMakeFiles/cmTC_958a7.dir/src.c.obj
/opt/zephyr-sdk/sysroots/x86_64-pokysdk-linux/usr/bin/arm-zephyr-eabi/arm-zephyr-eabi-gcc   -Dcheck_fno_strict_overflow_C -nostartfiles -nostdlib -isystem "/opt/zephyr-sdk/sysroots/x86_64-pokysdk-linux/usr/lib/arm-zephyr-eabi/gcc/arm-zephyr-eabi/6.2.0/include" -isystem "/opt/zephyr-sdk/sysroots/x86_64-pokysdk-linux/usr/lib/arm-zephyr-eabi/gcc/arm-zephyr-eabi/6.2.0/include-fixed" -Wl,--unresolved-symbols=ignore-in-object-files   -fno-strict-overflow -o CMakeFiles/cmTC_958a7.dir/src.c.obj   -c /home/khoinlm/KhoiNLM/Zephyr/zephyr_1.11_do/samples/basic/HUB/build/CMakeFiles/CMakeTmp/src.c
Linking C executable cmTC_958a7
/usr/local/bin/cmake -E cmake_link_script CMakeFiles/cmTC_958a7.dir/link.txt --verbose=1
/opt/zephyr-sdk/sysroots/x86_64-pokysdk-linux/usr/bin/arm-zephyr-eabi/arm-zephyr-eabi-gcc  -Dcheck_fno_strict_overflow_C -nostartfiles -nostdlib -isystem "/opt/zephyr-sdk/sysroots/x86_64-pokysdk-linux/usr/lib/arm-zephyr-eabi/gcc/arm-zephyr-eabi/6.2.0/include" -isystem "/opt/zephyr-sdk/sysroots/x86_64-pokysdk-linux/usr/lib/arm-zephyr-eabi/gcc/arm-zephyr-eabi/6.2.0/include-fixed" -Wl,--unresolved-symbols=ignore-in-object-files    CMakeFiles/cmTC_958a7.dir/src.c.obj  -o cmTC_958a7 
/opt/zephyr-sdk/sysroots/x86_64-pokysdk-linux/usr/libexec/arm-zephyr-eabi/gcc/arm-zephyr-eabi/6.2.0/real-ld: warning: cannot find entry symbol _start; defaulting to 0000000000008024
make[1]: Leaving directory '/home/khoinlm/KhoiNLM/Zephyr/zephyr_1.11_do/samples/basic/HUB/build/CMakeFiles/CMakeTmp'

Source file was:
int main(void) { return 0; }
Performing C SOURCE FILE Test check_Wno_pointer_sign_C succeeded with the following output:
Change Dir: /home/khoinlm/KhoiNLM/Zephyr/zephyr_1.11_do/samples/basic/HUB/build/CMakeFiles/CMakeTmp

Run Build Command:"/usr/bin/make" "cmTC_a6e5b/fast"
/usr/bin/make -f CMakeFiles/cmTC_a6e5b.dir/build.make CMakeFiles/cmTC_a6e5b.dir/build
make[1]: Entering directory '/home/khoinlm/KhoiNLM/Zephyr/zephyr_1.11_do/samples/basic/HUB/build/CMakeFiles/CMakeTmp'
Building C object CMakeFiles/cmTC_a6e5b.dir/src.c.obj
/opt/zephyr-sdk/sysroots/x86_64-pokysdk-linux/usr/bin/arm-zephyr-eabi/arm-zephyr-eabi-gcc   -Dcheck_Wno_pointer_sign_C -nostartfiles -nostdlib -isystem "/opt/zephyr-sdk/sysroots/x86_64-pokysdk-linux/usr/lib/arm-zephyr-eabi/gcc/arm-zephyr-eabi/6.2.0/include" -isystem "/opt/zephyr-sdk/sysroots/x86_64-pokysdk-linux/usr/lib/arm-zephyr-eabi/gcc/arm-zephyr-eabi/6.2.0/include-fixed" -Wl,--unresolved-symbols=ignore-in-object-files   -Wno-pointer-sign -o CMakeFiles/cmTC_a6e5b.dir/src.c.obj   -c /home/khoinlm/KhoiNLM/Zephyr/zephyr_1.11_do/samples/basic/HUB/build/CMakeFiles/CMakeTmp/src.c
Linking C executable cmTC_a6e5b
/usr/local/bin/cmake -E cmake_link_script CMakeFiles/cmTC_a6e5b.dir/link.txt --verbose=1
/opt/zephyr-sdk/sysroots/x86_64-pokysdk-linux/usr/bin/arm-zephyr-eabi/arm-zephyr-eabi-gcc  -Dcheck_Wno_pointer_sign_C -nostartfiles -nostdlib -isystem "/opt/zephyr-sdk/sysroots/x86_64-pokysdk-linux/usr/lib/arm-zephyr-eabi/gcc/arm-zephyr-eabi/6.2.0/include" -isystem "/opt/zephyr-sdk/sysroots/x86_64-pokysdk-linux/usr/lib/arm-zephyr-eabi/gcc/arm-zephyr-eabi/6.2.0/include-fixed" -Wl,--unresolved-symbols=ignore-in-object-files    CMakeFiles/cmTC_a6e5b.dir/src.c.obj  -o cmTC_a6e5b 
/opt/zephyr-sdk/sysroots/x86_64-pokysdk-linux/usr/libexec/arm-zephyr-eabi/gcc/arm-zephyr-eabi/6.2.0/real-ld: warning: cannot find entry symbol _start; defaulting to 0000000000008024
make[1]: Leaving directory '/home/khoinlm/KhoiNLM/Zephyr/zephyr_1.11_do/samples/basic/HUB/build/CMakeFiles/CMakeTmp'

Source file was:
int main(void) { return 0; }
Performing C SOURCE FILE Test check_Wno_unused_but_set_variable_C succeeded with the following output:
Change Dir: /home/khoinlm/KhoiNLM/Zephyr/zephyr_1.11_do/samples/basic/HUB/build/CMakeFiles/CMakeTmp

Run Build Command:"/usr/bin/make" "cmTC_3e840/fast"
/usr/bin/make -f CMakeFiles/cmTC_3e840.dir/build.make CMakeFiles/cmTC_3e840.dir/build
make[1]: Entering directory '/home/khoinlm/KhoiNLM/Zephyr/zephyr_1.11_do/samples/basic/HUB/build/CMakeFiles/CMakeTmp'
Building C object CMakeFiles/cmTC_3e840.dir/src.c.obj
/opt/zephyr-sdk/sysroots/x86_64-pokysdk-linux/usr/bin/arm-zephyr-eabi/arm-zephyr-eabi-gcc   -Dcheck_Wno_unused_but_set_variable_C -nostartfiles -nostdlib -isystem "/opt/zephyr-sdk/sysroots/x86_64-pokysdk-linux/usr/lib/arm-zephyr-eabi/gcc/arm-zephyr-eabi/6.2.0/include" -isystem "/opt/zephyr-sdk/sysroots/x86_64-pokysdk-linux/usr/lib/arm-zephyr-eabi/gcc/arm-zephyr-eabi/6.2.0/include-fixed" -Wl,--unresolved-symbols=ignore-in-object-files   -Wno-unused-but-set-variable -o CMakeFiles/cmTC_3e840.dir/src.c.obj   -c /home/khoinlm/KhoiNLM/Zephyr/zephyr_1.11_do/samples/basic/HUB/build/CMakeFiles/CMakeTmp/src.c
Linking C executable cmTC_3e840
/usr/local/bin/cmake -E cmake_link_script CMakeFiles/cmTC_3e840.dir/link.txt --verbose=1
/opt/zephyr-sdk/sysroots/x86_64-pokysdk-linux/usr/bin/arm-zephyr-eabi/arm-zephyr-eabi-gcc  -Dcheck_Wno_unused_but_set_variable_C -nostartfiles -nostdlib -isystem "/opt/zephyr-sdk/sysroots/x86_64-pokysdk-linux/usr/lib/arm-zephyr-eabi/gcc/arm-zephyr-eabi/6.2.0/include" -isystem "/opt/zephyr-sdk/sysroots/x86_64-pokysdk-linux/usr/lib/arm-zephyr-eabi/gcc/arm-zephyr-eabi/6.2.0/include-fixed" -Wl,--unresolved-symbols=ignore-in-object-files    CMakeFiles/cmTC_3e840.dir/src.c.obj  -o cmTC_3e840 
/opt/zephyr-sdk/sysroots/x86_64-pokysdk-linux/usr/libexec/arm-zephyr-eabi/gcc/arm-zephyr-eabi/6.2.0/real-ld: warning: cannot find entry symbol _start; defaulting to 0000000000008024
make[1]: Leaving directory '/home/khoinlm/KhoiNLM/Zephyr/zephyr_1.11_do/samples/basic/HUB/build/CMakeFiles/CMakeTmp'

Source file was:
int main(void) { return 0; }
Performing C SOURCE FILE Test check_fno_reorder_functions_C succeeded with the following output:
Change Dir: /home/khoinlm/KhoiNLM/Zephyr/zephyr_1.11_do/samples/basic/HUB/build/CMakeFiles/CMakeTmp

Run Build Command:"/usr/bin/make" "cmTC_077ee/fast"
/usr/bin/make -f CMakeFiles/cmTC_077ee.dir/build.make CMakeFiles/cmTC_077ee.dir/build
make[1]: Entering directory '/home/khoinlm/KhoiNLM/Zephyr/zephyr_1.11_do/samples/basic/HUB/build/CMakeFiles/CMakeTmp'
Building C object CMakeFiles/cmTC_077ee.dir/src.c.obj
/opt/zephyr-sdk/sysroots/x86_64-pokysdk-linux/usr/bin/arm-zephyr-eabi/arm-zephyr-eabi-gcc   -Dcheck_fno_reorder_functions_C -nostartfiles -nostdlib -isystem "/opt/zephyr-sdk/sysroots/x86_64-pokysdk-linux/usr/lib/arm-zephyr-eabi/gcc/arm-zephyr-eabi/6.2.0/include" -isystem "/opt/zephyr-sdk/sysroots/x86_64-pokysdk-linux/usr/lib/arm-zephyr-eabi/gcc/arm-zephyr-eabi/6.2.0/include-fixed" -Wl,--unresolved-symbols=ignore-in-object-files   -fno-reorder-functions -o CMakeFiles/cmTC_077ee.dir/src.c.obj   -c /home/khoinlm/KhoiNLM/Zephyr/zephyr_1.11_do/samples/basic/HUB/build/CMakeFiles/CMakeTmp/src.c
Linking C executable cmTC_077ee
/usr/local/bin/cmake -E cmake_link_script CMakeFiles/cmTC_077ee.dir/link.txt --verbose=1
/opt/zephyr-sdk/sysroots/x86_64-pokysdk-linux/usr/bin/arm-zephyr-eabi/arm-zephyr-eabi-gcc  -Dcheck_fno_reorder_functions_C -nostartfiles -nostdlib -isystem "/opt/zephyr-sdk/sysroots/x86_64-pokysdk-linux/usr/lib/arm-zephyr-eabi/gcc/arm-zephyr-eabi/6.2.0/include" -isystem "/opt/zephyr-sdk/sysroots/x86_64-pokysdk-linux/usr/lib/arm-zephyr-eabi/gcc/arm-zephyr-eabi/6.2.0/include-fixed" -Wl,--unresolved-symbols=ignore-in-object-files    CMakeFiles/cmTC_077ee.dir/src.c.obj  -o cmTC_077ee 
/opt/zephyr-sdk/sysroots/x86_64-pokysdk-linux/usr/libexec/arm-zephyr-eabi/gcc/arm-zephyr-eabi/6.2.0/real-ld: warning: cannot find entry symbol _start; defaulting to 0000000000008024
make[1]: Leaving directory '/home/khoinlm/KhoiNLM/Zephyr/zephyr_1.11_do/samples/basic/HUB/build/CMakeFiles/CMakeTmp'

Source file was:
int main(void) { return 0; }
Performing C SOURCE FILE Test check_fno_defer_pop_C succeeded with the following output:
Change Dir: /home/khoinlm/KhoiNLM/Zephyr/zephyr_1.11_do/samples/basic/HUB/build/CMakeFiles/CMakeTmp

Run Build Command:"/usr/bin/make" "cmTC_f85f2/fast"
/usr/bin/make -f CMakeFiles/cmTC_f85f2.dir/build.make CMakeFiles/cmTC_f85f2.dir/build
make[1]: Entering directory '/home/khoinlm/KhoiNLM/Zephyr/zephyr_1.11_do/samples/basic/HUB/build/CMakeFiles/CMakeTmp'
Building C object CMakeFiles/cmTC_f85f2.dir/src.c.obj
/opt/zephyr-sdk/sysroots/x86_64-pokysdk-linux/usr/bin/arm-zephyr-eabi/arm-zephyr-eabi-gcc   -Dcheck_fno_defer_pop_C -nostartfiles -nostdlib -isystem "/opt/zephyr-sdk/sysroots/x86_64-pokysdk-linux/usr/lib/arm-zephyr-eabi/gcc/arm-zephyr-eabi/6.2.0/include" -isystem "/opt/zephyr-sdk/sysroots/x86_64-pokysdk-linux/usr/lib/arm-zephyr-eabi/gcc/arm-zephyr-eabi/6.2.0/include-fixed" -Wl,--unresolved-symbols=ignore-in-object-files   -fno-defer-pop -o CMakeFiles/cmTC_f85f2.dir/src.c.obj   -c /home/khoinlm/KhoiNLM/Zephyr/zephyr_1.11_do/samples/basic/HUB/build/CMakeFiles/CMakeTmp/src.c
Linking C executable cmTC_f85f2
/usr/local/bin/cmake -E cmake_link_script CMakeFiles/cmTC_f85f2.dir/link.txt --verbose=1
/opt/zephyr-sdk/sysroots/x86_64-pokysdk-linux/usr/bin/arm-zephyr-eabi/arm-zephyr-eabi-gcc  -Dcheck_fno_defer_pop_C -nostartfiles -nostdlib -isystem "/opt/zephyr-sdk/sysroots/x86_64-pokysdk-linux/usr/lib/arm-zephyr-eabi/gcc/arm-zephyr-eabi/6.2.0/include" -isystem "/opt/zephyr-sdk/sysroots/x86_64-pokysdk-linux/usr/lib/arm-zephyr-eabi/gcc/arm-zephyr-eabi/6.2.0/include-fixed" -Wl,--unresolved-symbols=ignore-in-object-files    CMakeFiles/cmTC_f85f2.dir/src.c.obj  -o cmTC_f85f2 
/opt/zephyr-sdk/sysroots/x86_64-pokysdk-linux/usr/libexec/arm-zephyr-eabi/gcc/arm-zephyr-eabi/6.2.0/real-ld: warning: cannot find entry symbol _start; defaulting to 0000000000008024
make[1]: Leaving directory '/home/khoinlm/KhoiNLM/Zephyr/zephyr_1.11_do/samples/basic/HUB/build/CMakeFiles/CMakeTmp'

Source file was:
int main(void) { return 0; }
Performing C SOURCE FILE Test check_Werror_implicit_int_C succeeded with the following output:
Change Dir: /home/khoinlm/KhoiNLM/Zephyr/zephyr_1.11_do/samples/basic/HUB/build/CMakeFiles/CMakeTmp

Run Build Command:"/usr/bin/make" "cmTC_85ae6/fast"
/usr/bin/make -f CMakeFiles/cmTC_85ae6.dir/build.make CMakeFiles/cmTC_85ae6.dir/build
make[1]: Entering directory '/home/khoinlm/KhoiNLM/Zephyr/zephyr_1.11_do/samples/basic/HUB/build/CMakeFiles/CMakeTmp'
Building C object CMakeFiles/cmTC_85ae6.dir/src.c.obj
/opt/zephyr-sdk/sysroots/x86_64-pokysdk-linux/usr/bin/arm-zephyr-eabi/arm-zephyr-eabi-gcc   -Dcheck_Werror_implicit_int_C -nostartfiles -nostdlib -isystem "/opt/zephyr-sdk/sysroots/x86_64-pokysdk-linux/usr/lib/arm-zephyr-eabi/gcc/arm-zephyr-eabi/6.2.0/include" -isystem "/opt/zephyr-sdk/sysroots/x86_64-pokysdk-linux/usr/lib/arm-zephyr-eabi/gcc/arm-zephyr-eabi/6.2.0/include-fixed" -Wl,--unresolved-symbols=ignore-in-object-files   -Werror=implicit-int -o CMakeFiles/cmTC_85ae6.dir/src.c.obj   -c /home/khoinlm/KhoiNLM/Zephyr/zephyr_1.11_do/samples/basic/HUB/build/CMakeFiles/CMakeTmp/src.c
Linking C executable cmTC_85ae6
/usr/local/bin/cmake -E cmake_link_script CMakeFiles/cmTC_85ae6.dir/link.txt --verbose=1
/opt/zephyr-sdk/sysroots/x86_64-pokysdk-linux/usr/bin/arm-zephyr-eabi/arm-zephyr-eabi-gcc  -Dcheck_Werror_implicit_int_C -nostartfiles -nostdlib -isystem "/opt/zephyr-sdk/sysroots/x86_64-pokysdk-linux/usr/lib/arm-zephyr-eabi/gcc/arm-zephyr-eabi/6.2.0/include" -isystem "/opt/zephyr-sdk/sysroots/x86_64-pokysdk-linux/usr/lib/arm-zephyr-eabi/gcc/arm-zephyr-eabi/6.2.0/include-fixed" -Wl,--unresolved-symbols=ignore-in-object-files    CMakeFiles/cmTC_85ae6.dir/src.c.obj  -o cmTC_85ae6 
/opt/zephyr-sdk/sysroots/x86_64-pokysdk-linux/usr/libexec/arm-zephyr-eabi/gcc/arm-zephyr-eabi/6.2.0/real-ld: warning: cannot find entry symbol _start; defaulting to 0000000000008024
make[1]: Leaving directory '/home/khoinlm/KhoiNLM/Zephyr/zephyr_1.11_do/samples/basic/HUB/build/CMakeFiles/CMakeTmp'

Source file was:
int main(void) { return 0; }
Performing C SOURCE FILE Test check_Wl__X succeeded with the following output:
Change Dir: /home/khoinlm/KhoiNLM/Zephyr/zephyr_1.11_do/samples/basic/HUB/build/CMakeFiles/CMakeTmp

Run Build Command:"/usr/bin/make" "cmTC_86955/fast"
/usr/bin/make -f CMakeFiles/cmTC_86955.dir/build.make CMakeFiles/cmTC_86955.dir/build
make[1]: Entering directory '/home/khoinlm/KhoiNLM/Zephyr/zephyr_1.11_do/samples/basic/HUB/build/CMakeFiles/CMakeTmp'
Building C object CMakeFiles/cmTC_86955.dir/src.c.obj
/opt/zephyr-sdk/sysroots/x86_64-pokysdk-linux/usr/bin/arm-zephyr-eabi/arm-zephyr-eabi-gcc   -Dcheck_Wl__X -nostartfiles -nostdlib -isystem "/opt/zephyr-sdk/sysroots/x86_64-pokysdk-linux/usr/lib/arm-zephyr-eabi/gcc/arm-zephyr-eabi/6.2.0/include" -isystem "/opt/zephyr-sdk/sysroots/x86_64-pokysdk-linux/usr/lib/arm-zephyr-eabi/gcc/arm-zephyr-eabi/6.2.0/include-fixed" -Wl,--unresolved-symbols=ignore-in-object-files -Wl,-X   -o CMakeFiles/cmTC_86955.dir/src.c.obj   -c /home/khoinlm/KhoiNLM/Zephyr/zephyr_1.11_do/samples/basic/HUB/build/CMakeFiles/CMakeTmp/src.c
Linking C executable cmTC_86955
/usr/local/bin/cmake -E cmake_link_script CMakeFiles/cmTC_86955.dir/link.txt --verbose=1
/opt/zephyr-sdk/sysroots/x86_64-pokysdk-linux/usr/bin/arm-zephyr-eabi/arm-zephyr-eabi-gcc  -Dcheck_Wl__X -nostartfiles -nostdlib -isystem "/opt/zephyr-sdk/sysroots/x86_64-pokysdk-linux/usr/lib/arm-zephyr-eabi/gcc/arm-zephyr-eabi/6.2.0/include" -isystem "/opt/zephyr-sdk/sysroots/x86_64-pokysdk-linux/usr/lib/arm-zephyr-eabi/gcc/arm-zephyr-eabi/6.2.0/include-fixed" -Wl,--unresolved-symbols=ignore-in-object-files -Wl,-X    CMakeFiles/cmTC_86955.dir/src.c.obj  -o cmTC_86955 
/opt/zephyr-sdk/sysroots/x86_64-pokysdk-linux/usr/libexec/arm-zephyr-eabi/gcc/arm-zephyr-eabi/6.2.0/real-ld: warning: cannot find entry symbol _start; defaulting to 0000000000008024
make[1]: Leaving directory '/home/khoinlm/KhoiNLM/Zephyr/zephyr_1.11_do/samples/basic/HUB/build/CMakeFiles/CMakeTmp'

Source file was:
int main(void) { return 0; }
Performing C SOURCE FILE Test check_Wl__N succeeded with the following output:
Change Dir: /home/khoinlm/KhoiNLM/Zephyr/zephyr_1.11_do/samples/basic/HUB/build/CMakeFiles/CMakeTmp

Run Build Command:"/usr/bin/make" "cmTC_3d281/fast"
/usr/bin/make -f CMakeFiles/cmTC_3d281.dir/build.make CMakeFiles/cmTC_3d281.dir/build
make[1]: Entering directory '/home/khoinlm/KhoiNLM/Zephyr/zephyr_1.11_do/samples/basic/HUB/build/CMakeFiles/CMakeTmp'
Building C object CMakeFiles/cmTC_3d281.dir/src.c.obj
/opt/zephyr-sdk/sysroots/x86_64-pokysdk-linux/usr/bin/arm-zephyr-eabi/arm-zephyr-eabi-gcc   -Dcheck_Wl__N -nostartfiles -nostdlib -isystem "/opt/zephyr-sdk/sysroots/x86_64-pokysdk-linux/usr/lib/arm-zephyr-eabi/gcc/arm-zephyr-eabi/6.2.0/include" -isystem "/opt/zephyr-sdk/sysroots/x86_64-pokysdk-linux/usr/lib/arm-zephyr-eabi/gcc/arm-zephyr-eabi/6.2.0/include-fixed" -Wl,--unresolved-symbols=ignore-in-object-files -Wl,-N   -o CMakeFiles/cmTC_3d281.dir/src.c.obj   -c /home/khoinlm/KhoiNLM/Zephyr/zephyr_1.11_do/samples/basic/HUB/build/CMakeFiles/CMakeTmp/src.c
Linking C executable cmTC_3d281
/usr/local/bin/cmake -E cmake_link_script CMakeFiles/cmTC_3d281.dir/link.txt --verbose=1
/opt/zephyr-sdk/sysroots/x86_64-pokysdk-linux/usr/bin/arm-zephyr-eabi/arm-zephyr-eabi-gcc  -Dcheck_Wl__N -nostartfiles -nostdlib -isystem "/opt/zephyr-sdk/sysroots/x86_64-pokysdk-linux/usr/lib/arm-zephyr-eabi/gcc/arm-zephyr-eabi/6.2.0/include" -isystem "/opt/zephyr-sdk/sysroots/x86_64-pokysdk-linux/usr/lib/arm-zephyr-eabi/gcc/arm-zephyr-eabi/6.2.0/include-fixed" -Wl,--unresolved-symbols=ignore-in-object-files -Wl,-N    CMakeFiles/cmTC_3d281.dir/src.c.obj  -o cmTC_3d281 
/opt/zephyr-sdk/sysroots/x86_64-pokysdk-linux/usr/libexec/arm-zephyr-eabi/gcc/arm-zephyr-eabi/6.2.0/real-ld: warning: cannot find entry symbol _start; defaulting to 0000000000008024
make[1]: Leaving directory '/home/khoinlm/KhoiNLM/Zephyr/zephyr_1.11_do/samples/basic/HUB/build/CMakeFiles/CMakeTmp'

Source file was:
int main(void) { return 0; }
Performing C SOURCE FILE Test check_Wl___gc_sections succeeded with the following output:
Change Dir: /home/khoinlm/KhoiNLM/Zephyr/zephyr_1.11_do/samples/basic/HUB/build/CMakeFiles/CMakeTmp

Run Build Command:"/usr/bin/make" "cmTC_cbe81/fast"
/usr/bin/make -f CMakeFiles/cmTC_cbe81.dir/build.make CMakeFiles/cmTC_cbe81.dir/build
make[1]: Entering directory '/home/khoinlm/KhoiNLM/Zephyr/zephyr_1.11_do/samples/basic/HUB/build/CMakeFiles/CMakeTmp'
Building C object CMakeFiles/cmTC_cbe81.dir/src.c.obj
/opt/zephyr-sdk/sysroots/x86_64-pokysdk-linux/usr/bin/arm-zephyr-eabi/arm-zephyr-eabi-gcc   -Dcheck_Wl___gc_sections -nostartfiles -nostdlib -isystem "/opt/zephyr-sdk/sysroots/x86_64-pokysdk-linux/usr/lib/arm-zephyr-eabi/gcc/arm-zephyr-eabi/6.2.0/include" -isystem "/opt/zephyr-sdk/sysroots/x86_64-pokysdk-linux/usr/lib/arm-zephyr-eabi/gcc/arm-zephyr-eabi/6.2.0/include-fixed" -Wl,--unresolved-symbols=ignore-in-object-files -Wl,--gc-sections   -o CMakeFiles/cmTC_cbe81.dir/src.c.obj   -c /home/khoinlm/KhoiNLM/Zephyr/zephyr_1.11_do/samples/basic/HUB/build/CMakeFiles/CMakeTmp/src.c
Linking C executable cmTC_cbe81
/usr/local/bin/cmake -E cmake_link_script CMakeFiles/cmTC_cbe81.dir/link.txt --verbose=1
/opt/zephyr-sdk/sysroots/x86_64-pokysdk-linux/usr/bin/arm-zephyr-eabi/arm-zephyr-eabi-gcc  -Dcheck_Wl___gc_sections -nostartfiles -nostdlib -isystem "/opt/zephyr-sdk/sysroots/x86_64-pokysdk-linux/usr/lib/arm-zephyr-eabi/gcc/arm-zephyr-eabi/6.2.0/include" -isystem "/opt/zephyr-sdk/sysroots/x86_64-pokysdk-linux/usr/lib/arm-zephyr-eabi/gcc/arm-zephyr-eabi/6.2.0/include-fixed" -Wl,--unresolved-symbols=ignore-in-object-files -Wl,--gc-sections    CMakeFiles/cmTC_cbe81.dir/src.c.obj  -o cmTC_cbe81 
/opt/zephyr-sdk/sysroots/x86_64-pokysdk-linux/usr/libexec/arm-zephyr-eabi/gcc/arm-zephyr-eabi/6.2.0/real-ld: warning: cannot find entry symbol _start; defaulting to 0000000000008024
make[1]: Leaving directory '/home/khoinlm/KhoiNLM/Zephyr/zephyr_1.11_do/samples/basic/HUB/build/CMakeFiles/CMakeTmp'

Source file was:
int main(void) { return 0; }
Performing C SOURCE FILE Test check_Wl___build_id_none succeeded with the following output:
Change Dir: /home/khoinlm/KhoiNLM/Zephyr/zephyr_1.11_do/samples/basic/HUB/build/CMakeFiles/CMakeTmp

Run Build Command:"/usr/bin/make" "cmTC_12ecd/fast"
/usr/bin/make -f CMakeFiles/cmTC_12ecd.dir/build.make CMakeFiles/cmTC_12ecd.dir/build
make[1]: Entering directory '/home/khoinlm/KhoiNLM/Zephyr/zephyr_1.11_do/samples/basic/HUB/build/CMakeFiles/CMakeTmp'
Building C object CMakeFiles/cmTC_12ecd.dir/src.c.obj
/opt/zephyr-sdk/sysroots/x86_64-pokysdk-linux/usr/bin/arm-zephyr-eabi/arm-zephyr-eabi-gcc   -Dcheck_Wl___build_id_none -nostartfiles -nostdlib -isystem "/opt/zephyr-sdk/sysroots/x86_64-pokysdk-linux/usr/lib/arm-zephyr-eabi/gcc/arm-zephyr-eabi/6.2.0/include" -isystem "/opt/zephyr-sdk/sysroots/x86_64-pokysdk-linux/usr/lib/arm-zephyr-eabi/gcc/arm-zephyr-eabi/6.2.0/include-fixed" -Wl,--unresolved-symbols=ignore-in-object-files -Wl,--build-id=none   -o CMakeFiles/cmTC_12ecd.dir/src.c.obj   -c /home/khoinlm/KhoiNLM/Zephyr/zephyr_1.11_do/samples/basic/HUB/build/CMakeFiles/CMakeTmp/src.c
Linking C executable cmTC_12ecd
/usr/local/bin/cmake -E cmake_link_script CMakeFiles/cmTC_12ecd.dir/link.txt --verbose=1
/opt/zephyr-sdk/sysroots/x86_64-pokysdk-linux/usr/bin/arm-zephyr-eabi/arm-zephyr-eabi-gcc  -Dcheck_Wl___build_id_none -nostartfiles -nostdlib -isystem "/opt/zephyr-sdk/sysroots/x86_64-pokysdk-linux/usr/lib/arm-zephyr-eabi/gcc/arm-zephyr-eabi/6.2.0/include" -isystem "/opt/zephyr-sdk/sysroots/x86_64-pokysdk-linux/usr/lib/arm-zephyr-eabi/gcc/arm-zephyr-eabi/6.2.0/include-fixed" -Wl,--unresolved-symbols=ignore-in-object-files -Wl,--build-id=none    CMakeFiles/cmTC_12ecd.dir/src.c.obj  -o cmTC_12ecd 
/opt/zephyr-sdk/sysroots/x86_64-pokysdk-linux/usr/libexec/arm-zephyr-eabi/gcc/arm-zephyr-eabi/6.2.0/real-ld: warning: cannot find entry symbol _start; defaulting to 0000000000008000
make[1]: Leaving directory '/home/khoinlm/KhoiNLM/Zephyr/zephyr_1.11_do/samples/basic/HUB/build/CMakeFiles/CMakeTmp'

Source file was:
int main(void) { return 0; }
Performing C SOURCE FILE Test check_ffunction_sections_C succeeded with the following output:
Change Dir: /home/khoinlm/KhoiNLM/Zephyr/zephyr_1.11_do/samples/basic/HUB/build/CMakeFiles/CMakeTmp

Run Build Command:"/usr/bin/make" "cmTC_43ac8/fast"
/usr/bin/make -f CMakeFiles/cmTC_43ac8.dir/build.make CMakeFiles/cmTC_43ac8.dir/build
make[1]: Entering directory '/home/khoinlm/KhoiNLM/Zephyr/zephyr_1.11_do/samples/basic/HUB/build/CMakeFiles/CMakeTmp'
Building C object CMakeFiles/cmTC_43ac8.dir/src.c.obj
/opt/zephyr-sdk/sysroots/x86_64-pokysdk-linux/usr/bin/arm-zephyr-eabi/arm-zephyr-eabi-gcc   -Dcheck_ffunction_sections_C -nostartfiles -nostdlib -isystem "/opt/zephyr-sdk/sysroots/x86_64-pokysdk-linux/usr/lib/arm-zephyr-eabi/gcc/arm-zephyr-eabi/6.2.0/include" -isystem "/opt/zephyr-sdk/sysroots/x86_64-pokysdk-linux/usr/lib/arm-zephyr-eabi/gcc/arm-zephyr-eabi/6.2.0/include-fixed" -Wl,--unresolved-symbols=ignore-in-object-files   -ffunction-sections -o CMakeFiles/cmTC_43ac8.dir/src.c.obj   -c /home/khoinlm/KhoiNLM/Zephyr/zephyr_1.11_do/samples/basic/HUB/build/CMakeFiles/CMakeTmp/src.c
Linking C executable cmTC_43ac8
/usr/local/bin/cmake -E cmake_link_script CMakeFiles/cmTC_43ac8.dir/link.txt --verbose=1
/opt/zephyr-sdk/sysroots/x86_64-pokysdk-linux/usr/bin/arm-zephyr-eabi/arm-zephyr-eabi-gcc  -Dcheck_ffunction_sections_C -nostartfiles -nostdlib -isystem "/opt/zephyr-sdk/sysroots/x86_64-pokysdk-linux/usr/lib/arm-zephyr-eabi/gcc/arm-zephyr-eabi/6.2.0/include" -isystem "/opt/zephyr-sdk/sysroots/x86_64-pokysdk-linux/usr/lib/arm-zephyr-eabi/gcc/arm-zephyr-eabi/6.2.0/include-fixed" -Wl,--unresolved-symbols=ignore-in-object-files    CMakeFiles/cmTC_43ac8.dir/src.c.obj  -o cmTC_43ac8 
/opt/zephyr-sdk/sysroots/x86_64-pokysdk-linux/usr/libexec/arm-zephyr-eabi/gcc/arm-zephyr-eabi/6.2.0/real-ld: warning: cannot find entry symbol _start; defaulting to 0000000000008024
make[1]: Leaving directory '/home/khoinlm/KhoiNLM/Zephyr/zephyr_1.11_do/samples/basic/HUB/build/CMakeFiles/CMakeTmp'

Source file was:
int main(void) { return 0; }
Performing C SOURCE FILE Test check_fdata_sections_C succeeded with the following output:
Change Dir: /home/khoinlm/KhoiNLM/Zephyr/zephyr_1.11_do/samples/basic/HUB/build/CMakeFiles/CMakeTmp

Run Build Command:"/usr/bin/make" "cmTC_4117c/fast"
/usr/bin/make -f CMakeFiles/cmTC_4117c.dir/build.make CMakeFiles/cmTC_4117c.dir/build
make[1]: Entering directory '/home/khoinlm/KhoiNLM/Zephyr/zephyr_1.11_do/samples/basic/HUB/build/CMakeFiles/CMakeTmp'
Building C object CMakeFiles/cmTC_4117c.dir/src.c.obj
/opt/zephyr-sdk/sysroots/x86_64-pokysdk-linux/usr/bin/arm-zephyr-eabi/arm-zephyr-eabi-gcc   -Dcheck_fdata_sections_C -nostartfiles -nostdlib -isystem "/opt/zephyr-sdk/sysroots/x86_64-pokysdk-linux/usr/lib/arm-zephyr-eabi/gcc/arm-zephyr-eabi/6.2.0/include" -isystem "/opt/zephyr-sdk/sysroots/x86_64-pokysdk-linux/usr/lib/arm-zephyr-eabi/gcc/arm-zephyr-eabi/6.2.0/include-fixed" -Wl,--unresolved-symbols=ignore-in-object-files   -fdata-sections -o CMakeFiles/cmTC_4117c.dir/src.c.obj   -c /home/khoinlm/KhoiNLM/Zephyr/zephyr_1.11_do/samples/basic/HUB/build/CMakeFiles/CMakeTmp/src.c
Linking C executable cmTC_4117c
/usr/local/bin/cmake -E cmake_link_script CMakeFiles/cmTC_4117c.dir/link.txt --verbose=1
/opt/zephyr-sdk/sysroots/x86_64-pokysdk-linux/usr/bin/arm-zephyr-eabi/arm-zephyr-eabi-gcc  -Dcheck_fdata_sections_C -nostartfiles -nostdlib -isystem "/opt/zephyr-sdk/sysroots/x86_64-pokysdk-linux/usr/lib/arm-zephyr-eabi/gcc/arm-zephyr-eabi/6.2.0/include" -isystem "/opt/zephyr-sdk/sysroots/x86_64-pokysdk-linux/usr/lib/arm-zephyr-eabi/gcc/arm-zephyr-eabi/6.2.0/include-fixed" -Wl,--unresolved-symbols=ignore-in-object-files    CMakeFiles/cmTC_4117c.dir/src.c.obj  -o cmTC_4117c 
/opt/zephyr-sdk/sysroots/x86_64-pokysdk-linux/usr/libexec/arm-zephyr-eabi/gcc/arm-zephyr-eabi/6.2.0/real-ld: warning: cannot find entry symbol _start; defaulting to 0000000000008024
make[1]: Leaving directory '/home/khoinlm/KhoiNLM/Zephyr/zephyr_1.11_do/samples/basic/HUB/build/CMakeFiles/CMakeTmp'

Source file was:
int main(void) { return 0; }
Performing C SOURCE FILE Test check_Wl___print_memory_usage succeeded with the following output:
Change Dir: /home/khoinlm/KhoiNLM/Zephyr/zephyr_1.11_do/samples/basic/HUB/build/CMakeFiles/CMakeTmp

Run Build Command:"/usr/bin/make" "cmTC_3bb14/fast"
/usr/bin/make -f CMakeFiles/cmTC_3bb14.dir/build.make CMakeFiles/cmTC_3bb14.dir/build
make[1]: Entering directory '/home/khoinlm/KhoiNLM/Zephyr/zephyr_1.11_do/samples/basic/HUB/build/CMakeFiles/CMakeTmp'
Building C object CMakeFiles/cmTC_3bb14.dir/src.c.obj
/opt/zephyr-sdk/sysroots/x86_64-pokysdk-linux/usr/bin/arm-zephyr-eabi/arm-zephyr-eabi-gcc   -Dcheck_Wl___print_memory_usage -nostartfiles -nostdlib -isystem "/opt/zephyr-sdk/sysroots/x86_64-pokysdk-linux/usr/lib/arm-zephyr-eabi/gcc/arm-zephyr-eabi/6.2.0/include" -isystem "/opt/zephyr-sdk/sysroots/x86_64-pokysdk-linux/usr/lib/arm-zephyr-eabi/gcc/arm-zephyr-eabi/6.2.0/include-fixed" -Wl,--unresolved-symbols=ignore-in-object-files -Wl,--print-memory-usage   -o CMakeFiles/cmTC_3bb14.dir/src.c.obj   -c /home/khoinlm/KhoiNLM/Zephyr/zephyr_1.11_do/samples/basic/HUB/build/CMakeFiles/CMakeTmp/src.c
Linking C executable cmTC_3bb14
/usr/local/bin/cmake -E cmake_link_script CMakeFiles/cmTC_3bb14.dir/link.txt --verbose=1
/opt/zephyr-sdk/sysroots/x86_64-pokysdk-linux/usr/bin/arm-zephyr-eabi/arm-zephyr-eabi-gcc  -Dcheck_Wl___print_memory_usage -nostartfiles -nostdlib -isystem "/opt/zephyr-sdk/sysroots/x86_64-pokysdk-linux/usr/lib/arm-zephyr-eabi/gcc/arm-zephyr-eabi/6.2.0/include" -isystem "/opt/zephyr-sdk/sysroots/x86_64-pokysdk-linux/usr/lib/arm-zephyr-eabi/gcc/arm-zephyr-eabi/6.2.0/include-fixed" -Wl,--unresolved-symbols=ignore-in-object-files -Wl,--print-memory-usage    CMakeFiles/cmTC_3bb14.dir/src.c.obj  -o cmTC_3bb14 
Memory region         Used Size  Region Size  %age Used/opt/zephyr-sdk/sysroots/x86_64-pokysdk-linux/usr/libexec/arm-zephyr-eabi/gcc/arm-zephyr-eabi/6.2.0/real-ld: warning: cannot find entry symbol _start; defaulting to 0000000000008024

make[1]: Leaving directory '/home/khoinlm/KhoiNLM/Zephyr/zephyr_1.11_do/samples/basic/HUB/build/CMakeFiles/CMakeTmp'

Source file was:
int main(void) { return 0; }
