:020000040007F3
:10F0000024A0408901000000010000000100000070
:10F01000000000000000000084D10200DDA944FCD3
:10F0200001000000000000000000000000000000DF
:10F0300000000000000000000000000000000000D0
:10F0400000000000000000000000000000000000C0
:0CF05000000000000000000000000000B4
:00000001FF
