:0200000270008C
:10800000807F0020FDB9070025BA070027BA0700C6
:1080100029BA07002BBA07002DBA0700000000009C
:108020000000000000000000000000002FBA070060
:1080300031BA07000000000033BA070035BA070064
:1080400037BA070037BA070037BA070037BA070050
:1080500037BA070037BA070037BA070037BA070040
:1080600037BA070037BA070037BA070037BA070030
:1080700037BA07003D94070037BA070037BA070040
:1080800037BA0700FF99070037BA070037BA070069
:108090006D95070037BA07005DB9070037BA0700CA
:1080A00037BA070037BA070037BA070037BA0700F0
:1080B00037BA070037BA07000000000000000000D0
:1080C00037BA070037BA070037BA070037BA0700D0
:1080D00037BA070037BA070037BA070000000000B8
:1080E0000000000000000000000000000000000090
:1080F0000000000000000000000000000000000080
:10810000000000000000000000000000000000006F
:10811000000000000000000000000000000000005F
:10812000000000000000000000000000000000004F
:10813000000000000000000000000000000000003F
:10814000000000000000000000000000000000002F
:10815000000000000000000000000000000000001F
:10816000000000000000000000000000000000000F
:1081700000000000000000000000000000000000FF
:1081800000000000000000000000000000000000EF
:1081900000000000000000000000000000000000DF
:1081A00000000000000000000000000000000000CF
:1081B00000000000000000000000000000000000BF
:1081C00000000000000000000000000000000000AF
:1081D000000000000000000000000000000000009F
:1081E000000000000000000000000000000000008F
:1081F000000000000000000000000000000000007F
:10820000000000000000000000000000000000006E
:10821000000000000000000000000000000000005E
:10822000000000000000000000000000000000004E
:10823000000000000000000000000000000000003E
:10824000000000000000000000000000000000002E
:10825000000000000000000000000000000000001E
:10826000000000000000000000000000000000000E
:1082700000000000000000000000000000000000FE
:1082800000000000000000000000000000000000EE
:1082900000000000000000000000000000000000DE
:1082A00000000000000000000000000000000000CE
:1082B00000000000000000000000000000000000BE
:1082C00000000000000000000000000000000000AE
:1082D000000000000000000000000000000000009E
:1082E000000000000000000000000000000000008E
:1082F000000000000000000000000000000000007E
:10830000000000000000000000000000000000006D
:10831000000000000000000000000000000000005D
:10832000000000000000000000000000000000004D
:10833000000000000000000000000000000000003D
:10834000000000000000000000000000000000002D
:10835000000000000000000000000000000000001D
:10836000000000000000000000000000000000000D
:1083700000000000000000000000000000000000FD
:1083800000000000000000000000000000000000ED
:1083900000000000000000000000000000000000DD
:1083A00000000000000000000000000000000000CD
:1083B00000000000000000000000000000000000BD
:1083C00000000000000000000000000000000000AD
:1083D000000000000000000000000000000000009D
:1083E000000000000000000000000000000000008D
:1083F000000000000000000000000000000000007D
:1084000010B5054C237833B9044B13B10448AFF3CE
:1084100000800123237010BD902C0020000000007C
:10842000A0D007000C4B43B10C480D4910B5AFF379
:1084300000800C48036823B910BD0A48036833B9AB
:108440007047094B002BF7D0BDE810401847064B8A
:10845000002BF5D0184700BF00000000A0D0070097
:10846000942C0020742C002000000000154B002BE1
:1084700008BF134B9D46A3F5803A00218B460F465B
:108480001348144A121A00F063F80F4B002B00D067
:1084900098470E4B002B00D0984700200021040085
:1084A0000D000D48002802D00C48AFF3008000F00A
:1084B0002BF82000290001F05BFD00F011F800BF4F
:1084C00000000800807F0020000000000000000085
:1084D000902C0020E4380020000000000000000084
:1084E00008B5074B044613B10021AFF30080054BDC
:1084F0001868836A03B19847204600F031F800BF3E
:108500000000000034CD070070B50D4E0D4CA41BCB
:10851000A4100025A54209D10B4E0C4C04F0FEFB23
:10852000A41BA4100025A54205D170BD56F8253026
:1085300098470135EEE756F8253098470135F2E7C0
:108540006C2C00206C2C00206C2C0020702C002047
:1085500002440346934200D1704703F8011BF9E738
:10856000FEE700BF2DE9F04F0388112B8BB00446C6
:108570003BD010D8102B25D02388142B00F09D83DE
:1085800059D8102B00F0B18047D8022B00F0CF80D3
:108590000BB0BDE8F08F122B38D0502BECD1904DA2
:1085A000C288EB899A4240F09683038A022B40F0FE
:1085B0009283837CD90715D401F02CFF0028DBD0EF
:1085C000AB691FE0874B82881A8000F1100303CB50
:1085D000854A864B1060516000221A70804BDB89FF
:1085E000002BC9D102F0E0FEC6E77E4B4FF6FF72CA
:1085F0001A807E4B00221A7001F00CFF0028BBD0BD
:10860000774B9B69002BB7D09847B5E700F108037B
:1086100003CB754A10605160E4E7112B7BD0132B1C
:10862000B6D1734800231A468521008800F006FE63
:108630000028ADD072E0522B00F0468345D8502B75
:1086400000F04983512BA3D1A579002DA0D0102291
:10865000002106A8FFF77CFF022D99D1654E2289E3
:10866000B3899A4294D1A37B043B022B90D99DF805
:108670001E305F4F318A388843F001038DF81E3079
:10868000238AADF82030638AADF8223004F1140358
:1086900002220993002304938DF81820ADF81020CE
:1086A00003AB04AA059300F0C1FD3D46002844D168
:1086B0009DF80C30DA0740D440F2FD1306A9388843
:1086C000ADF81C3000F0B0FD62E7552B00F01C84C3
:1086D000562B7FF45DAFA379002B7FF459AF444B49
:1086E0001321188802F0A4FEA2E74FF0A0434FF038
:1086F0000062C3F80C254FF40032C3F808253C4B48
:10870000A2881A803C4A136823F0020313603B4B93
:1087100001221A703CE700F019FD08B103F09AF845
:10872000334B4FF6FF721A80344B187030E7304BE2
:108730000021188800F070FD7AE7002306A9288838
:10874000ADF81C3000F070FD074600287FF420AF24
:1087500001460C2206A8FFF7FBFE207D431E052BD9
:1087600000F2A982DFE813F0060031024002900017
:10877000A7025602638A062B01D0032119E0204A82
:10878000617D538813800120D4F81630079181420F
:1087900008938DF8180009D11A48017019490C780E
:1087A000012C0AD0022C35D0052102E00229F3D099
:1087B0000721012001F020FFEAE6002BDDD0B3F510
:1087C000807F5DD80025104B10481D70202229465F
:1087D000FFF7BEFE0E4B089A1D639A630121E8E77E
:1087E00098380020B638002088380020B43800209F
:1087F000682C0020903500207C350020C4380020F3
:10880000AC2C0020602C002084340020DC350020BB
:10881000A4350020002BB0D0C3F30B0131B19E4929
:108820009E48496D006819448142A6D1B3F5805F26
:1088300026D89B49097829B39749984C486D2468F4
:108840001D18A5421ED84B641379CC6C8C6401337F
:1088500003F00303934C13710023D380236808654E
:1088600001332360904B08631B68904A0121184430
:1088700002F0B4FE0028B1D02368013B236093E7E7
:10888000042196E7082194E703238DF81830884BDC
:108890001C78012C04D0022C00F0E2800524B9E001
:1088A0007D4BD96B9A6B9142994640F08C817C4EFE
:1088B0003378002B40F0AE8001F04CF90128EDD167
:1088C0007C4B93F874201D46002A00F0C48093F876
:1088D0007A30002BE2D0784B93E803009846A8B199
:1088E000A1B195F8DB3013B195F8DC3073B995F888
:1088F00084305BB1D5F88830342B07D195F88C40A3
:108900006E4A002343F20C0EA34201DB0A2481E0ED
:10891000BEF800C052F804AFE24500F0FB8201331C
:10892000F2E795F87C30002BF0D0D9F80870D5F834
:108930008030BB42EAD395F8E830002BE6D1604B9B
:10894000C8F800302023C8F8043001F095FD002855
:10895000DCD15C4C95F8E9205B4904F10807384606
:1089600004F0BDF995F8E930A764402BE36495D194
:1089700098E81002002C91D014F003088ED104F076
:1089800031F83B4600904A462146504804F02EF804
:10899000002883D0414C95F8A130C4F80080032B07
:1089A000B4D8DFE803F0123A2A4295F87C20002A76
:1089B000ACD0D9F80C70002BB9D0023B012BBAD83F
:1089C000D5F88030BB42A1D9B5E795F8B030002B7F
:1089D0009CD0D5F8B430236020223D49384804F0BB
:1089E0007EF9206890B301F067FE90B901F0D4FEE3
:1089F00000288BD1012434700CE095F8A830002BAE
:108A000084D0D5F8AC202260324BC3F5FC239A42C7
:108A1000E2D9042421460420CCE695F8A230002BAC
:108A20003FF474AFD5F8A430D5E795F8A830002B03
:108A30003FF46CAF95F8A230002B3FF467AFD5F848
:108A4000A430D5F8AC20991821600BB90324E1E7D4
:108A5000002AFBD0D8E71B78002B3FF41FAF55E767
:108A60000D4C226D636D616CD31A9942274640F01C
:108A7000AA800020A36C60646265E36401F08CFE50
:108A800000287FF443AF054B216D1A689142984648
:108A900056D00124BEE700BFA4350020803400205A
:108AA000843400203C31002000370020E19A070088
:108AB000602C00205031002074350020DC31002073
:108AC00068380020AC2C00203A32002038CD070056
:108AD0000B3200200080070000F052FF2368002BBB
:108AE000FAD1A34E96F8B930032B2BD1A14DA24B4E
:108AF0002B60A24BD8F8001018684FF02009C5F879
:108B0000049001F0B9FC4A46002806F1BB01286830
:108B100014BF0A24012404F0D3F8002818BF052448
:108B20007B698BB1012B7FF4F1AE954B012C46D1C3
:108B300096F8A120032A38D8DFE802F0080E2B317E
:108B4000904CCBE70A24EBE78F4BEFE701229A60CA
:108B5000D6F88020BA6004E0A5229A60D6F8A42056
:108B60007A63BA6C5A60D8F800201A60002120227B
:108B70008648FFF7EDFCB222FF218548FFF7E8FCAD
:108B8000002384483B6301F007FE00287FF4BEAE5B
:108B900040E7AA229A60D6F88020FA60E1E7AC228A
:108BA0009A60D6F8A4207A63F5E722B1023A012A46
:108BB00003D80A24EFE70A24CAE70A24D1E70022EF
:108BC0009A605A60D1E7082424E7638A032B01BF27
:108BD000A27D637D43EA02236F4A11BF03215380C4
:108BE000138001210220E5E504238DF818306B4B3A
:108BF0001B78012B04D0022B08D005210320D9E5D6
:108C0000674BD86B196C01F01BFDC1E4644B186D08
:108C1000996CF8E7638A022B02D003210620C9E58C
:108C2000637D07930622012B8DF8182009D15B4A3A
:108C300013705A4B1B78012B07D0022B35D005211E
:108C4000ECE7022BF3D00721E8E7554B1A6CD96B00
:108C50004FF4807428884FF6FF7398423FF498AC25
:108C6000504B1B68DB077FF593AC4F4B240A602504
:108C70001C710C0A1D70D97106251C720C0C090E92
:108C80005D7099720125110A9D70DA7200251973C1
:108C9000110C120E59739A73DD705D719D715C72C7
:108CA0000F22B18900F034FA72E43D4B4FF4805446
:108CB0009A6C196DCEE703217CE500231A4619460C
:108CC000A08800F0B9FAB3E400231A461946A08838
:108CD00000F0A8FAACE4354BE2889B889A427FF416
:108CE00057AC0C22002106A8FFF732FC02238DF8B6
:108CF00018302A4BB4F810B01B78CDF820B004F12E
:108D0000120A012BCDF81CA0234C04D0022B4FD00B
:108D100000273E4607E0224DEE6BAB6B0BEB0602E5
:108D20009A4212D92F6C6388002B3FF431AC238810
:108D3000013B9BB22380002B7FF42AAC394630469E
:108D400001F07EFC6388238022E406F15C005A4631
:108D50005146284403F0C3FF0899EE6B07980E4470
:108D600005F14002EE6300F037FB07462864DAE7BE
:108D70005031002074350020683800200037002072
:108D8000C83500203C310020BC350020DC350020F7
:108D900000360020459F0700AC2C0020602C0020EE
:108DA000A43500207C35002080350020903500203F
:108DB000604B614D1B782E6DAF6C002BB3D0BBF5B3
:108DC000807FB0D86B6D6A6C0BEB0609A9EB0303CF
:108DD0009342A8D805F148025946504600F0FCFAE3
:108DE0000746A864E088C5F850900BEB0003FF2B02
:108DF00004F15008237936D800EB03205A46514637
:108E0000404403F06CFFE288089B1344E3804E4625
:108E1000E288002A87D06B6D286B696CD31A0344F3
:108E20008B4280D3454BDFF81C91D3F800E0D9F892
:108E30000030217901330332C9F800309210404BE1
:108E400008EB0121704402F06BFC002852D12B6B1F
:108E5000E28813442B632379013303F00303237166
:108E60000023E3805FE7C0F58076B6B200EB032015
:108E700032465146404403F032FF089BE288217994
:108E8000286B9B1B0893079B32441E4407962B4B71
:108E90002C4ED3F800E0336892B20133E280033203
:108EA00033609210264B08EB0121704402F038FC2D
:108EB000C0B92B6BE28813442B634E462079089A85
:108EC000013000F0030000232071E380002A9FD0CE
:108ED000079908EB002003F002FFE288089B134487
:108EE000E38095E73368EF6CAF64013B33606E6DF0
:108EF0002E65E3E7D9F80030EF6C6E6DAF64013B8F
:108F0000C9F800302E65A6E71721A08800F088F97F
:108F1000FFF78EBB95F8A130032B3FF6F7AC01A20B
:108F200052F823F023890700BB890700AB890700AB
:108F3000AB89070084340020A435002000370020CE
:108F4000E19A07003C310020A6DF70477DDF7047C3
:108F500073DF704772DF7047084B5A6E013A5A66EA
:108F600022B907490A7822F002020A701A6E013209
:108F7000042A08BF00221A66704700BFD8340020B8
:108F8000BC38002028DF704729DF704730B5044621
:108F900085B00D46102200216846FFF7D9FA237AE2
:108FA000012B0AD0022B11D0636801932368294654
:108FB0009B686846984705B030BD00238DF80030A7
:108FC00023690293A38AADF80C30EDE70123A2894F
:108FD0008DF80030E389ADF80A20D31AADF80830D7
:108FE000E2E738B51B4B5A6E1946002A31D01C6E89
:108FF000182202FB04331A7A012A06D0022A22D050
:1090000018460921BDE83840C0E71825D88A9A8A51
:1090100005FB0414121AE1682469B2F5806F4FEA67
:1090200080000144B4BF92B24FF480622044FFF745
:10903000ABFF11280BD1084A137823F0020343F049
:109040000403137038BD9889FFF79CFFF1E70028EF
:10905000D6D138BDD8340020BC38002038B5294AD4
:1090600013780146980741D5274A146E1820022923
:1090700000FB042004D003292CD0BDE83840B0E721
:10908000224B00211970037A012B0CD0022BF4D152
:109090008389028A01338381C38901339BB29A4257
:1090A000C381EAD111E0858AC38AE91AB1F5806FDC
:1090B000B4BF89B24FF480610B4418219BB201FB0D
:1090C00004229D42D382D8D10021FFF75FFFFFF732
:1090D00043FFD2E70D4A13780133DBB2032B01D8EB
:1090E0001370CAE7002313700821EEE75907C4D5AF
:1090F0000549496E03F0FB0313700029BDD043F00E
:109100000203EDE7BC380020D8340020FC300020FA
:1091100030B587B004460D46ADF806200021102278
:1091200002A8FFF715FA01238DF80A300DF10603A6
:10913000049302A9044BADF8085020460593FFF7AD
:1091400003FF07B030BD00BF8035002010B5314CA3
:10915000216811F002018AB05AD1102201A8FFF74C
:10916000F7F90B230122ADF8023002238DF81430F9
:109170008DF815208DF81830062259238DF8162009
:109180008DF819300322FE230DF102010DF11D00AF
:109190008DF817208DF81A30FFF7D8FE70BBBDF898
:1091A00002100B292CD84B1C8DF81B3009231944B5
:1091B0008DF81C3089B200231A46C9B205A8FFF702
:1091C000C9FED8B98DF8040002908DF80C00282350
:1091D000ADF8100001A8ADF80E30FFF7B9FE68B980
:1091E0004FF0A0434FF40032C3F80C254FF000625B
:1091F000C3F80825236843F0020323600AB010BDBA
:109200000C238DF81B3008238DF81C301421D2E775
:109210000020F3E77C35002067DF704763DF70478D
:10922000ADDF7047A9DF7047A8DF7047A5DF704743
:10923000A2DF7047A0DF704786DF70477FDF70478F
:109240007CDF704774DF70476DDF70476CDF7047FD
:109250002DE9F04F0022C9B04B780C781B0443EA8B
:109260000463CC7823438C7843EA042308AC0431AC
:10927000A3500432402AEFD1234638AD996B1E46E5
:109280004FEAF14282EA714282EA9122716A3668BB
:1092900053F8044F31440A444FEAB44181EAF411CF
:1092A00081EAD4010A449D42DA63E7D1036D009359
:1092B000436D0193836D0293C36D0393036E049317
:1092C000436E0593836E069304A991E80250C36E22
:1092D000DDF80C80029DDFF8AC9007939DE850000C
:1092E0009B4600274FEAF12383EAB11383EA716AB0
:1092F00059F827301A4608AB53F827301A4413465A
:1093000053442EEA010201EA0C0A82EA0A021A44D4
:109310004FEA743A85EA06035A448AEAB40A06EA2E
:10932000050B234083EA0B038AEAB45A01379A44B7
:10933000402F02EB0803F3465244A8461AD1009F7F
:109340001744019A076522444265029A32448265B5
:10935000039A2A44C265049A1A44059B02660B4488
:109360004366069B63448366079B7344C36649B0A8
:10937000BDE8F08FE64635468C462646194614462B
:10938000B0E700BF78CD070038B50C4C626E042AF8
:10939000054611D0236E1344032B02F1010288BF4E
:1093A000043B6266182202FB034400212046FFF7BB
:1093B000CFF82C60012038BD002038BDD834002003
:1093C000044A137813F0060F03D143F0020313701D
:1093D00007E67047BC38002030B53AB11368DB436C
:1093E0000A4D0144814204D1D84330BD4FF0FF33D0
:1093F000F6E710F8012B5340082213F0010418BFC0
:109400002C46013A84EA5303F7D1EBE72083B8ED09
:1094100010B5084B9A685AB150B9EFF3108272B682
:1094200005491C680C605C684C60986002B962B6C3
:10943000002010BD4035002000E100E073B502A817
:10944000002300F8063D00F041FF264B1B7803F097
:10945000FF04002B3FD1244B1A68002A3BD0234A3B
:10946000D2F80813C90736D51C601B68019302A8FF
:109470001F4D019BD2F8086500F8054D00F026FF4E
:10948000AA6869681F2A98BF541CA142AC6004D125
:10949000202C14BF611C002169602A449DF8030040
:1094A00016746A6894423ABFC2F121021319A31AD2
:1094B000EA689A4238BFEB60FFF7AAFFAB686A68B8
:1094C0001F2B94BF013300239A4201BF074A012397
:1094D000C2F8083353609DF80200FFF799FF02B00D
:1094E00070BD00BFD838002000D1004000D000403F
:1094F000FC30002010B50A494A788C78531CDBB246
:109500009C4208BF00230C789C421FBF0370486830
:1095100002EB420200EBC20008BF002010BD00BFFA
:109520004C35002038B50D4B0D4C4FF40032C3F8CC
:10953000802001254FF48033C4F84833C4F8083341
:10954000656000F0E9FE074BA56000241C6000F098
:10955000E3FE054B83F8314038BD00BF00E100E079
:109560000010014000330020FC3000202DE9F04FB6
:10957000B34AB44813780078B34985B09842D1F81B
:1095800000A0029137D00133DBB2022B08BF0023C9
:1095900013701378AD4A029902EB83035A6B0AEBFE
:1095A000020323F07F430B6001230193DFF8A4E261
:1095B000A749DEF800000390A4480B7890F83C809F
:1095C0000025F446AB464878984217D115B19F4B19
:1095D00083F83C80019B9F4C002B3CD00020074629
:1095E00086462568002D3DD02B68934240F2A0802E
:1095F0009A1A2A6036E000220192D7E703EB43046F
:10960000486891F8029000EBC407013310F8340069
:10961000DBB2994508BF002302280AD00328D2D123
:10962000DCF80000002488B9002CCCD0CEF8000073
:10963000C9E7DCF800907C6848464F460028C2D055
:10964000844200F00F810746C069F7E780F810B048
:109650000124C069E7E72368039A9B1A18BF012316
:1096600001930020794BD4F800E093F83CC0DFF878
:10967000F08100274FF0010900286FD10B784A785C
:109680009A4240F0858023689E4502D1019A002AC3
:1096900047D0002B00F0D080D3F800A06E4D029B85
:1096A000D5F804851C68694BA8EB040793F83130A2
:1096B00027F07F470337A3B94FF48033C5F844330D
:1096C000C5F80433654B4FF400324FF00109C3F87D
:1096D00080211A60C5F8009000F01EFE5B4B83F8F5
:1096E0003190BA452CBF5444E41924F07F44C5F8A6
:1096F0004045D5F80435A3EB080323F07F43A4EBE2
:109700000804033324F07F44A3420AD9D5F8043572
:10971000C5F8403500F000FE504B4FF40032C3F85E
:1097200000214A4A002382F83C3005B0BDE8F08FA2
:10973000D5F80CC0C5F800E0D21A1F44EB692360CD
:10974000BCF1000F3FF44DAF0AEB070323F07F435A
:10975000E8616B60C5F808C0284642E70346C06967
:10976000029AD3F804B01268D3F808A0ABEB020554
:1097700025F07F4545452FD855441D6022685F6020
:109780009F6083F81090DF61002A30D1236073E777
:1097900003EB430A91F802B04D680133DBB29B45FD
:1097A0000B7008BF087015F83A30012B05EBCA02A0
:1097B0007FF464AF53681D7C002D7FF45FAF966823
:1097C0005E60D6689E601669DE6052699A61BCF17F
:1097D000000FC5D05D60C3E7A2EB0B0222F07F4211
:1097E00052453ABFAAEB02021A601F60C6E71D6825
:1097F000D2F800A0554511D8AAEB05051560DA612D
:10980000C4E7A5EB0A05D2F81CA09346BAF1000FF5
:1098100010D11D60C3F81CA0D3612DE79346D2F888
:1098200000A0AA45EDD3AAEB050AC2F800A0924613
:109830005A46EEE75246F2E7FFF774FE71E700BFC3
:10984000FC320020FD32002000330020FC300020DC
:109850004C350020F83200200010014000E100E00B
:10986000FEFF7F00BC420BD1D9F81C00CCF80000F1
:1098700030B9084D0126AE60029DB04628603546DD
:109880002068E469FC61002C3FF49DAE27683844F1
:10989000206098E6001001402DE9F743064602A833
:1098A000002400F8014D0D46174600F00FFD234B34
:1098B000234A18781178CBB2224909888B4238BFE5
:1098C0000133C0B238BFDCB2A0422ED01478137876
:1098D000DBB2994286BF0133DBB2002313709DF8DF
:1098E0000700FFF795FD4FF6FF739C4223D0DFF88A
:1098F0006090D9F800304FEAC40803EB080243F83F
:109900003470AEB1A5B1104B1888104B1B682A46B5
:1099100004FB0030314603F0E2F9D9F8003043444B
:1099200000209D8003B0BDE8F0834FF6FF74D6E7BA
:1099300000209080F6E70420F4E700BF7D3400208B
:109940007C3400207E340020E03800207834002071
:109950002433002007B5084B1B88072B8DE8030034
:1099600007D9064A08216846FFF796FF03B05DF85D
:1099700004FB0920FAE700BFE0380020EB9907005C
:10998000F8B5124C124D264622782B789A4200D117
:10999000F8BD23780F48104A078812680F48DBB2D9
:1099A00019B202EBC10E006852F83120BEF8041063
:1099B00003FB070090470A4A23781288DBB29A42D9
:1099C00086BF0133DBB200233370DDE77D34002036
:1099D0007C340020E038002024330020783400203C
:1099E0007E34002008B501F035FF082910B501D0FC
:1099F00001F030FF03684068BDE8104018472DE9CA
:109A0000F0412649264B0025C1F84051C1F8445188
:109A1000C1F84851C1F84C51C1F80051C1F8045186
:109A20001B68002B38D0D1F804451E49DFF8888028
:109A30000968641A24F07F442F461A68A24215D898
:109A4000A41A15441A7CDE6972B1D8F800201F747C
:109A50003AB199695869904730B101F0FBFE33463D
:109A6000EBE75A6998699047002EF8D10E4B0F4AE0
:109A7000197813788B4205D10133DBB2022B08BF72
:109A80000023137012780A4B03EB82034FF4801209
:109A90005D63084BC3F80021BDE8F0810010014070
:109AA000F832002000330020FC320020FD3200207C
:109AB000FC30002000E100E07C3200205B689A6806
:109AC000054B9A4206D14268836804490132013B42
:109AD0000A604B60704700BF78CE070074350020E5
:109AE000024A1368013B1360704700BF3C310020FD
:109AF00010B5144C23685A0722D443F004031248CB
:109B0000236001F015FD114B18884FF6FF73984242
:109B100004D0132101F08CFC80B110BD23689B0799
:109B20000CD5FFF78FFB60B94FF0A0434FF4003224
:109B3000C3F80825236843F00203236000F06AFCA1
:109B4000002010BD7C350020C0D40100682C00200E
:109B500075DF704770B50D4B0D4C9A6B0D4D0E496E
:109B600061605C33A3600D4B236104F114060C4B60
:109B7000E2603146002228461A605A6001F07FF9FF
:109B800032462946201D01F0ABF870BDA4350020F7
:109B90003C310020F0CE070075AF0700BD9A0700EA
:109BA000743500202DE9F04F4FF0A0430322C3F895
:109BB0004427C3F86C274FF40032C3F8082595B04A
:109BC0004FF00062C3F8082501238DF81030002300
:109BD0008DF811308DF8123007238DF8133001F015
:109BE000EFFC0446002876D1BA4801F0A4FE0446F2
:109BF000002870D1B84BB94A1A60B94B50221A806C
:109C0000B84BB94A1A60B94B1C68C4F340341CB154
:109C10004FF40052C3F88020B54904A801F0B2FE09
:109C2000B24B28B114B14FF400521A6001F012FE89
:109C3000B04A0121117093F81623C2F341128A42EF
:109C4000F4D9AD4A9168002949D0136843F48003E0
:109C500013601C2200210DA8FEF77AFC9DF8483005
:109C6000002262F300038DF848301723ADF844302A
:109C7000A24B019314AD019B45F8303D01262946C6
:109C80000DA8ADF8346013928DF83C608DF83D60FE
:109C90008DF83E6001F074FE019B0446D8B9984BE4
:109CA000984A1A609DF810300D9466F3030366F32A
:109CB000071328460E948DF81030FFF7C5FA0446B6
:109CC00048B99DF82130284601338DF82130FFF73F
:109CD000BDFA044638B1204615B0BDE8F08F4FF408
:109CE00080021A60B5E7884803F004F8864982B21A
:109CF00004A8FFF7A5FA04460028ECD10C23ADF820
:109D000034301823ADF836300DA84FF4C873ADF8D1
:109D10003840ADF83A3001F089FB04460028DAD12A
:109D20007A4B8DF80A604FF6FF7214A91A804FF62D
:109D3000596321F8483D764A3046FFF77BFA0446DE
:109D40000028C8D1734B04AC03F110061868596899
:109D5000224603C20833B3421446F7D1DFF8E0814C
:109D600004A84146FFF75AFA04460028B3D1014639
:109D70001C224FF0140B0DA8FEF7EAFB21465A46B1
:109D80002846FEF7E5FB9DF83430ADF80040C246AA
:109D900043F004038DF834301AF802398DF80E3090
:109DA00002230126ADF80C30230AA14666F3030313
:109DB00066F3420466F30713E4B28DF801303443CE
:109DC00003AF08F102032A460DA938F8020C8DF8FA
:109DD00002400897CDF824D0ADF82CB0FFF728FA50
:109DE000044600287FF477AF01461C220DA8FEF739
:109DF000AFFB21465A462846FEF7AAFB9DF83430B1
:109E0000ADF8004043F018038DF834309AF8023072
:109E10008DF80E304B4666F34203DBB243F011037C
:109E2000240A8DF8023066F30304172366F307143F
:109E3000ADF82C302A4608F10A030DA938F8020CB7
:109E40008DF80140ADF80C600897CDF824D0FFF7ED
:109E5000EFF9044600287FF43EAF2F4A2F4C1368D9
:109E60003343136001461C220DA8FEF771FB40F638
:109E7000CD430E934FF480430F9303238DF840306E
:109E8000274B13930DAD0FCD0FC495E80700254B5D
:109E900084E80700244883F8009001F0C5FA0446DE
:109EA00000287FF418AF214B4FF6FF721A80204B29
:109EB00083F800901F4B5B6853B11F4B1A7C3AB973
:109EC0001E4A83F811905A61FFF740F9044602E7F1
:109ED000082400E700800700D438002088340020E0
:109EE000D2380020DC38002023B5070000E100E074
:109EF00031B90700D838002040350020002C002060
:109F0000CC38002065850700C4CF0700682C0020EE
:109F10009035002014CF07007C35002098380020B1
:109F2000E5990700B538002090380020B6380020A9
:109F3000B43800204C3500205435002035B40700DB
:109F40009235002008B5084E084CA41BE4080025F3
:109F5000AC4204D006EBC5035B68984708B101F03A
:109F600079FC0135F4E700BF882C0020902C0020FC
:109F70002DE9FF474FF0A0430322C3F85827B94CFF
:109F8000B9494FF48002C3F80825B84B00264FF4B6
:109F9000AE7220461E7002F0A2FE25686B1C06D031
:109FA00032465821201DFFF717FA85420DD04FF495
:109FB000AE720021AB48FEF7CBFA012300206360AC
:109FC00000F0EAFB08B101F045FC43F208031F680A
:109FD0002369012B13D063698BB1A569A44E05F6E3
:109FE000FF7525F47F6525F00F053D44B368A52B6B
:109FF00000F0F48006D8012B13D0002665E03D4622
:10A000009C4EF3E7AA2B00F0F880AC2BF5D1284644
:10A0100000F012FC002857D13146284600F05AFCC7
:10A02000E9E06369012BE8D1266BD4F8249037442A
:10A030004FF0030AA9EB0606B6F5805F4FF0000269
:10A040004FF001013846B04628BF4FF4805801F068
:10A05000C5FA0346002837D142462946384601F062
:10A060005FFB88BB4FEA98036846CDF800A00197D4
:10A070000295039301F0A2FA024628BB012128466B
:10A0800001F0ACFA00BB236B4344236300F084FB74
:10A09000B6EB080647444544CED143F208033246A6
:10A0A00018684946FFF798F9A36A984204BF01234C
:10A0B000E0616F4804BF2362C4F8189000F05AFBB7
:10A0C000002000F069FB00B101264FF08043D3F877
:10A0D0001C25002A40F097800122C3F81C25FFF7B9
:10A0E00021FA654D654A664BC5F8403105210023CC
:10A0F000917005F5A271137053705160614AC5F8F3
:10A10000BC314FF48010E02685F8C03185F8C131AC
:10A11000C2F8800182F81463106000F18040A0F55D
:10A120006F20C0F8083582F81163D0F80435C5F8FF
:10A13000C43100293FF447AF95F8D831002B7FF4A4
:10A1400042AF012385F8D9314F4BC5F8DC314FF4CC
:10A15000004105F5E47000F025F900287FF433AFE5
:10A1600005F5F673C5F8E83105F52573C5F83C33F8
:10A17000464B474F85F8400308221A801423A5F860
:10A180004233444B85F84103FF1AFF0806469846C0
:10A19000B74257D1404A137843F0010313703F4B45
:10A1A0003F4A1A603F4B04221A6000232B60A36BC6
:10A1B0008BB1FFF7CFFC70B1236A002B4AD1A369A2
:10A1C000002B47D0C5F84433D5F8440300F074FAA7
:10A1D000012385F84833FFF7D3FBFCE7284600F05E
:10A1E0002BFB054600287FF46FAF304600F0C2FA23
:10A1F000284600F0D1FA012665E73146284600F0EE
:10A2000069FB00265FE70022C3F81C25002E7FF4BF
:10A2100066AF00F095FA00283FF461AF43F20804FE
:10A22000256801F0CDF910B9284601F086FB2468B5
:10A2300001F0C6F910B9204601F07FFB002004B000
:10A24000BDE8F08758F83630984700287FF4BBAE59
:10A2500001369DE7E36A002BBDD1A369002BBAD07C
:10A26000636AAFE7A435002000F007000437002040
:10A27000C8350020BC3500203C3100204C35002082
:10A280005599070000E100E079B80700E0380020A8
:10A29000902C0020882C0020BC380020C8380020DA
:10A2A0005D900700B838002038B5064C064D636E47
:10A2B000042B00D038BD284601F03AF9FFF760FBC7
:10A2C000F5E700BFD8340020A086010070B5EFF399
:10A2D000108672B60D4A146F0123A4B913670C4B94
:10A2E0000C4DD3F8801029409166C3F88050D3F804
:10A2F0008410D1664FF0FF32C3F88420047006B991
:10A3000062B6002070BD0370F9E700BFD8340020AA
:10A3100000E100E0FC06FFBC204B21491A682F2316
:10A3200000BF00BF00BF00BF00BF00BF00BF00BF35
:10A330008A422FD000BF00BF00BF00BF00BF00BFD8
:10A3400000BF00BF00BF00BF00BF00BF00BF00BF15
:10A3500000BF00BF00BF00BF00BF00BF00BF00BF05
:10A3600000BF00BF00BF00BF00BF00BF00BF00BFF5
:10A3700000BF00BF00BF00BF00BF00BF00BF00BFE5
:10A3800000BF00BF00BF00BF00BF00BF00BF00BFD5
:10A3900000BF00BF013BC3D1704700BF642C002049
:10A3A0000024F400F7B50646437C02A80024012BE4
:10A3B00000F8014D0CBF0F4627460D46FFF786FFFC
:10A3C0000DF10600FFF796F8D8B1012303700E4B8C
:10A3D0004660D3F8043583600C4B9DF80620C560B9
:10A3E0000761446183F875209DF80700FFF710F8B6
:10A3F00024B9074B4FF48012C3F80021204603B064
:10A40000F0BD0424F0E700BF00100140D834002064
:10A4100000E100E037B5164DAB6F3BB3D5F8903097
:10A4200023B302A8002400F8014D85F88C40FFF703
:10A430004DFF0DF10600FFF75DF8A8B10223037090
:10A4400005F17C0343609DF8063085F875309DF872
:10A450000700FEF7DDFF24B9064B4FF48012C3F866
:10A460000021204603B030BD0424F0E70824F8E7BB
:10A47000D834002000E100E070B59CB000231093B8
:10A4800000220023CDE91223534B1493534B159311
:10A49000534B1693534B1793534B1893534B19939A
:10A4A000534B1A9303F17453A3F52303A3F692437A
:10A4B0001B9300295FD1044645180026AC425FD1AA
:10A4C0004C4CD4F89C50002D57D0109B1CAA1A4419
:10A4D0008021372B03F1010302F8701C6E466B4498
:10A4E0004FF000016AD89A1B382A62D1DDE91223A5
:10A4F00010980821E1FB002322FA01F1CDE9122393
:10A500008DF83F208DF83E10110C120E8DF83C2076
:10A510001A0A8DF83D108DF83B308DF83A203146FF
:10A520001A0C30461B0E8DF839208DF83830FEF7A6
:10A530008FFE6A1E00231B99D94002F8011F1A9949
:10A54000D94011711999D94011721899D9401173D4
:10A550001799D94011741699D94011751599D94098
:10A5600011761499D9400833202B1177E3D1C4F820
:10A57000A030002002E000289DD10E201CB070BD4C
:10A58000109B14F8011B1CAA1A440133402B02F83B
:10A59000701C109392D169466846FEF759FEDDE9BA
:10A5A000122312F5007243F10003CDE91223109635
:10A5B00084E703F8011B96E703F8011B9A1B3F2A67
:10A5C000FAD931463046FEF743FE382200213046A4
:10A5D000FDF7BEFF8AE700BF67E6096A85AE67BB85
:10A5E00072F36E3C3AF54FA57F520E518C68059B75
:10A5F000ABD9831FD834002010B40F4B0246988883
:10A600004FF6FF73984212D00C4BD3F8A440E407E6
:10A610000DD5602483F8A92083F8AA1083F8A840F8
:10A620000322B3F8C4105DF8044BFEF771BD082097
:10A630005DF8044B704700BF642C0020D834002024
:10A6400010B41B4B024698884FF6FF7398422AD0ED
:10A65000184BD3F8A440E40725D5602483F8A8401C
:10A66000032483F8A940012483F8AA40140A83F83C
:10A67000AB2083F8AC40140C120E83F8AE200A0A0B
:10A6800083F8AF1083F8B0200A0C090E83F8B120CC
:10A6900083F8B21083F8AD400B22B3F8C4105DF814
:10A6A000044BFEF735BD08205DF8044B704700BF32
:10A6B000642C0020D834002038B543F20803054646
:10A6C00019681D4B1A68A2F54052521A824231D3C2
:10A6D0001A48D0F8EC40C0F82812012C24D1D0F848
:10A6E000E43003F6FF7323F47F6323F00F03D21AE1
:10A6F00095424FF0000206D9C0F8DC40C0F8E020D7
:10A7000000F1E40408E00B44C0F8E040C0F8DC20AD
:10A71000C0F8283200F1F0040C2200212046FDF799
:10A7200017FF2560002038BD0023C0F8DC30C0F8DA
:10A73000E030E5E7042038BD14100010D8340020C4
:10A7400010B50B4BD3F8EC0001280ED1D3F8E8403C
:10A7500064B1D3F8E41043F2080300221868FEF74E
:10A760003BFE231A5842584110BD002010BD00BFC7
:10A77000D834002008B50C220021FDF7E9FE054B76
:10A780000022C3F8FC20C3F80021C3F8DC20C3F882
:10A79000E02008BDD8340020F8B5204C204F0646F4
:10A7A000254694F82C32ABB9012384F82C32C4F836
:10A7B00030621C4CFFF778FD00220121204600F09A
:10A7C0000DFF07280246F5D050B1002385F82C3242
:10A7D0000320F8BD384600F0ABFEFFF7D1F8E0E704
:10A7E00058211148114F124E0E4CFEF7F5FD11493C
:10A7F000C5F8CC004FF4AE7201F5B47002F06FFAF8
:10A80000FFF752FD3B4657223146204600F088FFB5
:10A810000728F5D00028D8D1F8BD00BFD8340020D3
:10A82000A086010000F00700A835002099B40700B9
:10A830000C370020A43500202DE9F04F234E244989
:10A84000D6F80021D6F8FC3002F6FF74E41A0C406A
:10A85000A50805F6FF7585B003F580570D4003EB9D
:10A86000000872BB4FEA95094FF0010A4FF0030B45
:10A870006846CDF800A0CDF804800297CDF80C9082
:10A8800000F09CFED0B96846CDF800B00197CDF835
:10A890000880CDF80C9000F091FE78B9A542D6F86A
:10A8A00000318CBF0446641B1B1B00202F44A844AE
:10A8B000C6F8FC30FFF770FF002CD9D105B0BDE819
:10A8C000F08F9342CED10020F8E700BFD8340020AB
:10A8D00000F0FFFFF0B5134B0C68D3F8003185B0E2
:10A8E0001D18E41A03230093A4080F4B0193684634
:10A8F0000F460295039400F061FE064638B93846CB
:10A90000FFF738FF3046FFF747FF05B0F0BD1022D4
:10A9100000216846FDF71CFE68460195029400F090
:10A920004DFEF2E7D83400200080070013B514462E
:10A930006946082200F0CDFB18B1DDE90023C4E927
:10A94000002302B010BD13B5144604220DEB020122
:10A9500000F0BFFB08B1019B236002B010BD73B5CE
:10A960000D4601A90646144600F060FB88B1019A25
:10A97000511C10D26B7803F0C003802B0BD02B79C5
:10A98000994208D82146304600F0A3FB019B0022E3
:10A99000E25402B070BD0020FBE773B50D4601A97B
:10A9A0000646144600F042FB90B1019AFF2A11D8E6
:10A9B000511C0FD26B7803F0C003802B0AD02B7987
:10A9C000994207D82146304601F8012B00F081FB5F
:10A9D00002B070BD0020FBE7F7B50F46694616468A
:10A9E00000F0F3FA80B1DDE90045002304F0010234
:10A9F0006D084FEA3404134301D0E443ED433B793F
:10AA0000082B03D1C6E9004503B0F0BD042B08D1E3
:10AA100034602246D317AB4206BFA2420120002079
:10AA2000F2E7022B03D123B233801AB2F2E7012BF3
:10AA300003D163B233705AB2ECE70020E4E737B5D4
:10AA40000D466946144600F0C0FA68B12B79082B10
:10AA50000CD1DDE90001C4E90001DDE900238B42EE
:10AA600006BF82420120002003B030BD042B04D178
:10AA7000DDE9000120600021EFE7022B03D10098FF
:10AA8000208080B2F7E7012B05D1DDE900012070BD
:10AA900000F0FF00EFE70020E6E737B50D46694616
:10AAA000144600F092FA30B12A79082A05D1DDE97E
:10AAB0000023C4E9002303B030BD009B042A1846DC
:10AAC0004FEAE37108D123601A460B468B4206BF5A
:10AAD000824201200020EEE7022A04D11BB223802B
:10AAE0001AB2D317F2E7012A03D15BB223705AB22C
:10AAF000F7E70020DFE708B500F066FF10B1674B0D
:10AB0000674A1A6000F040FF28B1664B664A1B682E
:10AB1000C3F34233136000F057FF20B1634AD36898
:10AB200023F08073D36000F02FFF40B14FF08043DB
:10AB30000022C3F80C21C3F81021C3F8382500F017
:10AB400043FF10B15A4B03221A6000F03DFF40B1A1
:10AB5000584B05221A6001229A6700229A603F2210
:10AB60005A60554B1B78062B09D1544B1B681B07A9
:10AB700005D1534B1B6803F0F003502B46D000F077
:10AB800003FF28B14F4B504A1B6803F04F0313607B
:10AB90004E4AD2F8883043F47003C2F88830BFF3CD
:10ABA0004F8FBFF36F8F4FF01023D3F80022002A8E
:10ABB00003DBD3F80432002B24DA454B0122C3F81F
:10ABC0000425D3F80024002AFBD04FF010221521D1
:10ABD000C2F80012D3F80024002AFBD04FF0102353
:10ABE0001522C3F804223A4B1A46D3F80014002960
:10ABF000FBD00021C3F80415D2F80034002BFBD0A1
:10AC000000F028FE334B344A1A6008BD4FF08052E2
:10AC1000324BD2F80414C3F82015D2F80814C3F844
:10AC20002415D2F80C14C3F82815D2F81014C3F860
:10AC30002C15D2F81414C3F83015D2F81814C3F830
:10AC40003415D2F81C14C3F84015D2F82014C3F8F8
:10AC50004415D2F82414C3F84815D2F82814C3F8C0
:10AC60004C15D2F82C14C3F85015D2F83014C3F890
:10AC70005415D2F83414C3F86015D2F83814C3F858
:10AC80006415D2F83C14C3F86815D2F84014C3F820
:10AC90006C15D2F84424C3F8702570E774C00740DF
:10ACA0000DF0ADBA440200103C050040F0ED00E0AC
:10ACB000A005004010560040E00F00F0E40F00F047
:10ACC000E80F00F058020010E40E004000ED00E034
:10ACD00000E00140642C00200090D00300C0004040
:10ACE0002DE9F04F91B08B7807921A4491F9033017
:10ACF000089200251A440446029503950491059193
:10AD00000695099201954FF0010BA36823BB059BA3
:10AD1000069C5D7804A800F001FB0028F7D115F02F
:10AD2000300F03D1059B1B7803B1013494B1620944
:10AD3000002393426CD110AA02EB830304F01F049A
:10AD4000C4F120044FF0FF3253F8383C22FA04F4E7
:10AD5000A3420AD1012009E00AA9204600F066F9C1
:10AD6000824630B9A368002BD1D0002011B0BDE8D5
:10AD7000F08F0A9E002ECAD0059F4FEAD60806F033
:10AD80000706059B1A78904504D15B7803F00F0203
:10AD9000082A44D104A800F0C1FA059B9F42F0D1D3
:10ADA000019B43450ED8059A537803F00F03082BF7
:10ADB00055D004A800F0B2FA059B9F42F3D14FF0A2
:10ADC000FF3301933146204600F0B0F900289CD1B2
:10ADD000CBE73B681A68154642B1334642463946CE
:10ADE0002046A8470028C0D0BF6840E09B681B7879
:10ADF00098450BD139460AA800F0CAF887F80CB07C
:10AE00000AAA3146204600F0B7F9EBE75046E9E7D9
:10AE100002A951F823100131A7D1013389E713F0BA
:10AE2000300F0FD1069B3F2B0CD85A0910A901EB0C
:10AE3000820203F01F0352F8381C0BFA03F30B4392
:10AE400042F8383CE76827B104AB32464146204619
:10AE5000B84704AA3146204600F08EF9B6E71378C9
:10AE600001934345AED8089BD4F808901F68A368A7
:10AE70000FB19945ADD099457FF447AFA2E77FB5B3
:10AE80000023029383780391194490F903300491CD
:10AE9000194403780090019005913BB1684600F099
:10AEA00026F8684600F03AFA0028F7D107B05DF8B6
:10AEB00004FBF0B585B00E468C686946074615461A
:10AEC00000F0EFF888B1B06878B1737803F0300320
:10AED000202B03D129462046FFF7D1FF2A462146E1
:10AEE0006846FFF7FDFE019B7B6005B0F0BD30B505
:10AEF00043685B7803F00F02082A87B00FD103691B
:10AF00001C6800250CB907B030BD21462573684682
:10AF100000F03EF86846FFF7EAFFA468F2E713F096
:10AF2000C0021FD103F0300110290CD143691A70FF
:10AF300043685A7802F00F02072A09D1016998681C
:10AF4000FFF79DFFDFE79906F2D543691A70DAE74C
:10AF500099681A79006911B101F0C1FED3E7FDF7D4
:10AF6000F7FAD0E7802ACED1016900229B060A6059
:10AF7000C9D5EAE743681A44426011B101399342E6
:10AF800001D10120704713F8010B01F8010FF6E71A
:10AF900010B50B6800249A684B68C3600260426079
:10AFA000846094782344036192F90340234443610D
:10AFB0004B68036101F10C034361537803F0C00354
:10AFC000802B04BF0431016110BD2DE9F347044615
:10AFD0000F464FF000084FF000090025A36803B3A7
:10AFE000236801220DF10701204698470646C0B1AB
:10AFF000A3689DF807A0013B2A46A3600AF07F00E2
:10B00000002101F07FFE1AF0800F48EA000849EAAB
:10B01000010905F1070502D1C7E9008902E0462DC3
:10B02000DCD10026304602B0BDE8F0872DE9F341BF
:10B0300083680446884623B90027384602B0BDE835
:10B04000F081036801220DF10701984707460028A7
:10B05000F2D0A3689DF80750013B2A06A3601AD5D9
:10B0600005F07F050726A368002BE5D023680122A1
:10B070000DF10701204698470028DDD0A3689DF810
:10B080000720013BA36002F07F03B3401D4313067A
:10B0900006F1070602D4C8F80050CEE7232EE2D10D
:10B0A000CAE773B50D4601A90446FFF7BFFF064680
:10B0B00018B90026304602B070BD94E80F0085E84C
:10B0C0000F0001998A42F4D3A960A3685B1AA360B8
:10B0D000F0E730B5044685B01546A9B90268124BB1
:10B0E0009A4211D0102D06D82A4669462046FFF70D
:10B0F000F0FF05B030BD102269462046FFF7E9FF9A
:10B100000028F6D0103DEDE7A3689D4201D900204C
:10B11000EFE723682A46204698470028F7D0A3681F
:10B120005D1BA560E5E700BF75AF070013B50446DA
:10B1300005291FD8DFE801F0030F151E1E1C012290
:10B1400001A92046FFF7C5FF18B19DF90430002B77
:10B15000F5DB02B010BD082200212046FFF7B9FF41
:10B16000F7E701A9FFF762FF0028F2D0019AF3E7A1
:10B170000422F1E70020ECE72DE9F04355686B78F5
:10B1800013F0C00C89B006468E46144604D0BCF1BC
:10B19000400F6AD0002546E003F00F025D4903F03E
:10B1A0003003102B51F822701DD006D8002BF1D19E
:10B1B00022692946B847054635E0202B19D0302BA7
:10B1C000E8D1636929781970072A0AD16368206970
:10B1D0001A796146FDF7BCF9636821699868FFF741
:10B1E0004EFE22693EE0636901221A70226961689D
:10B1F000E0E7BEF1020FD4F8148027D1042A25D845
:10B2000004A9FFF74EFF05460028C3D0069B2BB1CB
:10B21000616898F800304A799A4208D8059B7360B3
:10B22000069B002BB6D1284609B0BDE8F08308790B
:10B23000226900FB032204A8B84728B198F800301F
:10B24000013388F80030E1E70546E7E798F8003079
:10B250006A799A429ED922692979581C88F8000097
:10B2600001FB032261683046A4E717693B6807F1D8
:10B27000040913B9FFF75AFF9DE7022913D104A966
:10B28000FFF70FFF002885D03B6861684A4604A895
:10B290009847054600283FF47DAF069B002BF3D16D
:10B2A000059B7360BFE701292AD009D305297FF4E4
:10B2B00071AF04220DEB0201FFF70BFF042524E020
:10B2C00000250DF1040801350B2D3FF463AF012279
:10B2D00041463046FFF7FDFE00283FF45BAF18F90A
:10B2E000013B002BEFDB0C4B049301AB05930023D8
:10B2F000069507933B6861684A4604A898475AE751
:10B30000082201A9FFF7E5FE082500283FF442AF17
:10B31000E9E700BFCCCF070075AF070010B5436861
:10B320001A787AB103F10C0242601A7B62B90168A3
:10B33000416082608C78C3682344036191F90310F3
:10B340000B444361104610BD59781A7901F030045E
:10B35000302C1BD15C7B04F03004302C16D1997852
:10B360000269521A02610022597811F0300F02BFAF
:10B37000816801318160997B114402690A4402614C
:10B3800093F90F301A444261012010BD01F0F0041E
:10B39000202C03D1597911FB02F2E5E701F0C0013D
:10B3A000802908BF0422DFE713B51C4C638822897B
:10B3B0009A4212D862899A420FD3636A43B302A8B1
:10B3C000012203E0636A1BB302A8002200F8042DE7
:10B3D0001DE0072019E0082017E094F82D30002B1D
:10B3E000F0D1A369616994F82C20002A18BF19468E
:10B3F0000B4B5B68002BEED00429EAD9094843695E
:10B40000002BE8D0FEF7CEFF10B1A36A03B1984736
:10B41000002384F82D3002B010BD00BF8838002012
:10B420004C350020543500207BDF70477ADF7047B1
:10B4300076DF704737B5174CE08D4FF6FF739842B3
:10B44000254610D094F82C30227F0133DBB29A428B
:10B4500084F82C3009D304F10801FEF779FB10B110
:10B46000A36A03B1984703B030BD002384F82C30A1
:10B4700094F8203033B13B21FFF7DAFF10B1A36A13
:10B4800003B198476B6A002BEDD002A8002200F8A8
:10B49000042DE7E78838002009B9034B1970034BE6
:10B4A0001B6803B118477047043700200837002095
:10B4B00010B40A4A136823F0010439B923F00303D6
:10B4C0001360436833B15DF8044B184744F002043D
:10B4D0001460F6E75DF8044B704700BFB8380020F1
:10B4E000F0B50346186880F308885868FF2464B2F2
:10B4F000EFF30585002D01D1A646004725460646F7
:10B5000021273FBAF0B40024002500260027F0B41C
:10B51000F92040B2004700BFF0BD61DF704748DF4F
:10B5200070470021014A0846FEF7B6B915B9070071
:10B5300000283ED01F4B204A1B6800BF00BF00BF41
:10B5400000BF00BF00BF00BF00BF93422FD000BFAD
:10B5500000BF00BF00BF00BF00BF00BF00BF00BFF3
:10B5600000BF00BF00BF00BF00BF00BF00BF00BFE3
:10B5700000BF00BF00BF00BF00BF00BF00BF00BFD3
:10B5800000BF00BF00BF00BF00BF00BF00BF00BFC3
:10B5900000BF00BF00BF00BF00BF00BF00BF00BFB3
:10B5A00000BF00BF00BF00BF00BF00BF00BF013829
:10B5B000C3D17047642C00200024F40018DF7047CA
:10B5C0001FB5102200216846FCF7C2FF022368461F
:10B5D0000093FFF7F3FF05B05DF804FB2DE9FF4191
:10B5E0004A4E336805465807144642D59A077CD41C
:10B5F00043F0010333603379DB0734D5444B454ACC
:10B6000093421F4602D3444A934272D302202BE056
:10B61000C5F30B03002B70D13B689D426FD38BB2F7
:10B620007A6805EB03339A4269D31FFA81F8B8F1BF
:10B63000000F66D06846FDF7A7FE002863D0009B88
:10B640005C601F60009B02222D0B1A729D81A3F883
:10B650001080FDF7B5FE336843F00103336000202E
:10B6600004B0BDE8F0810120336823F001033360AA
:10B67000F6E7C5F30B03002B39D1DFF8A0E0C5F3E3
:10B680000F370E4628464FF0020C7246CEF804C51E
:10B69000D2F80084B8F1000FFAD0C2F80805D2F849
:10B6A0000084B8F1000FFAD0C2F80435DEF8008447
:10B6B000B8F1000FFAD0013E00F58050E6D105EB5D
:10B6C0000135002CCBD0314610226846FCF740FFF4
:10B6D0002D0B0123314668468DF800300194ADF8FA
:10B6E0000870ADF80A50A047B9E70A20B8E706206D
:10B6F000B6E7002D8CD10320B6E70620B4E705207D
:10B70000B2E70420B0E70720AEE700BFB83800205A
:10B71000782C0020782C0020882C002000E00140AC
:10B720002DE9F0430E4646491C460B6813F0040F02
:10B7300085B00546884640D09F0772D443F0010388
:10B740000B600B79D8076ED53E4B3F498B421F46A5
:10B7500002D33E498B426AD302206CE046EA0503DD
:10B76000990701D0062066E03B689D425DD393B205
:10B77000796805EB8303994257D31FFA82F9B9F12F
:10B78000000F01D1042056E06846FDF7FDFD0028BA
:10B7900054D0009B5C601F60009B01221A72DE6027
:10B7A0001D61A3F81490FDF70BFED8F8003043F0AC
:10B7B0000103C8F8003000203DE0002E3AD00028F8
:10B7C00038D046EA00039B07CCD1002ADAD0204BC0
:10B7D0000121C3F80415D3F800140029FBD01C4B39
:10B7E0000021184656F8217045F82170D3F80074EE
:10B7F000002FFBD001318A42F4D10022C3F8042586
:10B80000D0F80034002BFBD00026002CD3D0ADF8AC
:10B810000C10684631468DF8006001940295A047EF
:10B82000C9E70A2007E0012005E0052003E00EB18A
:10B83000002D93D1032005B0BDE8F0830720FAE77F
:10B84000B8380020782C0020782C0020882C00208C
:10B8500000E00140BFF34F8F0549064BCA6802F470
:10B86000E0621343CB60BFF34F8F00BFFDE700BF23
:10B8700000ED00E00400FA0508B5064B9A68002ABE
:10B8800006DD1A7B0AB9FFF7E5FF00229A6008BDC2
:10B890000132FBE7B838002073B51D4C2669656995
:10B8A000B6FA86F6B5FA85F576096D09FEB12DB1C1
:10B8B00002B070BD236901989847B5B9237E03F0A3
:10B8C000FF05002BF4D1638BADF80230E3690DF175
:10B8D00002011846FFF721FE052804D088B96269E5
:10B8E00018469047E2E7002EE2D101250026237E8C
:10B8F000002BDDD101A8FFF712FE052803D0002898
:10B90000D8D0FFF7A7FF002DD2D10126D6E700BF80
:10B91000B838002008B509B1FFF79CFF034B93F836
:10B92000203013B1BDE80840B6E708BDB8380020A4
:10B9300008B5FFF78FFF13DF7047074A4FF0FF315D
:10B9400008B5C2F880100346FFF7F5FF18B918468E
:10B95000BDE80840C4E508BD00E100E008B5074BBC
:10B960005A6A1AB1904738B1FFF774FF93F8203044
:10B9700013B1BDE808408FE708BD00BFB83800200C
:10B9800060DF704710DF70470C4B1B78062B10D11F
:10B990000B4B1B681A070CD10A4B186800F0F00318
:10B9A000302B08D000F0E000A0F14003584258418D
:10B9B0007047002070470120704700BFE00F00F083
:10B9C000E40F00F0E80F00F0094B1B78062B0CD1B8
:10B9D000084B1B681A0708D1074B186800F0F000E5
:10B9E000A0F130035842584170470020704700BF13
:10B9F000E00F00F0E40F00F0E80F00F00649074AFE
:10BA0000074B9B1A03DD043BC858D050FBDCFFF703
:10BA100072F8FCF72BFD0000ACD00700002C0020D2
:10BA2000902C0020FEE7FEE7FEE7FEE7FEE7FEE7DC
:10BA3000FEE7FEE7FEE7FEE71AB1013A8B5C8354AE
:10BA4000FAE7704710B5013AD2B253B2002B09DBC6
:10BA50001BB250F8234051F823309C4204D8F2D254
:10BA6000FF2002E0002000E0012040B210BD0000F5
:10BA7000C3F10803DB0070B501330446002003A5C1
:10BA80005B1920C940CAAD1920C4184720C940CA53
:10BA9000754120C420C940CA754120C420C940CA8C
:10BAA000754120C420C940CA754120C420C940CA7C
:10BAB000754120C420C940CA754120C420C940CA6C
:10BAC000754120C4404170BD00000000000000002E
:10BAD000C3F10803DB0070B50133002403A500BFE8
:10BAE0005B1920C940CAAD1B20C0184720C940CAF5
:10BAF000B54120C020C940CAB54120C020C940CAB4
:10BB0000B54120C020C940CAB54120C020C940CAA3
:10BB1000B54120C020C940CAB54120C020C940CA93
:10BB2000B54120C06441B4FA84F0400970BD00BF43
:10BB30002DE9F04F08B4F8CA04B451F8042BA3FB64
:10BB4000028940F8048B4FF0000AE4FB629A4FF040
:10BB5000000BE5FB62AB4FF0000CE6FB62BC4FF064
:10BB6000000EE7FB62CE51F8042B4FF00008E3FB18
:10BB7000628940F8048BE4FB629AE5FB62ABE6FB6A
:10BB800062BCE7FB62CE51F8042B4FF00008E3FBE8
:10BB9000628940F8048BE4FB629AE5FB62ABE6FB4A
:10BBA00062BCE7FB62CE51F8042B4FF00008E3FBC8
:10BBB000628940F8048BE4FB629AE5FB62ABE6FB2A
:10BBC00062BCE7FB62CE51F8042B4FF00008E3FBA8
:10BBD000628940F8048BE4FB629AE5FB62ABE6FB0A
:10BBE00062BCE7FB62CE40F8049B40F804AB40F82F
:10BBF00004BB40F804CB40F804EB0CBC052B00F070
:10BC00001E810C68A0F11400A1F11401A2F114022C
:10BC100052F804EB4FF0000550F8046BE4FB6E564D
:10BC200052F804EB50F8047BE4FB6E6752F804EB27
:10BC300050F8048BE4FB6E7852F804EB50F8049B48
:10BC4000E4FB6E8952F804EB50F804ABE4FB6E9A07
:10BC5000A0F1140052F8044B51F804EB4FF0000C23
:10BC6000E4FB6EC540F804CB51F804EBE4FB6E56E0
:10BC700040F8045B51F804EBE4FB6E6740F8046B9A
:10BC800051F804EBE4FB6E7840F8047B51F804EBC8
:10BC9000E4FB6E8940F8048B51F804EBE4FB6E9AE8
:10BCA000A0E80006062B00F0CA800C68A0F118007E
:10BCB000A1F11801A2F1180252F804EB4FF00005AF
:10BCC00050F8046BE4FB6E5652F804EB50F8047B1A
:10BCD000E4FB6E6752F804EB50F8048BE4FB6E78DB
:10BCE00052F804EB50F8049BE4FB6E8952F804EB25
:10BCF00050F804ABE4FB6E9A52F804EB50F804BB26
:10BD0000E4FB6EABA0F1180052F8044B51F804EBC1
:10BD10004FF0000CE4FB6EC540F804CB51F804EB87
:10BD2000E4FB6E5640F8045B51F804EBE4FB6E67ED
:10BD300040F8046B51F804EBE4FB6E7840F8047BA8
:10BD400051F804EBE4FB6E8940F8048B51F804EBE6
:10BD5000E4FB6E9A40F8049B51F804EBE4FB6EABF5
:10BD6000A0E8000C072B6AD008B40C68A0F11C00F6
:10BD7000A1F11C01A2F11C0252F804EB4FF00005E6
:10BD800050F8046BE4FB6E5652F804EB50F8047B59
:10BD9000E4FB6E6752F804EB50F8048BE4FB6E781A
:10BDA00052F804EB50F8049BE4FB6E8952F804EB64
:10BDB00050F804ABE4FB6E9A52F804EB50F804BB65
:10BDC000E4FB6EAB52F804EB50F804CBE4FB6EBC22
:10BDD000A0F11C0052F8044B51F804EB4FF00003A3
:10BDE000E4FB6E3540F8043B51F804EBE4FB6E567F
:10BDF00040F8045B51F804EBE4FB6E6740F8046B19
:10BE000051F804EBE4FB6E7840F8047B51F804EB46
:10BE1000E4FB6E8940F8048B51F804EBE4FB6E9A66
:10BE200040F8049B51F804EBE4FB6EAB40F804AB24
:10BE300051F804EBE4FB6EBCA0E8001808BCBDE8B8
:10BE4000F08F2DE9F04FB1E8005E06B4AAFB0912AD
:10BE50004FF00003EBFB69234FF00004ECFB693467
:10BE60004FF00005EEFB69454FF00006EBFB6A63FF
:10BE7000ECFB6A344918524176415B41A9FB0978D1
:10BE80004FF0000949F1000918EB0108A0E8800112
:10BE9000AAFB0A78574158EB0608A0E88001EEFBA0
:10BEA0006A454FF0000A4AF1000A4FF00001ECFB2E
:10BEB0006B14EEFB6B454FF00002EEFB6C255FEA66
:10BEC00059094941644152416D4149F10009EBFB77
:10BED0006B3A1AEB010AA0E80804ACFB0C6A664155
:10BEE0005AEB020AA0E84004AEFB0E6A6E415AEB20
:10BEF000090AA0E8400406BC052A00F0E680A0F18B
:10BF00001400A1F11401B1E8E043A5FB0E344FF099
:10BF10000005E6FB6E454FF00006E7FB6E564FF05E
:10BF20000007E8FB6E674FF00008E9FB6E784FF002
:10BF30000009DB1864416D4176417F4158EB0808E8
:10BF400059F1000950F804CB13EB0C0350F804CB63
:10BF500054EB0C0450F804CB55EB0C0550F804CB13
:10BF600056EB0C0650F804CB57EB0C0758F10008C1
:10BF700059F10009A0F11400EEFB0E89A0E8F803C6
:10BF8000062A00F0A280A0F11800A1F11801B1E882
:10BF9000E047A5FB0E344FF00005E6FB6E454FF081
:10BFA0000006E7FB6E564FF00007E8FB6E674FF0A8
:10BFB0000008E9FB6E784FF00009EAFB6E894FF04C
:10BFC000000ADB1864416D4176417F4158EB080857
:10BFD00059EB09095AF1000A50F804CB13EB0C0392
:10BFE00050F804CB54EB0C0450F804CB55EB0C0583
:10BFF00050F804CB56EB0C0650F804CB57EB0C076B
:10C0000050F804CB58EB0C0859F100095AF1000A1A
:10C01000A0F11800EEFB0E9AA0E8F807072A54D00A
:10C02000A0F11C00A1F11C01B1E8E04FA5FB0E340A
:10C030004FF00005E6FB6E454FF00006E7FB6E563D
:10C040004FF00007E8FB6E674FF00008E9FB6E78E1
:10C050004FF00009EAFB6E894FF0000AEBFB6E9A85
:10C060004FF0000BDB1864416D4176417F4158EB86
:10C07000080859EB09095AEB0A0A5BF1000B50F862
:10C0800004CB13EB0C0350F804CB54EB0C0450F826
:10C0900004CB55EB0C0550F804CB56EB0C0650F8CE
:10C0A00004CB57EB0C0750F804CB58EB0C0850F8B6
:10C0B00004CB59EB0C095AF1000A5BF1000BA0F11B
:10C0C0001C00EEFB0EABA0E8F80FBDE8F08F10B53A
:10C0D000002253B28B4205DA1BB2002440F8234001
:10C0E0000132F6E710BD2DE9F0478846B3F902109A
:10C0F0001F460825CB1D202493FBF5F51F319542E3
:10C1000091FBF4F44FFA84F928BF154606464946D8
:10C11000FFF7DDFF2A4630464146FFF78DFCB7F9B1
:10C120000230ED009D4220D9ED1A06EB8401002279
:10C130008E420AD251F8040D20FA05F313430B6026
:10C14000C5F1200300FA03F2F2E7243738463146FE
:10C150004A46FFF777FC012807D0304631463A4679
:10C160004B46BDE8F047FFF7B3BCBDE8F08710B51C
:10C1700000231A465CB28C4204DA50F824400133A2
:10C180002243F7E7B2FA82F0400910BD4A110123B9
:10C1900001F01F0150F822008B4018407047013910
:10C1A000C9B24BB2002B0BDA013111F0FF0315D0ED
:10C1B00059B201F18043013B50F82320002304E0F1
:10C1C00050F82330002BEAD0EEE712B152080133C9
:10C1D000FBE7481E03EB401080B200E0184600B2B7
:10C1E000704730B5002463B2934206DA1BB20134C3
:10C1F00051F8235040F82350F5E730BDF0B50C4618
:10C2000089B008220646FFF7ECFFE36A0393236B2D
:10C210000493636B0593A36B0693E36B079300276B
:10C2200069466A4608236846029701970097FFF718
:10C230001FFC314605466A4608233046FFF718FCC6
:10C24000236B0393636B0493A36B0593E36B0693D8
:10C25000054469466A46082368460797FFF708FCC5
:10C26000314605446A4608233046FFF701FC236A3D
:10C270000093636A0193A36A0293A36B0693E36B33
:10C280000793054431466A460823304605970497CC
:10C290000397FFF7EDFB636A0093A36A0193E36AD8
:10C2A000A26B0293636B039304920693E26B236A7F
:10C2B00005920544079331466A4608233046FFF746
:10C2C000D7FBE36A0093236B0193636B0293236AAA
:10C2D0000693A36A0793054431466A46082330460D
:10C2E000059704970397FFF7F3FB236B0093636BAA
:10C2F0000193A36B0293E36B0393636A0693E36A70
:10C3000007932D1A31466A4608233046059704974D
:10C31000FFF7DEFB636B0093A36B0193E36B029368
:10C32000236A0393636A0493A36A0593236B0793B9
:10C330002D1A31466A46082330460697FFF7C8FB98
:10C34000A36B0093E36B0193636A0393A36A049363
:10C35000E36A0593636B07932D1A314630466A46AC
:10C36000082302970697FFF7B3FB2D1A16D5304620
:10C3700031460D4A0823FFF77BFB4519F7D410E03F
:10C38000094831460822FFF75DFB012809D03046F5
:10C390003146054A0823FFF79BFB2D1A002DEFD0ED
:10C3A000F5E709B0F0BD00BFF4CF0700013A30B5A2
:10C3B000D2B2002453B2002B09DB1BB2013A51F870
:10C3C000235050F823306B401C43D2B2F2E7B4FA4A
:10C3D00084F0400930BD00EB81010023884206D281
:10C3E00051F8042D43EA52030B60D307F6E7704778
:10C3F000F8B5036813F0010506460F46144605D04C
:10C4000001463A462346FFF733FB054630462146B0
:10C41000FFF7E1FF45B104F18042013A56F82230BE
:10C4200043F0004346F82230F8BD70B59DF9104046
:10C430001D4623460646FFF71BFB30B9284631460A
:10C440002246FFF7FFFA012807D0304631462A4638
:10C450002346BDE87040FFF73BBB70BD70B59DF94A
:10C4600010401D4623460646FFF732FB38B13046E2
:10C4700031462A462346BDE87040FFF7F9BA70BD41
:10C480002DE9F043A3B09846019112AB414607460F
:10C49000104691460093FFF782FEC0EB881086B2EB
:10C4A000454C33B21C40002CBEBF04F1FF3464F095
:10C4B0001F040134202593FBF5F5EDB26DB2A4B253
:10C4C00002A8294624B2FFF702FE28B202AB002CD4
:10C4D00003EB800010DD00221346434510D259F8CB
:10C4E000235005FA04F10A4340F82320C4F1200246
:10C4F00025FA02F20133F0E749464246FFF771FEA2
:10C500000FFA88F502AB4FEA4509012403EB8505D4
:10C51000330444D40022114653B24B4522DA0DF1C4
:10C52000880E0EEB840E0DF1880C18B25EF888ECC4
:10C530000CEB83035EF820E053F8803CC3EB0E0362
:10C540005B1A734502D08CBF01210021C4F1010E9A
:10C550000DF1880C0CEB8E0E01325EF888EC4EF873
:10C560002030D9E7621A544202A841465441FFF7ED
:10C5700032FF22AA08F1FF3302EB830302EB8802A9
:10C58000284652F8801C53F8802C013E42EAC172C2
:10C59000414643F8802CB6B2FFF71DFFB8E722AB47
:10C5A00003EB8404384654F8881C4246FFF719FE12
:10C5B00023B0BDE8F08300BF1F00008070B590B0CD
:10C5C00006469DF950401D4668462346FFF7B0FADF
:10C5D000304669462A462346FFF752FF10B070BD29
:10C5E00030B51C4691B0054693F900306846FFF718
:10C5F0009FFAD4F8AC3028466946984711B030BD50
:10C6000030B5144691B0054692F900206846FFF710
:10C6100018FCD4F8AC3028466946984711B030BDB4
:10C620002DE9F04115468AB00446884602A800214B
:10C630002022FBF78DFF2E780323204641462A4611
:10C640002F1D76B20293FFF7DBFF2046214602AA98
:10C650003B460096FFF702FF2046214642462B4606
:10C66000FFF7BEFF00962046214605F184023B46B7
:10C67000FFF7DBFE0AB0BDE8F0812DE9F04793F942
:10C68000006092B0044689461046314615469846E9
:10C69000FFF76DFD002840F0978002A8494642460A
:10C6A000FFF7AEFF43460AA8214602AAFFF798FF0C
:10C6B00002A801464246FFF7A3FF434648464946C3
:10C6C0002A46FFF78DFF08F104072846294642460F
:10C6D000FFF796FF204621462A463B460096FFF785
:10C6E000A4FE284629462A463B460096FFF79DFEB3
:10C6F000284621462A463B460096FFF7AFFE2046D5
:10C7000021462A464346FFF76BFF2846214622462C
:10C710003B460096FFF789FE20463B4600962146A1
:10C720002A46FFF782FE2368DB07204613D53346EF
:10C7300021463A46FFF79CF9314682462046FFF7EC
:10C740004AFE06F18043013B54F8230040EACA70D8
:10C7500044F8230002E03146FFF73DFE284621461B
:10C760004246FFF74DFF284629460AAA3B46009657
:10C77000FFF774FE284629460AAA3B460096FFF7B3
:10C780006DFE0AA801462A463B460096FFF766FE64
:10C79000204621460AAA4346FFF722FF02A8024686
:10C7A0003B4621460096FFF759FE20462946324671
:10C7B000FFF717FD284649463246FFF712FD484667
:10C7C00002A93246FFF70DFD12B0BDE8F0872DE952
:10C7D000F0438BB08046129D15F9046B0096144609
:10C7E0001F4689462B4602A811464246FFF736FEF1
:10C7F00002A80146129AFFF703FF4046414602AAEB
:10C80000129BFFF7EDFE2046214602AA129BFFF77E
:10C81000E7FE2B46384639464A460096FFF71EFE8D
:10C8200002A83946129AFFF7EBFE02A801464246DB
:10C830002B460096FFF712FE02A8014622462B4621
:10C840000096FFF70BFE2046214642462B460096F7
:10C85000FFF704FE484649462246129BFFF7C0FEFA
:10C860002046414602AA2B460096FFF7F7FD3846C0
:10C8700039462246129BFFF7B3FE384639464A46F0
:10C880002B460096FFF7EAFD204602A93246FFF745
:10C89000A8FC0BB0BDE8F083F0B589B01C46074694
:10C8A0000E461546684611461A46FFF7A9FE384659
:10C8B00039466A462346FFF793FE684669462A468C
:10C8C0002346FFF78DFE304631466A462346FFF782
:10C8D00087FE09B0F0BDF0B50646A1B00F46084688
:10C8E000194615461C46FFF742FC20B1304621464A
:10C8F000FFF7EDFB73E0684639462246FFF771FC0F
:10C9000008A829462246FFF76CFC10A82146FFF72D
:10C91000DEFB012318A821461093FFF7D8FB6846D9
:10C9200008A92246FFF78EF8002853D0009BDA07AB
:10C9300004D468462146FFF74EFD26E0089BDB073E
:10C9400004D408A82146FFF746FD3DE000281EDD7F
:10C9500008AA234669466846FFF7BAF868462146A2
:10C96000FFF739FD10A818A92246FFF76BF8002839
:10C9700005DA10A801462A462346FFF779F810A8E1
:10C98000014618AA2346FFF7A3F810A81DE008A83F
:10C990006A4623460146FFF79BF808A82146FFF7A1
:10C9A0001AFD18A810A92246FFF74CF8002805DA4E
:10C9B00018A801462A462346FFF75AF818A8014648
:10C9C00010AA2346FFF784F818A829462246FFF745
:10C9D0000FFDA4E7304610A92246FFF702FC21B064
:10C9E000F0BD000000487047F0CF07002DE9F04F80
:10C9F000EFB01E46789C059023780493B4F902307A
:10CA000092461F33202293FBF2F3DBB206939DF98B
:10CA1000187094F9012007F1FF3926AB002543F87F
:10CA200029506EAB03EB89034EA88B46314643F881
:10CA3000805C43F8605CFEF7FFFF94F9012056A884
:10CA4000B118FEF7F9FF9DF910604EA83146FFF7C7
:10CA50008EFB8046002840F02F8156A83146FFF714
:10CA600086FB0546002840F0258104F12408404655
:10CA70004EA93A46FEF7E6FF012840F01D814046E8
:10CA800056A93A46FEF7DEFF0128089040F01481CF
:10CA90003B461EA856A94246FFF71DFF0DF1380C74
:10CAA00060465946524623464CF82950CDF80CC0F2
:10CAB000FFF719FBDDF80CC00097604661461EAA1F
:10CAC0004346CDF824C00DF5BC79FFF777FD43460A
:10CAD000009716A84EA91EAAFFF770FD48463246D9
:10CAE0000599FFF77EFBB300039309EB030B039A51
:10CAF000059B584699183246FFF773FB04F144032F
:10CB00001946324636A80793FFF76BFB04EB860104
:10CB100032463EA8443104F1040AFFF762FB49465D
:10CB200000961EA836AA5346FFF798FC4A465B4675
:10CB300036A83EA90094FFF74AFE1EA801463346D8
:10CB40005246FFF7C8FE1EAA484659462346FFF73D
:10CB5000A3FEDDF824C0079B0B936046059B0C9356
:10CB60003946CDF814C00A95CDF83490FFF717FB7D
:10CB70003946054616A8FFF712FBA842B8BF28465B
:10CB800085B2DDF814C06F1E3FB260463946FFF72C
:10CB9000FDFA394610F1000916A818BF4FF0010937
:10CBA000FFF7F4FA002814BF0223002343EA09091F
:10CBB0000DF1280B32465BF8297026A83946FFF79D
:10CBC00010FB039B3246F9182EA8FFF70AFB3146EB
:10CBD0001EA8FFF77CFA023D089B1E93AEB237B247
:10CBE000002F44DB23461EAAD4F8A45026A82EA961
:10CBF000A84739460EA8FFF7C9FA3946051C16A8FA
:10CC000018BF0125FFF7C2FA002814BF0223002332
:10CC10001D430AAB53F8257037B39DF9105036A861
:10CC200039462A46FFF7DDFA039B3EA8F9182A4643
:10CC3000FFF7D7FA36A83EA91EAA2346FFF72CFE17
:10CC400046A826A936AA53460095FFF707FC36A842
:10CC50003EA926AA2EAB0094FFF7B9FD1EA80146F7
:10CC600046AA2346FFF7BCFC013EB6B2B7E79DF9E2
:10CC700010501EA8014652462B46FFF72CFE2346B5
:10CC800026A82EA91EAAFFF707FE9DF918404046C8
:10CC900026A92246FEF7D6FE012805D026A8014681
:10CCA00042462346FEF714FF26A84EA92A46FFF760
:10CCB0007DFB02E0404600E028466FB0BDE8F08F03
:10CCC00010B501390244904201D1002010BD10F886
:10CCD000013B11F8014FA342F5D0181B10BD10B550
:10CCE000431E0A44914200D110BD11F8014B03F8D4
:10CCF000014FF7E7034613F8012B002AFBD1181A5E
:10CD0000013870479140031C90409C46203A934064
:10CD1000194352426346D34019437047F8B500BFE8
:10CD2000F8BC08BC9E467047F8B500BFF8BC08BC0C
:10CD30009E467047002C00204109D6C659653C51DB
:10CD4000CBD5301AD321743D0E56B1DA1A7E6D8DD3
:10CD5000DF361A3165F0315C05025569EDC6B3AFB7
:10CD60003F8058CEEEA67D208159A0D227EE2C68B8
:10CD7000ECF20BF0D3198CED982F8A429144377165
:10CD8000CFFBC0B5A5DBB5E95BC25639F111F1594E
:10CD9000A4823F92D55E1CAB98AA07D8015B831290
:10CDA000BE853124C37D0C55745DBE72FEB1DE803C
:10CDB000A706DC9B74F19BC1C1699BE48647BEEF6B
:10CDC000C69DC10FCCA10C246F2CE92DAA84744AF6
:10CDD000DCA9B05CDA88F97652513E986DC631A86C
:10CDE000C82703B0C77F59BFF30BE0C64791A7D54B
:10CDF0005163CA0667292914850AB72738211B2ED3
:10CE0000FC6D2C4D130D385354730A65BB0A6A76BA
:10CE10002EC9C281852C7292A1E8BFA24B661AA8C6
:10CE2000708B4BC2A3516CC719E892D1240699D6D6
:10CE300085350EF470A06A1016C1A419086C371E4F
:10CE40004C774827B5BCB034B30C1C394AAAD84E2D
:10CE50004FCA9C5BF36F2E68EE828F746F63A57868
:10CE60001478C8840802C78CFAFFBE90EB6C50A4FB
:10CE7000F7A3F9BEF27871C6011104FC04000000AA
:10CE800000000000021104FC04000000000000008B
:10CE9000032104FC0404000000000000041101FF51
:10CEA0000100000000000000051102FE0400000067
:10CEB00000000000061104FC040000000000000057
:10CEC000071104FC0400000000000000081701FF27
:10CED0002200000028CF0700091001FF0100000018
:10CEE00024CF070000000000000000000000000048
:10CEF000011704FC7000000094CF0700021704FC27
:10CF0000B400000064CF0700000000000000000033
:10CF10000000000050EADA308883B89F604F15F3B4
:10CF20000000C98E000000000101000001000000A7
:10CF300000000000020500002100000000000000C9
:10CF400000000000000000000000000001010000DF
:10CF500004000000000000000000000000000000CD
:10CF600000000000010700007000000094CF0700DF
:10CF700002010000010000000000000003050000A5
:10CF80004100000000000000000000000000000060
:10CF900000000000011101FF01000000000000007E
:10CFA000021702FE6400000078CE0700031704FC9D
:10CFB000040000004CCF070000000000000000004B
:10CFC000000000004446555F415252009BAA0700F2
:10CFD0003FAA0700D9A9070047A907002DA9070004
:10CFE0009BA907005FA90700B3AE0700000000007F
:10CFF00008200001FFFFFFFFFFFFFFFFFFFFFFFF14
:10D00000000000000000000000000000010000001F
:10D01000FFFFFFFF512563FCC2CAB9F3849E17A727
:10D02000ADFAE6BCFFFFFFFFFFFFFFFF00000000BF
:10D03000FFFFFFFF96C298D84539A1F4A033EB2D2E
:10D04000817D0377F240A463E5E6BCF847422CE11A
:10D05000F2D1176BF551BF376840B6CBCE5E316B5E
:10D060005733CE2B169E0F7C4AEBE78E9B7F1AFE22
:10D07000E242E34F4B60D2273E3CCE3BF6B053CC6E
:10D08000B0061D65BC86987655BDEBB3E7933AAA0A
:10D09000D835C65A7BC6070021C60700FDC1070068
:04D0A000000000008C
:08D0A400C8B3FF7F010000008A
:10D0AC000000000000000000000000000000000074
:10D0BC000000000000000000000000000000000064
:10D0CC000000000000000000000000000000000054
:10D0DC000000000000000000000000000000000044
:10D0EC000000000000000000000000000000000034
:10D0FC000000000000000000000000000000000024
:10D10C00010000000090D003FFFF00002584070001
:08D11C0001840700000000007F
:10D124000010000000300800B1B407000000000047
:08D13400A59B0700F19A07001A
:020000020000FC
:020000041000EA
:041014000080070051
:0410180000E00700ED
:040000037000B9FDD3
:00000001FF
