0001_7af5_F0:83:AD:78:3B:03
0002_7aed_E5:D3:3C:6F:8F:29
0003_7ae5_E1:DB:25:FD:B0:CE
0004_7add_CE:02:B0:DB:3E:7C
0005_7ad5_DA:38:9E:08:9A:0A
0006_7acd_FC:42:1C:F8:6A:C9
0007_7ac5_FE:A4:E0:F2:59:2E
0008_7abd_F0:38:52:80:D5:04
0009_7ab5_F7:31:D2:0F:B7:4D
0010_7aad_E9:F1:90:3A:F1:82
0011_7aa5_C5:E5:12:1C:1F:9D
0012_7a9d_C2:60:85:FA:8F:60
0013_7a95_E3:70:45:C4:A1:7F
0014_7a8d_F0:29:95:B0:18:F2
0015_7a85_D2:13:13:50:22:F4
0016_7a7d_CF:C4:F9:12:E8:D9
0017_7a75_C1:FC:5F:2A:23:09
0018_7a6d_C6:68:25:F8:EA:16
0019_7a65_E2:38:40:0D:CC:48
0020_7a5d_F6:9A:88:FB:EA:DC
0021_7a55_F8:D4:BF:1F:54:77
0022_7a4d_E0:3B:D6:03:91:F0
0023_7a45_EF:D0:D4:E7:92:D9
0024_7a3d_F9:3F:97:03:CB:75
0025_7a35_F3:E6:61:BC:44:74
0026_7a2d_E8:AE:D5:12:C8:60
0027_7a25_EC:37:A9:CD:B7:35
0028_7a1d_C5:89:5A:8F:DD:5D
0029_7a15_F9:7A:B6:DE:30:C8
0030_7a0d_D2:0F:83:1A:0F:77
0031_7a05_E5:85:70:E9:2F:28
0032_79fd_D1:A8:CC:79:FE:F7
0033_79f5_ED:15:4F:22:1A:D8
0034_79ed_F5:59:33:28:F2:F8
0035_79e5_FA:9E:BC:2A:B2:CE
0036_79dd_F2:4F:75:EA:46:8D
0037_79d5_EF:28:55:04:FD:E4
0038_79cd_F0:04:31:7E:D6:62
0040_79c5_E2:5F:02:71:98:C6
0041_79bd_E6:1A:92:F7:01:81
0042_79b5_DC:EF:14:31:1A:66
0043_79ad_DC:54:CB:9B:CC:CF
0044_79a5_CA:93:D1:1D:1D:05
0045_799d_F7:B1:28:21:14:C8
0046_7995_C5:2B:15:CB:64:11
0047_798d_F7:ED:DD:FB:8F:42
0048_7985_F5:F0:F1:9A:44:18
0049_797d_EE:86:BC:48:A5:DC
0050_7975_FB:4D:F9:22:80:F2
0051_796d_C2:C2:2F:8D:76:EF
0052_7965_D7:DE:77:C8:CE:57
0053_795d_ED:91:1B:E2:E5:C2
0054_7955_FF:E3:B1:0D:77:1D
0055_794d_D8:48:1F:E1:58:6F
0056_7945_E8:EB:5C:8E:D3:70
0057_793d_D7:9A:D7:28:88:BC
0058_7935_DC:A6:50:35:F7:EA
0059_792d_F1:FA:70:AC:75:F1
0060_7925_DA:CE:3F:1C:B3:DF
0061_791d_FA:A6:E7:34:E0:6F
0062_7915_EB:D9:6C:7B:13:6A
0063_790d_D2:01:99:10:72:0B
0064_7905_D1:CB:69:C8:33:88
0065_78fd_F3:04:DB:A2:35:F9
0066_78f5_CA:23:A0:1E:0B:D6
0067_78ed_F1:6A:BA:CD:54:3F
0068_78e5_DB:07:BC:BF:B9:98
0069_78dd_CE:11:6C:FD:48:8D
0070_78d5_F9:EB:87:BB:F5:DA
0071_78cd_F9:C5:98:5D:C8:AD
0072_78c5_F1:2D:7C:E3:0D:88
0073_78bd_F4:FE:0A:BA:45:83
0074_78b5_C6:DF:BA:18:0E:69
0075_78ad_D4:ED:48:AA:71:11
0076_78a5_C7:69:1A:43:4C:22
0077_789d_D8:49:C6:35:40:D7
0078_7895_E1:E3:27:17:55:6A
0079_788d_F7:F2:CA:C2:B9:3C
0080_7885_DE:46:A7:F9:D8:DF
0081_787d_FD:37:50:15:CA:F9
0082_7875_CD:5B:23:33:F5:16
0083_786d_F3:D0:52:7E:70:FA
0084_7865_C5:E9:7A:AA:AE:01
0085_7b90_DE:89:F4:F1:63:CB
0086_7855_D3:C8:B0:9E:C2:6F
0087_784d_E1:B3:F2:0D:99:6D
0088_7845_D1:A8:0E:3A:6E:A6
0089_783d_C4:D5:2D:51:2B:C0
0090_7835_ED:D1:AF:F1:32:3E
0091_782d_E9:D5:B2:E9:8C:84
0092_7825_D5:F3:83:38:A0:0C
0093_781d_F5:90:CF:39:6D:2B
0094_7815_F4:11:B2:31:9A:B0
0095_780d_D1:28:B3:31:DE:C3
0096_7805_E1:F5:26:4D:65:90
0097_77fd_FB:A8:B6:9D:61:86
0098_77f5_EF:9E:98:7B:78:02
0099_77ed_D0:AC:DD:6B:A5:33
0100_77e5_DF:C1:74:86:21:8E
0101_77dd_C8:42:5C:7A:D3:30
0102_77d5_DD:98:30:98:B6:C9
0103_77cd_C7:02:BA:90:F0:F9
0104_77c5_F9:B9:B9:D7:45:D2
0105_77bd_D3:32:82:E9:19:70
0106_77b5_F7:6A:FD:1F:E4:3A
0107_77ad_F8:1C:9F:DD:8E:CC
0108_77a5_E5:C7:49:69:BA:06
0109_779d_CA:2A:7C:7F:56:23
0110_7795_FE:1E:F5:EC:F8:80
0111_778d_E7:BD:97:4A:A0:0D
0112_7785_FC:45:03:8C:C2:63
0113_777d_FE:DF:81:12:60:C8
0114_7775_F2:29:2A:C3:9F:19
0115_776d_DA:69:A9:1D:C0:E7
0116_7765_FF:5F:46:F6:D9:A2
0117_775d_C9:BE:AA:9D:7B:C2
0118_7755_C6:EA:BE:4D:30:E0
0119_774d_DB:67:29:DD:CC:7D
0120_7745_F1:4D:A2:1B:58:11
0121_773d_CD:D4:D3:05:7C:1D
0122_7735_ED:AA:1E:B4:37:D6
0123_772d_DB:9D:F6:87:95:11
0124_7725_DA:86:FE:60:36:61
0125_771d_D9:A9:65:E6:A0:37
0126_7715_F8:23:E6:3F:5C:7F
0127_770d_C4:7E:C9:25:9E:4F
0128_7705_D9:65:5F:98:32:5C
0129_76fd_CF:41:7B:2E:03:D1
0130_76f5_FC:46:BC:8E:90:35
0131_76ed_D8:D2:7C:86:D3:F4
0133_76e5_CA:CB:94:99:07:E5
0134_76dd_FE:55:72:C8:6E:3B
0135_76d5_DB:4F:08:A7:1D:CF
0136_76cd_E5:D4:E4:F4:40:3C
0137_76c5_DD:EC:AD:2D:0D:4E
0138_76bd_C0:3D:5B:F2:28:A1
0139_76b5_C2:5F:C8:95:D7:57
0140_76ad_E1:44:8C:2F:9B:E0
0141_76a5_D2:DA:C6:14:8C:73
0142_769d_F3:B5:11:D1:A9:8F
0143_7695_D1:76:65:2D:F2:5D
0144_768d_FE:79:B9:1A:A5:43
0145_7685_DA:E3:96:BE:A8:E1
0146_767d_E9:06:3C:9F:9D:B7
0147_7675_F7:8C:7D:56:3A:C1
0148_766d_E0:90:39:0E:B4:69
0149_7665_F4:9E:B3:DA:4A:4D
0150_765d_E9:22:59:6C:2B:47
0151_7655_E4:DF:C7:EF:87:EC
0152_764d_CD:71:61:ED:84:68
0153_7645_D8:AA:65:33:6F:E3
0154_763d_D3:32:26:BB:1B:0E
0155_7635_D6:99:30:4E:C0:89
0156_762d_C7:45:33:DA:B8:FA
0157_7625_D9:53:3C:C0:D0:F4
0158_761d_F4:76:84:FE:67:27
0159_7615_E2:35:43:81:47:22
0160_760d_D8:75:61:C0:8A:4F
0161_7605_F9:97:5C:E3:A9:29
0162_75fd_F6:E4:D5:04:9A:C4
0163_75f5_FF:66:89:CD:26:4D
0164_75ed_E8:6E:64:AE:B4:05
0166_75e5_E2:49:A8:44:73:8B
0167_75dd_E2:D0:38:2E:2B:71
0168_75d5_E7:9C:07:C2:91:9B
0169_75cd_F6:30:82:AB:9D:40
0170_75c5_EC:05:48:2C:0F:AD
0171_75bd_E8:A0:94:6B:9D:CC
0172_75b5_E4:B5:B9:F4:EE:EF
0173_75ad_F8:63:8C:3C:4C:BB
0174_75a5_ED:02:A0:92:CD:2E
0175_759d_C0:3A:EE:33:05:77
0176_7595_C8:DD:DD:19:1F:8B
0177_7b27_D3:22:78:BA:05:75
0178_7585_C2:1E:45:54:15:8A
0179_757d_E1:0D:C3:33:1E:3F
0180_7575_D4:75:2A:D3:4C:34
0181_7b2d_DA:73:24:B2:51:0C
0182_7565_DA:74:14:83:33:4D
0183_755d_CE:08:C9:A5:48:CE
0184_7555_E8:A3:D1:13:B9:A6
0185_754d_D4:9D:EE:91:1A:02
0186_7545_FF:37:1B:90:34:B1
0187_753d_E3:B4:07:79:08:0B
0188_7535_DB:29:BA:B9:19:3E
0189_752d_E1:91:A6:69:A4:0B
0190_7525_ED:D6:3A:DD:B5:CF
0191_751d_E6:D5:85:5F:39:AE
0192_7515_DC:23:9E:22:07:22
0193_750d_DD:3B:19:12:84:88
0194_7505_E4:4E:80:33:8A:7E
0195_74fd_FF:E1:47:08:35:F0
0196_74f5_D5:A6:BA:C1:25:F9
0197_74ed_E6:17:D7:43:32:5F
0198_74e5_D8:69:E4:81:D2:21
0199_74dd_D9:36:EF:4B:52:2C
0200_74d5_D3:C3:6F:89:61:4F
0201_74cd_E9:28:6E:86:95:93
0202_74c5_F5:43:2C:A7:FD:F5
0203_74bd_DC:0F:58:ED:93:16
0204_74b5_CD:13:03:C2:55:E5
0205_74ad_CA:59:CF:22:11:D4
0206_74a5_E6:AD:EB:90:49:FE
0207_749d_D7:77:05:EF:E0:B9
0208_7495_C4:86:9E:D0:5F:D1
0209_748d_FD:5A:E8:DF:EC:2E
0210_7485_E1:77:A0:C9:E0:FA
0211_747d_ED:AC:C5:6C:E4:5F
0212_7475_DC:0A:84:FE:7A:3A
0213_746d_DE:D3:6A:4B:4B:1A
0214_7465_FE:69:F8:E7:8C:02
0215_745d_F2:0E:84:8B:FB:80
0216_7455_C8:18:56:EE:2E:91
0217_744d_C6:FA:36:B9:98:70
0218_7445_DD:BF:8B:45:AF:DD
0219_743d_E8:C4:18:62:3D:58
0220_7435_C9:76:84:2B:E7:2A
0221_742d_CB:E5:EE:F8:CD:2B
0222_7425_D1:F5:C1:B9:9A:F7
0223_741d_EB:DD:7E:78:20:47
0224_7415_F6:84:92:31:7B:69
0225_740d_EA:5F:D4:91:8A:A9
0226_7405_DC:DC:A1:9A:8B:59
0227_73fd_CC:31:89:37:D7:58
0228_73f5_C6:7E:55:0F:2D:3E
0229_73ed_E6:67:98:65:AC:3F
0230_73e5_CA:CE:72:95:23:21
0231_73dd_DF:BB:42:C5:8C:01
0232_73d5_DF:27:A9:8C:41:86
0233_73cd_E7:AE:E4:20:9E:63
0234_73c5_D3:D7:33:33:95:6D
0235_73bd_E9:98:A1:9C:A9:08
0236_73b5_C8:9D:91:5D:4C:6F
0237_73ad_F5:A1:8A:9C:DA:41
0238_73a5_C7:62:04:69:88:05
0239_739d_DA:25:1B:75:B9:CE
0240_7395_CB:A8:53:20:99:7F
0241_738d_D4:0D:05:69:F8:0B
0242_7385_EE:2E:15:0A:2D:31
0243_737d_CE:06:B3:2A:3E:75
0244_7375_D5:92:3E:91:F3:E1
0245_736d_CB:25:7D:C2:0E:9C
0246_7365_C6:71:5B:CA:38:62
0247_735d_F9:AD:E2:9E:08:44
0248_7355_D0:D6:07:56:58:7F
0249_734d_FE:35:C2:C3:85:0B
0250_7345_FD:5A:02:1E:5F:4D
0251_733d_CC:8E:97:7E:27:D5
0252_7335_F1:4C:F3:43:44:91
0254_732d_CA:4B:B6:8E:43:C4
0255_7325_ED:F9:4B:97:49:D6
0256_731d_D0:A5:15:05:E5:46
0257_7315_E8:E1:9C:AD:FC:7D
0258_730d_D3:8C:11:2F:C0:16
0259_7305_D0:BA:8D:D3:CA:53
0260_72fd_D9:CC:EF:A3:65:8B
0261_72f5_DA:A9:8A:5C:59:B0
0262_72ed_E0:73:10:42:47:68
0263_72e5_F1:63:CE:71:59:88
0264_72dd_F5:77:82:7B:9E:F3
0265_72d5_D7:94:1B:27:99:0D
0266_72cd_DB:E3:1C:D7:7C:16
0267_72c5_F0:3B:42:45:14:C4
0268_72bd_C0:CD:42:0E:C9:1D
0269_72b5_D3:6A:D4:01:BC:D9
0270_72ad_D3:46:41:27:64:91
0271_72a5_C8:7D:3D:C5:A4:D1
0272_729d_C3:08:F2:48:53:13
0273_7295_C7:B2:AD:CD:4C:2A
0274_728d_CD:41:52:CA:6E:65
0275_7285_D1:E4:1D:ED:5D:5B
0276_727d_FF:D2:21:FD:30:7A
0277_7275_D9:25:DE:51:FD:93
0253_726d_EA:F9:45:57:A3:66
0278_7265_E3:09:83:E3:6E:36
0279_725d_C2:83:0A:7D:98:53
0280_7255_F5:CE:A3:28:CA:2D
0281_724d_F2:11:C1:AE:BD:55
0282_7245_E2:E4:31:E9:3F:DF
0283_723d_DA:E2:DB:7B:F3:03
0284_7235_C8:08:85:17:97:0B
0285_722d_FB:EF:64:CB:5C:BC
0286_7225_F7:20:24:02:A6:A3
0287_721d_FE:4A:65:41:36:63
0288_7215_D1:5F:64:D9:E8:DC
0289_720d_C8:64:CD:2F:99:21
0290_7205_FD:69:AB:90:48:22
0291_71fd_F2:6C:C9:6A:25:18
0292_71f5_FC:76:EB:99:1A:C8
0293_71ed_CB:A8:5D:4E:BC:C8
0294_71e5_F0:54:0E:5A:43:02
0295_71dd_DA:83:96:21:69:96
0296_71d5_F1:DA:48:24:BB:E6
0297_71cd_C7:27:94:47:12:F8
0298_71c5_E5:36:CF:D1:BE:63
0299_71bd_F6:75:F1:65:A1:53
0300_71b5_EB:D3:AD:BE:F1:F2
0303_71ad_E1:6C:A1:C4:FC:0B
0302_71a5_C3:A4:86:67:6A:4A
0304_719d_EB:B2:B0:18:C1:36
0305_7195_E7:C0:6A:DE:E3:E0
0306_718d_ED:5E:AE:7D:11:C1
0307_7185_DE:F9:7F:30:1F:87
0308_717d_D5:BB:64:88:A8:A5
0309_7175_D7:80:2F:28:88:7C
0310_716d_DA:09:9D:28:B5:5A
0311_7165_C1:9C:45:37:37:D4
0312_715d_F1:B6:48:95:D8:F9
0313_7155_EE:5F:1C:64:EE:9C
0314_714d_E3:6B:55:D8:8B:E9
0315_7145_FA:50:65:E8:DC:73
0316_713d_C3:A1:BA:32:51:E7
0317_7135_FE:E8:F8:E9:62:8B
0318_712d_D5:15:F0:4C:6A:98
0319_7125_C3:80:4F:A8:12:D2
0320_711d_CC:F9:A8:E7:09:5B
0321_7115_D0:94:04:2A:8D:9A
0322_710d_CE:BA:DD:3B:BD:B8
0323_7105_D6:E2:3B:FC:F7:26
0324_70fd_FD:97:93:45:27:FD
0325_70f5_F5:85:67:EA:43:79
0326_70ed_C7:6F:D5:F9:4D:7B
0327_70e5_DD:6F:2A:6F:07:5A
0328_70dd_C3:3A:13:93:68:73
0329_70d5_E3:8C:66:26:29:06
0330_70cd_DD:F0:F9:0B:4C:F1
0331_70c5_ED:31:A8:B2:1C:F9
0332_70bd_F6:5E:8F:98:CA:32
0333_70b5_E0:5E:FC:E7:59:9D
0334_70ad_D7:E3:DF:9B:E4:E1
0335_70a5_F1:BF:37:93:49:66
0336_709d_E9:18:11:0F:59:76
0337_7095_F2:A0:2B:53:5D:74
0338_708d_DA:B6:6E:13:96:66
0339_7085_F4:5B:05:D0:98:01
0340_707d_E7:E4:93:EC:12:3D
0341_7075_D1:85:DD:9B:5F:B6
0342_706d_C2:C8:B1:47:57:A3
0343_7065_C7:95:16:F8:C8:4D
0344_705d_D8:A3:EF:07:EC:B1
0346_7055_FB:AE:AA:2A:1F:D9
0347_704d_EA:70:E2:04:7C:3D
0348_7045_E5:B2:83:D8:60:1F
0349_703d_CE:55:5D:95:62:22
0350_7035_D1:02:E2:5A:09:09
0353_702d_E8:81:7F:ED:7B:F4
0354_7025_D2:D9:31:27:AE:45
0356_701d_F2:0B:9F:40:DB:11
0357_7015_D1:53:7F:AB:FC:AF
0358_700d_E7:7C:5D:43:76:D1
0360_7005_C0:7C:E5:AA:CF:C1
0363_6ffd_C6:2C:9D:BD:B7:4A
0364_6ff5_D3:15:47:0B:1B:E6
0365_6fed_FD:CB:F5:08:CD:55
0366_6fe5_CE:D5:02:28:7B:80
0367_6fdd_F9:86:C1:9F:2F:BB
0370_6fd5_E8:1F:FC:E8:44:DE
0371_6fcd_DD:2D:3A:9D:CC:52
0375_6fc5_C6:E5:40:0E:7E:73
0351_6fbd_DB:61:78:D9:07:38
0376_6fb5_DE:A0:2A:75:2E:82
0377_6fad_F4:1A:74:9F:13:58
0379_6fa5_EC:9E:19:F7:28:71
0380_6f9d_D8:E8:68:6D:CF:9D
0381_6f95_F7:87:77:B3:B6:96
0383_6f8d_C5:83:3A:D3:A9:B9
0384_6f85_C9:4C:FE:FA:16:74
0385_6f7d_E2:75:3A:81:6D:A4
0386_6f75_C4:ED:74:D9:30:C3
0387_6f6d_C2:EB:C8:57:95:46
0388_6f65_FA:78:6B:3A:AE:EA
0389_6f5d_E7:67:2D:24:B3:64
0391_6f55_F5:2C:A4:E3:0E:72
0392_6f4d_CB:E3:EA:8D:6F:09
0393_6f45_F7:70:68:A9:71:AA
0394_6f3d_EF:D4:B9:19:5E:29
0396_6f35_DC:07:1F:B6:96:8B
0397_6f2d_D1:32:9C:E8:75:B3
0398_6f25_CE:86:70:94:66:E8
0399_6f1d_FB:B6:9D:03:39:9C
0400_6f15_D3:E7:90:04:2E:5A
0401_6f0d_D4:54:F8:96:4C:72
0402_6f05_DB:1E:7D:B5:51:EB
0403_6efd_CD:6E:03:1D:47:3B
0403_6efd_CD:6E:03:1D:47:3B
0404_6ef5_D5:57:02:4A:B7:B4
0405_6eed_C5:11:4B:A0:DC:6D
0406_6ee5_FE:9B:8B:C2:A5:0C
0407_6edd_E2:57:8B:D4:87:8C
0408_6ed5_FA:C9:E5:26:CF:4E
0409_6ecd_E2:09:B6:AE:5B:0E
0410_6ec5_F7:99:BB:11:36:5D
0411_6ebd_C2:E2:E6:86:5D:AA
0412_6eb5_CB:E7:BD:22:1E:3B
0413_6ead_E3:21:B3:4B:44:52
0414_6ea5_D2:A2:70:DD:B6:05
0415_6e9d_CF:71:5E:67:C9:C7
0416_6e95_C3:1A:D3:3A:F9:7D
0417_6e8d_D0:D9:52:72:7C:31
0418_6e85_FA:31:6A:48:93:AE
0419_6e7d_CB:84:94:95:A4:AB
0420_6e75_C1:D5:DF:91:BD:53
0421_6e6d_CA:1C:1F:F7:5D:68
0422_6e65_DB:C2:4A:2B:4F:43
0423_6e5d_F0:CD:A6:84:9A:6C
0424_6e55_D6:72:2E:AA:E0:31
0425_6e4d_FB:22:CC:D0:AF:47
0426_6e45_F1:A0:44:DF:F7:23
0427_6e3d_D3:D8:47:1B:BE:9C
0428_6e35_EB:ED:C3:EC:5D:16
0429_6e2d_F9:8E:57:9A:02:C0
0430_6e25_D9:05:78:F7:14:B6
0431_6e1d_FD:F2:08:B1:7D:A9
0432_6e15_F2:16:48:86:41:30
0433_6e0d_D7:6E:D7:23:35:22
0434_6e05_C9:3D:E3:E1:B9:60
0435_6dfd_C9:B0:5F:FD:B2:A2
0436_6df5_FE:16:D7:A3:A9:DC
0437_6ded_C3:85:85:E4:4F:77
0439_6de5_E0:E8:AA:CE:7D:A5
0440_6ddd_EE:CB:31:F8:32:B7
0441_6dd5_E2:28:F0:6E:73:FD
0442_6dcd_C1:A3:10:ED:7E:B4
0443_6dc5_E6:0B:FB:B8:A3:83
0445_6dbd_D0:9C:0D:F6:06:89
0446_6db5_DC:B9:1C:DB:80:39
0447_6dad_D5:2B:A3:4F:9D:F1
0448_6da5_DA:B2:71:27:25:39
0449_6d9d_D5:57:99:28:30:20
0450_6d95_C4:7D:08:FA:1B:92
0451_6d8d_D1:23:44:64:59:6D
0453_6d7d_EA:72:ED:13:23:27
0454_6d75_EA:A3:B7:C0:12:F7
0455_6d6d_F2:38:BB:6E:A2:25
0456_6d65_C9:DB:93:C8:7D:31
0458_6d5d_D7:F1:48:25:61:CD
0460_6d55_C4:45:19:DD:0E:4A
0463_6d4d_D3:05:5D:F7:02:39
0464_6d45_D1:49:97:0D:C4:01
0465_6d3d_CB:33:94:16:F8:09
0466_6d35_EB:D1:72:15:2A:5C
0467_6d2d_FA:48:2C:0D:A7:33
0469_6d25_F9:7F:CB:76:50:31
0470_6d1d_D7:B9:A6:5E:9D:45
0471_6d15_CB:AF:AE:A1:2D:A4
0473_6d0d_EA:53:27:43:A6:47
0474_6d05_CD:51:2D:4A:39:EE
0475_6cfd_EE:7D:6F:26:E5:6D
0479_6cf5_D9:B6:14:4E:60:C3
0480_6ced_FC:9C:EE:A8:4B:7E
0481_6ce5_FC:F8:8C:52:B9:0B
0482_6cdd_E8:F4:A0:7F:C7:30
0483_6cd5_F4:D5:6B:66:69:2F
0484_6ccd_E5:0B:4C:49:46:9E
0485_6cc5_D7:42:0F:A1:8E:C2
0490_6cbd_ED:E1:22:A9:EE:33
0491_6cb5_E8:C4:46:87:5C:82
0492_6cad_C9:4F:1A:F6:56:4E
0493_6ca5_EC:E6:3F:A4:B5:DB
0494_6c9d_E7:36:41:B2:AE:D5
0495_6c95_DE:39:BC:A9:BC:E1
0496_6c8d_EB:78:EB:79:4A:F7
0497_6c85_CC:3E:83:5C:0F:7F
0498_6c7d_C9:D0:07:D4:75:DD
0489_6c75_DF:48:3A:81:4C:FA
0487_6c6d_C9:9C:DD:5F:89:3D
0486_6c65_E6:27:F9:0F:78:98
0488_6c5d_C6:BD:B1:EC:B1:DF
0477_6c55_CC:E0:F9:40:85:F1
0476_6c4d_DA:C9:69:59:4F:A7
0468_6c3d_D5:98:87:61:D8:3F
0472_6c35_CD:76:08:29:8C:E3
0374_6c2d_F3:D3:EA:18:A5:42
0372_6c25_CE:A2:D8:D8:BD:13
0369_6c1d_E0:AA:A3:79:50:B1
0368_6c15_C8:E2:99:C3:65:7F
0362_6c0d_D1:4B:48:B0:82:5C
0361_6c05_E3:45:79:E5:11:8C
0359_6bfd_C6:40:30:28:3C:DB
0461_6bf5_EB:83:72:4F:64:FC
0457_6bed_DB:8B:AF:06:DC:DC
0395_6be5_EB:83:A2:16:B0:4E
0390_6bdd_DE:D3:CE:EE:99:D5
0352_6bd5_C5:25:84:82:CE:EB
0345_6bcd_CD:3E:75:2C:1F:8F
0373_6bc5_D0:D6:75:5A:E1:5E
0444_6bbd_E5:8D:3E:B3:72:57
0222_7425_D1:F5:C1:B9:9A:F7
0244_7375_D5:92:3E:91:F3:E1
0355_6bb5_F7:6F:CA:8D:7B:49
0378_6bad_D5:2A:26:4F:88:25
0351_6fbd_DB:61:78:D9:07:38
0403_6efd_CD:6E:03:1D:47:3B
0452_6d85_C9:F7:9B:17:16:D5
0452_6d85_C9:F7:9B:17:16:D5
0491_6cb5_E8:C4:46:87:5C:82
0222_7425_D1:F5:C1:B9:9A:F7
0373_6bc5_D0:D6:75:5A:E1:5E
0039_6ba5_E3:84:0A:0C:95:86
